Week3/470ohm-b/100k.csv

Record Length,2500,Points,-12.4999997E-6,-579.999983311E-3,,Record Length,2500,Points,-12.4999997E-6,-3.99999972E-3,
Sample Interval,9.999999939E-9,s,-12.4899998E-6,-579.999983311E-3,,Sample Interval,9.999999939E-9,s,-12.4899998E-6,-3.99999972E-3,
Trigger Point,1.2500000E3,Samples,-12.4799999E-6,-579.999983311E-3,,Trigger Point,1.2500000E3,Samples,-12.4799999E-6,-4.79999976E-3,
,,,-12.4700000E-6,-579.999983311E-3,,,,,-12.4700000E-6,-4.79999976E-3,
,,,-12.4600001E-6,-579.999983311E-3,,,,,-12.4600001E-6,-4.79999976E-3,
,,,-12.4499993E-6,-579.999983311E-3,,,,,-12.4499993E-6,-5.59999980E-3,
Source,CH1,,-12.4399994E-6,-579.999983311E-3,,Source,CH2,,-12.4399994E-6,-5.59999980E-3,
Vertical Units,Volts,,-12.4299995E-6,-579.999983311E-3,,Vertical Units,Volts,,-12.4299995E-6,-6.39999984E-3,
Vertical Scale,499.999988824E-3,,-12.4199996E-6,-579.999983311E-3,,Vertical Scale,19.9999995E-3,,-12.4199996E-6,-6.39999984E-3,
Vertical Offset,0,,-12.4099997E-6,-579.999983311E-3,,Vertical Offset,0,,-12.4099997E-6,-6.39999984E-3,
Horizontal Units,s,,-12.3999998E-6,-579.999983311E-3,,Horizontal Units,s,,-12.3999998E-6,-6.39999984E-3,
Horizontal Scale,2.5000000E-6,,-12.3899999E-6,-579.999983311E-3,,Horizontal Scale,2.5000000E-6,,-12.3899999E-6,-6.39999984E-3,
Pt Fmt,Y,,-12.3800000E-6,-579.999983311E-3,,Pt Fmt,Y,,-12.3800000E-6,-6.39999984E-3,
Yzero,2.0000000,,-12.3699992E-6,-579.999983311E-3,,Yzero,-2.0000000,,-12.3699992E-6,-5.59999980E-3,
Probe Atten,1.000000,,-12.3599993E-6,-579.999983311E-3,,Probe Atten,1.000000,,-12.3599993E-6,-5.59999980E-3,
,,,-12.3499995E-6,-579.999983311E-3,,,,,-12.3499995E-6,-6.39999984E-3,
Note,TDS 1001B - 10:16:28   21/05/2025,,-12.3399996E-6,-579.999983311E-3,,Note,TDS 1001B - 10:16:28   21/05/2025,,-12.3399996E-6,-6.39999984E-3,
,,,-12.3299997E-6,-560.000002384E-3,,,,,-12.3299997E-6,-5.59999980E-3,
,,,-12.3199998E-6,-560.000002384E-3,,,,,-12.3199998E-6,-6.39999984E-3,
,,,-12.3099999E-6,-579.999983311E-3,,,,,-12.3099999E-6,-6.39999984E-3,
,,,-12.3000000E-6,-560.000002384E-3,,,,,-12.3000000E-6,-7.19999988E-3,
,,,-12.2900001E-6,-560.000002384E-3,,,,,-12.2900001E-6,-7.19999988E-3,
,,,-12.2799993E-6,-560.000002384E-3,,,,,-12.2799993E-6,-7.19999988E-3,
,,,-12.2699994E-6,-560.000002384E-3,,,,,-12.2699994E-6,-7.999999449E-3,
,,,-12.2599995E-6,-560.000002384E-3,,,,,-12.2599995E-6,-7.19999988E-3,
,,,-12.2499996E-6,-560.000002384E-3,,,,,-12.2499996E-6,-7.19999988E-3,
,,,-12.2399997E-6,-560.000002384E-3,,,,,-12.2399997E-6,-7.19999988E-3,
,,,-12.2299998E-6,-539.999961853E-3,,,,,-12.2299998E-6,-7.19999988E-3,
,,,-12.2199999E-6,-560.000002384E-3,,,,,-12.2199999E-6,-7.19999988E-3,
,,,-12.2100000E-6,-539.999961853E-3,,,,,-12.2100000E-6,-7.19999988E-3,
,,,-12.2000001E-6,-539.999961853E-3,,,,,-12.2000001E-6,-7.19999988E-3,
,,,-12.1899993E-6,-539.999961853E-3,,,,,-12.1899993E-6,-7.999999449E-3,
,,,-12.1799994E-6,-539.999961853E-3,,,,,-12.1799994E-6,-7.999999449E-3,
,,,-12.1699995E-6,-539.999961853E-3,,,,,-12.1699995E-6,-7.999999449E-3,
,,,-12.1599996E-6,-539.999961853E-3,,,,,-12.1599996E-6,-8.799999952E-3,
,,,-12.1499997E-6,-539.999961853E-3,,,,,-12.1499997E-6,-9.599999525E-3,
,,,-12.1399999E-6,-539.999961853E-3,,,,,-12.1399999E-6,-9.599999525E-3,
,,,-12.1300000E-6,-539.999961853E-3,,,,,-12.1300000E-6,-9.599999525E-3,
,,,-12.1200001E-6,-539.999961853E-3,,,,,-12.1200001E-6,-10.4000000E-3,
,,,-12.1099993E-6,-539.999961853E-3,,,,,-12.1099993E-6,-9.599999525E-3,
,,,-12.0999994E-6,-539.999961853E-3,,,,,-12.0999994E-6,-9.599999525E-3,
,,,-12.0899995E-6,-539.999961853E-3,,,,,-12.0899995E-6,-9.599999525E-3,
,,,-12.0799996E-6,-539.999961853E-3,,,,,-12.0799996E-6,-9.599999525E-3,
,,,-12.0699997E-6,-519.999980927E-3,,,,,-12.0699997E-6,-9.599999525E-3,
,,,-12.0599998E-6,-519.999980927E-3,,,,,-12.0599998E-6,-10.4000000E-3,
,,,-12.0499999E-6,-519.999980927E-3,,,,,-12.0499999E-6,-10.4000000E-3,
,,,-12.0400000E-6,-519.999980927E-3,,,,,-12.0400000E-6,-10.4000000E-3,
,,,-12.0300001E-6,-519.999980927E-3,,,,,-12.0300001E-6,-10.4000000E-3,
,,,-12.0199993E-6,-519.999980927E-3,,,,,-12.0199993E-6,-11.1999996E-3,
,,,-12.0099994E-6,-519.999980927E-3,,,,,-12.0099994E-6,-12.0000001E-3,
,,,-11.9999995E-6,-519.999980927E-3,,,,,-11.9999995E-6,-12.0000001E-3,
,,,-11.9899996E-6,-519.999980927E-3,,,,,-11.9899996E-6,-12.7999997E-3,
,,,-11.9799997E-6,-519.999980927E-3,,,,,-11.9799997E-6,-12.0000001E-3,
,,,-11.9699998E-6,-519.999980927E-3,,,,,-11.9699998E-6,-12.0000001E-3,
,,,-11.9599999E-6,-519.999980927E-3,,,,,-11.9599999E-6,-12.0000001E-3,
,,,-11.9500000E-6,-519.999980927E-3,,,,,-11.9500000E-6,-12.0000001E-3,
,,,-11.9399992E-6,-500.000000000E-3,,,,,-11.9399992E-6,-12.0000001E-3,
,,,-11.9299993E-6,-500.000000000E-3,,,,,-11.9299993E-6,-12.0000001E-3,
,,,-11.9199995E-6,-500.000000000E-3,,,,,-11.9199995E-6,-12.0000001E-3,
,,,-11.9099996E-6,-500.000000000E-3,,,,,-11.9099996E-6,-12.0000001E-3,
,,,-11.8999997E-6,-500.000000000E-3,,,,,-11.8999997E-6,-12.7999997E-3,
,,,-11.8899998E-6,-500.000000000E-3,,,,,-11.8899998E-6,-12.7999997E-3,
,,,-11.8799999E-6,-500.000000000E-3,,,,,-11.8799999E-6,-12.7999997E-3,
,,,-11.8700000E-6,-479.999989271E-3,,,,,-11.8700000E-6,-12.7999997E-3,
,,,-11.8600001E-6,-500.000000000E-3,,,,,-11.8600001E-6,-13.5999992E-3,
,,,-11.8499993E-6,-479.999989271E-3,,,,,-11.8499993E-6,-13.5999992E-3,
,,,-11.8399994E-6,-500.000000000E-3,,,,,-11.8399994E-6,-13.5999992E-3,
,,,-11.8299995E-6,-479.999989271E-3,,,,,-11.8299995E-6,-13.5999992E-3,
,,,-11.8199996E-6,-479.999989271E-3,,,,,-11.8199996E-6,-13.5999992E-3,
,,,-11.8099997E-6,-479.999989271E-3,,,,,-11.8099997E-6,-13.5999992E-3,
,,,-11.7999998E-6,-479.999989271E-3,,,,,-11.7999998E-6,-13.5999992E-3,
,,,-11.7899999E-6,-479.999989271E-3,,,,,-11.7899999E-6,-13.5999992E-3,
,,,-11.7800000E-6,-479.999989271E-3,,,,,-11.7800000E-6,-13.5999992E-3,
,,,-11.7700001E-6,-459.999978542E-3,,,,,-11.7700001E-6,-13.5999992E-3,
,,,-11.7599993E-6,-459.999978542E-3,,,,,-11.7599993E-6,-14.3999998E-3,
,,,-11.7499994E-6,-479.999989271E-3,,,,,-11.7499994E-6,-14.3999998E-3,
,,,-11.7399995E-6,-459.999978542E-3,,,,,-11.7399995E-6,-14.3999998E-3,
,,,-11.7299996E-6,-459.999978542E-3,,,,,-11.7299996E-6,-15.1999993E-3,
,,,-11.7199997E-6,-459.999978542E-3,,,,,-11.7199997E-6,-15.1999993E-3,
,,,-11.7099999E-6,-459.999978542E-3,,,,,-11.7099999E-6,-15.9999989E-3,
,,,-11.7000000E-6,-459.999978542E-3,,,,,-11.7000000E-6,-15.9999989E-3,
,,,-11.6900001E-6,-459.999978542E-3,,,,,-11.6900001E-6,-15.9999989E-3,
,,,-11.6799993E-6,-439.999997616E-3,,,,,-11.6799993E-6,-15.9999989E-3,
,,,-11.6699994E-6,-439.999997616E-3,,,,,-11.6699994E-6,-15.9999989E-3,
,,,-11.6599995E-6,-439.999997616E-3,,,,,-11.6599995E-6,-15.1999993E-3,
,,,-11.6499996E-6,-439.999997616E-3,,,,,-11.6499996E-6,-15.1999993E-3,
,,,-11.6399997E-6,-439.999997616E-3,,,,,-11.6399997E-6,-15.1999993E-3,
,,,-11.6299998E-6,-439.999997616E-3,,,,,-11.6299998E-6,-15.1999993E-3,
,,,-11.6199999E-6,-439.999997616E-3,,,,,-11.6199999E-6,-15.9999989E-3,
,,,-11.6100000E-6,-439.999997616E-3,,,,,-11.6100000E-6,-15.9999989E-3,
,,,-11.6000001E-6,-419.999986887E-3,,,,,-11.6000001E-6,-16.7999994E-3,
,,,-11.5899993E-6,-419.999986887E-3,,,,,-11.5899993E-6,-16.7999994E-3,
,,,-11.5799994E-6,-419.999986887E-3,,,,,-11.5799994E-6,-16.7999994E-3,
,,,-11.5699995E-6,-419.999986887E-3,,,,,-11.5699995E-6,-16.7999994E-3,
,,,-11.5599996E-6,-419.999986887E-3,,,,,-11.5599996E-6,-17.5999999E-3,
,,,-11.5499997E-6,-399.99997616E-3,,,,,-11.5499997E-6,-17.5999999E-3,
,,,-11.5399998E-6,-399.99997616E-3,,,,,-11.5399998E-6,-17.5999999E-3,
,,,-11.5299999E-6,-399.99997616E-3,,,,,-11.5299999E-6,-17.5999999E-3,
,,,-11.5200000E-6,-399.99997616E-3,,,,,-11.5200000E-6,-16.7999994E-3,
,,,-11.5099992E-6,-399.99997616E-3,,,,,-11.5099992E-6,-16.7999994E-3,
,,,-11.4999993E-6,-399.99997616E-3,,,,,-11.4999993E-6,-16.7999994E-3,
,,,-11.4899995E-6,-399.99997616E-3,,,,,-11.4899995E-6,-16.7999994E-3,
,,,-11.4799996E-6,-379.99999523E-3,,,,,-11.4799996E-6,-17.5999999E-3,
,,,-11.4699997E-6,-379.99999523E-3,,,,,-11.4699997E-6,-17.5999999E-3,
,,,-11.4599998E-6,-379.99999523E-3,,,,,-11.4599998E-6,-17.5999999E-3,
,,,-11.4499999E-6,-379.99999523E-3,,,,,-11.4499999E-6,-18.4000004E-3,
,,,-11.4400000E-6,-359.99998450E-3,,,,,-11.4400000E-6,-18.4000004E-3,
,,,-11.4300001E-6,-359.99998450E-3,,,,,-11.4300001E-6,-18.4000004E-3,
,,,-11.4199993E-6,-379.99999523E-3,,,,,-11.4199993E-6,-18.4000004E-3,
,,,-11.4099994E-6,-359.99998450E-3,,,,,-11.4099994E-6,-18.4000004E-3,
,,,-11.3999995E-6,-359.99998450E-3,,,,,-11.3999995E-6,-17.5999999E-3,
,,,-11.3899996E-6,-359.99998450E-3,,,,,-11.3899996E-6,-17.5999999E-3,
,,,-11.3799997E-6,-359.99998450E-3,,,,,-11.3799997E-6,-18.4000004E-3,
,,,-11.3699998E-6,-359.99998450E-3,,,,,-11.3699998E-6,-17.5999999E-3,
,,,-11.3599999E-6,-359.99998450E-3,,,,,-11.3599999E-6,-17.5999999E-3,
,,,-11.3500000E-6,-340.00000358E-3,,,,,-11.3500000E-6,-18.4000004E-3,
,,,-11.3400001E-6,-340.00000358E-3,,,,,-11.3400001E-6,-18.4000004E-3,
,,,-11.3299993E-6,-340.00000358E-3,,,,,-11.3299993E-6,-18.4000004E-3,
,,,-11.3199994E-6,-340.00000358E-3,,,,,-11.3199994E-6,-19.1999990E-3,
,,,-11.3099995E-6,-319.99999285E-3,,,,,-11.3099995E-6,-19.1999990E-3,
,,,-11.2999996E-6,-340.00000358E-3,,,,,-11.2999996E-6,-19.1999990E-3,
,,,-11.2899997E-6,-319.99999285E-3,,,,,-11.2899997E-6,-19.1999990E-3,
,,,-11.2799999E-6,-319.99999285E-3,,,,,-11.2799999E-6,-19.1999990E-3,
,,,-11.2700000E-6,-319.99999285E-3,,,,,-11.2700000E-6,-19.1999990E-3,
,,,-11.2600001E-6,-319.99999285E-3,,,,,-11.2600001E-6,-19.1999990E-3,
,,,-11.2499993E-6,-319.99999285E-3,,,,,-11.2499993E-6,-19.1999990E-3,
,,,-11.2399994E-6,-299.99998212E-3,,,,,-11.2399994E-6,-19.1999990E-3,
,,,-11.2299995E-6,-299.99998212E-3,,,,,-11.2299995E-6,-19.1999990E-3,
,,,-11.2199996E-6,-299.99998212E-3,,,,,-11.2199996E-6,-19.1999990E-3,
,,,-11.2099997E-6,-299.99998212E-3,,,,,-11.2099997E-6,-19.1999990E-3,
,,,-11.1999998E-6,-299.99998212E-3,,,,,-11.1999998E-6,-19.1999990E-3,
,,,-11.1899999E-6,-280.00000119E-3,,,,,-11.1899999E-6,-19.1999990E-3,
,,,-11.1800000E-6,-280.00000119E-3,,,,,-11.1800000E-6,-19.9999996E-3,
,,,-11.1700001E-6,-280.00000119E-3,,,,,-11.1700001E-6,-19.9999996E-3,
,,,-11.1599993E-6,-280.00000119E-3,,,,,-11.1599993E-6,-20.80000006E-3,
,,,-11.1499994E-6,-280.00000119E-3,,,,,-11.1499994E-6,-20.80000006E-3,
,,,-11.1399995E-6,-280.00000119E-3,,,,,-11.1399995E-6,-20.80000006E-3,
,,,-11.1299996E-6,-259.99999046E-3,,,,,-11.1299996E-6,-20.80000006E-3,
,,,-11.1199997E-6,-259.99999046E-3,,,,,-11.1199997E-6,-19.9999996E-3,
,,,-11.1099998E-6,-259.99999046E-3,,,,,-11.1099998E-6,-20.80000006E-3,
,,,-11.0999999E-6,-259.99999046E-3,,,,,-11.0999999E-6,-19.9999996E-3,
,,,-11.0900000E-6,-259.99999046E-3,,,,,-11.0900000E-6,-19.9999996E-3,
,,,-11.0799992E-6,-259.99999046E-3,,,,,-11.0799992E-6,-19.9999996E-3,
,,,-11.0699993E-6,-239.99999464E-3,,,,,-11.0699993E-6,-19.9999996E-3,
,,,-11.0599995E-6,-239.99999464E-3,,,,,-11.0599995E-6,-19.9999996E-3,
,,,-11.0499996E-6,-239.99999464E-3,,,,,-11.0499996E-6,-20.80000006E-3,
,,,-11.0399997E-6,-239.99999464E-3,,,,,-11.0399997E-6,-20.80000006E-3,
,,,-11.0299998E-6,-219.99999881E-3,,,,,-11.0299998E-6,-20.80000006E-3,
,,,-11.0199999E-6,-219.99999881E-3,,,,,-11.0199999E-6,-21.59999870E-3,
,,,-11.0100000E-6,-219.99999881E-3,,,,,-11.0100000E-6,-21.59999870E-3,
,,,-11.0000001E-6,-219.99999881E-3,,,,,-11.0000001E-6,-21.59999870E-3,
,,,-10.9899993E-6,-219.99999881E-3,,,,,-10.9899993E-6,-21.59999870E-3,
,,,-10.9799994E-6,-219.99999881E-3,,,,,-10.9799994E-6,-20.80000006E-3,
,,,-10.9699995E-6,-219.99999881E-3,,,,,-10.9699995E-6,-21.59999870E-3,
,,,-10.9599996E-6,-199.99998808E-3,,,,,-10.9599996E-6,-20.80000006E-3,
,,,-10.9499997E-6,-199.99998808E-3,,,,,-10.9499997E-6,-20.80000006E-3,
,,,-10.9399998E-6,-199.99998808E-3,,,,,-10.9399998E-6,-20.80000006E-3,
,,,-10.9299999E-6,-199.99998808E-3,,,,,-10.9299999E-6,-21.59999870E-3,
,,,-10.9200000E-6,-179.99999225E-3,,,,,-10.9200000E-6,-21.59999870E-3,
,,,-10.9100001E-6,-179.99999225E-3,,,,,-10.9100001E-6,-21.59999870E-3,
,,,-10.8999993E-6,-179.99999225E-3,,,,,-10.8999993E-6,-21.59999870E-3,
,,,-10.8899994E-6,-179.99999225E-3,,,,,-10.8899994E-6,-22.39999920E-3,
,,,-10.8799995E-6,-179.99999225E-3,,,,,-10.8799995E-6,-22.39999920E-3,
,,,-10.8699996E-6,-159.99999642E-3,,,,,-10.8699996E-6,-22.39999920E-3,
,,,-10.8599997E-6,-159.99999642E-3,,,,,-10.8599997E-6,-22.39999920E-3,
,,,-10.8499999E-6,-159.99999642E-3,,,,,-10.8499999E-6,-22.39999920E-3,
,,,-10.8400000E-6,-159.99999642E-3,,,,,-10.8400000E-6,-22.39999920E-3,
,,,-10.8300001E-6,-159.99999642E-3,,,,,-10.8300001E-6,-22.39999920E-3,
,,,-10.8199993E-6,-140.0000006E-3,,,,,-10.8199993E-6,-22.39999920E-3,
,,,-10.8099994E-6,-140.0000006E-3,,,,,-10.8099994E-6,-22.39999920E-3,
,,,-10.7999995E-6,-140.0000006E-3,,,,,-10.7999995E-6,-21.59999870E-3,
,,,-10.7899996E-6,-140.0000006E-3,,,,,-10.7899996E-6,-22.39999920E-3,
,,,-10.7799997E-6,-119.9999973E-3,,,,,-10.7799997E-6,-21.59999870E-3,
,,,-10.7699998E-6,-119.9999973E-3,,,,,-10.7699998E-6,-22.39999920E-3,
,,,-10.7599999E-6,-119.9999973E-3,,,,,-10.7599999E-6,-22.39999920E-3,
,,,-10.7500000E-6,-119.9999973E-3,,,,,-10.7500000E-6,-23.19999970E-3,
,,,-10.7400001E-6,-119.9999973E-3,,,,,-10.7400001E-6,-23.19999970E-3,
,,,-10.7299993E-6,-119.9999973E-3,,,,,-10.7299993E-6,-23.19999970E-3,
,,,-10.7199994E-6,-99.999994040E-3,,,,,-10.7199994E-6,-24.00000021E-3,
,,,-10.7099995E-6,-99.999994040E-3,,,,,-10.7099995E-6,-23.19999970E-3,
,,,-10.6999996E-6,-99.999994040E-3,,,,,-10.6999996E-6,-23.19999970E-3,
,,,-10.6899997E-6,-99.999994040E-3,,,,,-10.6899997E-6,-23.19999970E-3,
,,,-10.6799998E-6,-99.999994040E-3,,,,,-10.6799998E-6,-22.39999920E-3,
,,,-10.6699999E-6,-99.999994040E-3,,,,,-10.6699999E-6,-23.19999970E-3,
,,,-10.6600000E-6,-79.999998212E-3,,,,,-10.6600000E-6,-22.39999920E-3,
,,,-10.6500001E-6,-79.999998212E-3,,,,,-10.6500001E-6,-22.39999920E-3,
,,,-10.6399993E-6,-79.999998212E-3,,,,,-10.6399993E-6,-22.39999920E-3,
,,,-10.6299995E-6,-79.999998212E-3,,,,,-10.6299995E-6,-22.39999920E-3,
,,,-10.6199996E-6,-79.999998212E-3,,,,,-10.6199996E-6,-23.19999970E-3,
,,,-10.6099997E-6,-59.999998659E-3,,,,,-10.6099997E-6,-23.19999970E-3,
,,,-10.5999998E-6,-59.999998659E-3,,,,,-10.5999998E-6,-24.00000021E-3,
,,,-10.5899999E-6,-59.999998659E-3,,,,,-10.5899999E-6,-24.00000021E-3,
,,,-10.5800000E-6,-59.999998659E-3,,,,,-10.5800000E-6,-24.00000021E-3,
,,,-10.5700001E-6,-39.99999911E-3,,,,,-10.5700001E-6,-24.00000021E-3,
,,,-10.5599993E-6,-39.99999911E-3,,,,,-10.5599993E-6,-24.00000021E-3,
,,,-10.5499994E-6,-39.99999911E-3,,,,,-10.5499994E-6,-23.19999970E-3,
,,,-10.5399995E-6,-39.99999911E-3,,,,,-10.5399995E-6,-23.19999970E-3,
,,,-10.5299996E-6,-39.99999911E-3,,,,,-10.5299996E-6,-23.19999970E-3,
,,,-10.5199997E-6,-19.9999996E-3,,,,,-10.5199997E-6,-23.19999970E-3,
,,,-10.5099998E-6,-39.99999911E-3,,,,,-10.5099998E-6,-23.19999970E-3,
,,,-10.4999999E-6,-19.9999996E-3,,,,,-10.4999999E-6,-23.19999970E-3,
,,,-10.4900000E-6,0.0,,,,,-10.4900000E-6,-23.19999970E-3,
,,,-10.4800001E-6,-19.9999996E-3,,,,,-10.4800001E-6,-23.19999970E-3,
,,,-10.4699993E-6,-19.9999996E-3,,,,,-10.4699993E-6,-24.00000021E-3,
,,,-10.4599994E-6,0.0,,,,,-10.4599994E-6,-24.00000021E-3,
,,,-10.4499995E-6,0.0,,,,,-10.4499995E-6,-24.00000021E-3,
,,,-10.4399996E-6,0.0,,,,,-10.4399996E-6,-24.00000021E-3,
,,,-10.4299997E-6,19.9999996E-3,,,,,-10.4299997E-6,-24.00000021E-3,
,,,-10.4199999E-6,19.9999996E-3,,,,,-10.4199999E-6,-24.00000021E-3,
,,,-10.4100000E-6,0.0,,,,,-10.4100000E-6,-23.19999970E-3,
,,,-10.4000001E-6,19.9999996E-3,,,,,-10.4000001E-6,-23.19999970E-3,
,,,-10.3899993E-6,19.9999996E-3,,,,,-10.3899993E-6,-23.19999970E-3,
,,,-10.3799994E-6,19.9999996E-3,,,,,-10.3799994E-6,-22.39999920E-3,
,,,-10.3699995E-6,19.9999996E-3,,,,,-10.3699995E-6,-23.19999970E-3,
,,,-10.3599996E-6,39.99999911E-3,,,,,-10.3599996E-6,-23.19999970E-3,
,,,-10.3499997E-6,39.99999911E-3,,,,,-10.3499997E-6,-23.19999970E-3,
,,,-10.3399998E-6,39.99999911E-3,,,,,-10.3399998E-6,-23.19999970E-3,
,,,-10.3299999E-6,39.99999911E-3,,,,,-10.3299999E-6,-23.19999970E-3,
,,,-10.3200000E-6,59.999998659E-3,,,,,-10.3200000E-6,-24.00000021E-3,
,,,-10.3100001E-6,59.999998659E-3,,,,,-10.3100001E-6,-24.00000021E-3,
,,,-10.2999993E-6,59.999998659E-3,,,,,-10.2999993E-6,-24.00000021E-3,
,,,-10.2899994E-6,59.999998659E-3,,,,,-10.2899994E-6,-24.00000021E-3,
,,,-10.2799995E-6,79.999998212E-3,,,,,-10.2799995E-6,-24.00000021E-3,
,,,-10.2699996E-6,79.999998212E-3,,,,,-10.2699996E-6,-23.19999970E-3,
,,,-10.2599997E-6,79.999998212E-3,,,,,-10.2599997E-6,-23.19999970E-3,
,,,-10.2499998E-6,79.999998212E-3,,,,,-10.2499998E-6,-23.19999970E-3,
,,,-10.2399999E-6,79.999998212E-3,,,,,-10.2399999E-6,-22.39999920E-3,
,,,-10.2300000E-6,99.999994040E-3,,,,,-10.2300000E-6,-22.39999920E-3,
,,,-10.2200001E-6,99.999994040E-3,,,,,-10.2200001E-6,-22.39999920E-3,
,,,-10.2099993E-6,99.999994040E-3,,,,,-10.2099993E-6,-23.19999970E-3,
,,,-10.1999995E-6,99.999994040E-3,,,,,-10.1999995E-6,-22.39999920E-3,
,,,-10.1899996E-6,99.999994040E-3,,,,,-10.1899996E-6,-23.19999970E-3,
,,,-10.1799997E-6,99.999994040E-3,,,,,-10.1799997E-6,-23.19999970E-3,
,,,-10.1699998E-6,119.9999973E-3,,,,,-10.1699998E-6,-23.19999970E-3,
,,,-10.1599999E-6,119.9999973E-3,,,,,-10.1599999E-6,-23.19999970E-3,
,,,-10.1500000E-6,119.9999973E-3,,,,,-10.1500000E-6,-23.19999970E-3,
,,,-10.1400001E-6,140.0000006E-3,,,,,-10.1400001E-6,-23.19999970E-3,
,,,-10.1299993E-6,140.0000006E-3,,,,,-10.1299993E-6,-23.19999970E-3,
,,,-10.1199994E-6,140.0000006E-3,,,,,-10.1199994E-6,-22.39999920E-3,
,,,-10.1099995E-6,140.0000006E-3,,,,,-10.1099995E-6,-22.39999920E-3,
,,,-10.0999996E-6,140.0000006E-3,,,,,-10.0999996E-6,-22.39999920E-3,
,,,-10.0899997E-6,159.99999642E-3,,,,,-10.0899997E-6,-22.39999920E-3,
,,,-10.0799998E-6,159.99999642E-3,,,,,-10.0799998E-6,-22.39999920E-3,
,,,-10.0699999E-6,159.99999642E-3,,,,,-10.0699999E-6,-22.39999920E-3,
,,,-10.0600000E-6,159.99999642E-3,,,,,-10.0600000E-6,-22.39999920E-3,
,,,-10.0500001E-6,179.99999225E-3,,,,,-10.0500001E-6,-23.19999970E-3,
,,,-10.0399993E-6,179.99999225E-3,,,,,-10.0399993E-6,-23.19999970E-3,
,,,-10.0299994E-6,179.99999225E-3,,,,,-10.0299994E-6,-23.19999970E-3,
,,,-10.0199995E-6,179.99999225E-3,,,,,-10.0199995E-6,-23.19999970E-3,
,,,-10.0099996E-6,179.99999225E-3,,,,,-10.0099996E-6,-23.19999970E-3,
,,,-9.999999747E-6,179.99999225E-3,,,,,-9.999999747E-6,-23.19999970E-3,
,,,-9.989999853E-6,199.99998808E-3,,,,,-9.989999853E-6,-22.39999920E-3,
,,,-9.979999959E-6,179.99999225E-3,,,,,-9.979999959E-6,-22.39999920E-3,
,,,-9.970000065E-6,199.99998808E-3,,,,,-9.970000065E-6,-22.39999920E-3,
,,,-9.959999261E-6,199.99998808E-3,,,,,-9.959999261E-6,-22.39999920E-3,
,,,-9.949999367E-6,199.99998808E-3,,,,,-9.949999367E-6,-22.39999920E-3,
,,,-9.939999472E-6,219.99999881E-3,,,,,-9.939999472E-6,-22.39999920E-3,
,,,-9.929999578E-6,219.99999881E-3,,,,,-9.929999578E-6,-22.39999920E-3,
,,,-9.919999684E-6,219.99999881E-3,,,,,-9.919999684E-6,-23.19999970E-3,
,,,-9.909999790E-6,219.99999881E-3,,,,,-9.909999790E-6,-23.19999970E-3,
,,,-9.899999895E-6,219.99999881E-3,,,,,-9.899999895E-6,-23.19999970E-3,
,,,-9.890000001E-6,239.99999464E-3,,,,,-9.890000001E-6,-23.19999970E-3,
,,,-9.880000107E-6,239.99999464E-3,,,,,-9.880000107E-6,-23.19999970E-3,
,,,-9.869999303E-6,239.99999464E-3,,,,,-9.869999303E-6,-22.39999920E-3,
,,,-9.859999409E-6,239.99999464E-3,,,,,-9.859999409E-6,-22.39999920E-3,
,,,-9.849999515E-6,239.99999464E-3,,,,,-9.849999515E-6,-22.39999920E-3,
,,,-9.839999620E-6,239.99999464E-3,,,,,-9.839999620E-6,-22.39999920E-3,
,,,-9.829999726E-6,259.99999046E-3,,,,,-9.829999726E-6,-21.59999870E-3,
,,,-9.819999832E-6,259.99999046E-3,,,,,-9.819999832E-6,-21.59999870E-3,
,,,-9.809999938E-6,259.99999046E-3,,,,,-9.809999938E-6,-21.59999870E-3,
,,,-9.800000043E-6,259.99999046E-3,,,,,-9.800000043E-6,-21.59999870E-3,
,,,-9.790000149E-6,280.00000119E-3,,,,,-9.790000149E-6,-21.59999870E-3,
,,,-9.779999345E-6,280.00000119E-3,,,,,-9.779999345E-6,-22.39999920E-3,
,,,-9.769999451E-6,280.00000119E-3,,,,,-9.769999451E-6,-21.59999870E-3,
,,,-9.759999557E-6,280.00000119E-3,,,,,-9.759999557E-6,-22.39999920E-3,
,,,-9.749999663E-6,280.00000119E-3,,,,,-9.749999663E-6,-22.39999920E-3,
