Week3/470ohm-c/10k.csv

Record Length,2500,Points,-124.9999914E-6,-579.999983311E-3,,Record Length,2500,Points,-124.9999914E-6,54.00000140E-3,
Sample Interval,100.0000012E-9,s,-124.8999906E-6,-579.999983311E-3,,Sample Interval,100.0000012E-9,s,-124.8999906E-6,54.00000140E-3,
Trigger Point,1.2500000E3,Samples,-124.7999899E-6,-579.999983311E-3,,Trigger Point,1.2500000E3,Samples,-124.7999899E-6,54.00000140E-3,
,,,-124.6999891E-6,-579.999983311E-3,,,,,-124.6999891E-6,54.00000140E-3,
,,,-124.5999883E-6,-579.999983311E-3,,,,,-124.5999883E-6,54.00000140E-3,
,,,-124.4999876E-6,-579.999983311E-3,,,,,-124.4999876E-6,56.000001729E-3,
Source,CH1,,-124.3999868E-6,-579.999983311E-3,,Source,CH2,,-124.3999868E-6,54.00000140E-3,
Vertical Units,Volts,,-124.2999861E-6,-579.999983311E-3,,Vertical Units,Volts,,-124.2999861E-6,54.00000140E-3,
Vertical Scale,499.999988824E-3,,-124.1999853E-6,-579.999983311E-3,,Vertical Scale,50.00000237E-3,,-124.1999853E-6,54.00000140E-3,
Vertical Offset,0,,-124.0999845E-6,-579.999983311E-3,,Vertical Offset,0,,-124.0999845E-6,54.00000140E-3,
Horizontal Units,s,,-123.9999983E-6,-579.999983311E-3,,Horizontal Units,s,,-123.9999983E-6,56.000001729E-3,
Horizontal Scale,25.00000029E-6,,-123.8999976E-6,-579.999983311E-3,,Horizontal Scale,25.00000029E-6,,-123.8999976E-6,56.000001729E-3,
Pt Fmt,Y,,-123.7999968E-6,-579.999983311E-3,,Pt Fmt,Y,,-123.7999968E-6,54.00000140E-3,
Yzero,2.0000000,,-123.6999960E-6,-579.999983311E-3,,Yzero,-2.0000000,,-123.6999960E-6,56.000001729E-3,
Probe Atten,1.000000,,-123.5999953E-6,-579.999983311E-3,,Probe Atten,1.000000,,-123.5999953E-6,54.00000140E-3,
,,,-123.4999945E-6,-579.999983311E-3,,,,,-123.4999945E-6,56.000001729E-3,
Note,TDS 1001B - 10:27:06   21/05/2025,,-123.3999938E-6,-579.999983311E-3,,Note,TDS 1001B - 10:27:06   21/05/2025,,-123.3999938E-6,54.00000140E-3,
,,,-123.2999930E-6,-579.999983311E-3,,,,,-123.2999930E-6,56.000001729E-3,
,,,-123.1999922E-6,-579.999983311E-3,,,,,-123.1999922E-6,56.000001729E-3,
,,,-123.0999915E-6,-579.999983311E-3,,,,,-123.0999915E-6,56.000001729E-3,
,,,-122.9999907E-6,-579.999983311E-3,,,,,-122.9999907E-6,56.000001729E-3,
,,,-122.8999899E-6,-579.999983311E-3,,,,,-122.8999899E-6,56.000001729E-3,
,,,-122.7999892E-6,-579.999983311E-3,,,,,-122.7999892E-6,56.000001729E-3,
,,,-122.6999884E-6,-579.999983311E-3,,,,,-122.6999884E-6,56.000001729E-3,
,,,-122.5999877E-6,-579.999983311E-3,,,,,-122.5999877E-6,56.000001729E-3,
,,,-122.4999869E-6,-579.999983311E-3,,,,,-122.4999869E-6,56.000001729E-3,
,,,-122.3999861E-6,-579.999983311E-3,,,,,-122.3999861E-6,56.000001729E-3,
,,,-122.2999854E-6,-560.000002384E-3,,,,,-122.2999854E-6,56.000001729E-3,
,,,-122.1999846E-6,-560.000002384E-3,,,,,-122.1999846E-6,56.000001729E-3,
,,,-122.0999984E-6,-560.000002384E-3,,,,,-122.0999984E-6,56.000001729E-3,
,,,-121.9999904E-6,-560.000002384E-3,,,,,-121.9999904E-6,56.000001729E-3,
,,,-121.8999896E-6,-560.000002384E-3,,,,,-121.8999896E-6,56.000001729E-3,
,,,-121.7999888E-6,-560.000002384E-3,,,,,-121.7999888E-6,56.000001729E-3,
,,,-121.6999881E-6,-560.000002384E-3,,,,,-121.6999881E-6,56.000001729E-3,
,,,-121.5999946E-6,-560.000002384E-3,,,,,-121.5999946E-6,56.000001729E-3,
,,,-121.4999938E-6,-560.000002384E-3,,,,,-121.4999938E-6,56.000001729E-3,
,,,-121.3999931E-6,-560.000002384E-3,,,,,-121.3999931E-6,56.000001729E-3,
,,,-121.2999923E-6,-560.000002384E-3,,,,,-121.2999923E-6,56.000001729E-3,
,,,-121.1999916E-6,-560.000002384E-3,,,,,-121.1999916E-6,56.000001729E-3,
,,,-121.0999908E-6,-560.000002384E-3,,,,,-121.0999908E-6,56.000001729E-3,
,,,-120.9999900E-6,-560.000002384E-3,,,,,-120.9999900E-6,56.000001729E-3,
,,,-120.8999893E-6,-539.999961853E-3,,,,,-120.8999893E-6,56.000001729E-3,
,,,-120.7999885E-6,-539.999961853E-3,,,,,-120.7999885E-6,56.000001729E-3,
,,,-120.6999877E-6,-539.999961853E-3,,,,,-120.6999877E-6,56.000001729E-3,
,,,-120.5999943E-6,-539.999961853E-3,,,,,-120.5999943E-6,56.000001729E-3,
,,,-120.4999935E-6,-539.999961853E-3,,,,,-120.4999935E-6,56.000001729E-3,
,,,-120.3999927E-6,-539.999961853E-3,,,,,-120.3999927E-6,56.000001729E-3,
,,,-120.2999920E-6,-539.999961853E-3,,,,,-120.2999920E-6,56.000001729E-3,
,,,-120.1999912E-6,-539.999961853E-3,,,,,-120.1999912E-6,56.000001729E-3,
,,,-120.0999905E-6,-539.999961853E-3,,,,,-120.0999905E-6,56.000001729E-3,
,,,-119.9999897E-6,-539.999961853E-3,,,,,-119.9999897E-6,56.000001729E-3,
,,,-119.8999889E-6,-539.999961853E-3,,,,,-119.8999889E-6,56.000001729E-3,
,,,-119.7999882E-6,-519.999980927E-3,,,,,-119.7999882E-6,56.000001729E-3,
,,,-119.6999947E-6,-519.999980927E-3,,,,,-119.6999947E-6,56.000001729E-3,
,,,-119.5999939E-6,-519.999980927E-3,,,,,-119.5999939E-6,56.000001729E-3,
,,,-119.4999932E-6,-539.999961853E-3,,,,,-119.4999932E-6,56.000001729E-3,
,,,-119.3999924E-6,-519.999980927E-3,,,,,-119.3999924E-6,54.00000140E-3,
,,,-119.2999916E-6,-519.999980927E-3,,,,,-119.2999916E-6,54.00000140E-3,
,,,-119.1999909E-6,-519.999980927E-3,,,,,-119.1999909E-6,54.00000140E-3,
,,,-119.0999901E-6,-519.999980927E-3,,,,,-119.0999901E-6,54.00000140E-3,
,,,-118.9999894E-6,-519.999980927E-3,,,,,-118.9999894E-6,54.00000140E-3,
,,,-118.8999886E-6,-519.999980927E-3,,,,,-118.8999886E-6,54.00000140E-3,
,,,-118.7999878E-6,-519.999980927E-3,,,,,-118.7999878E-6,54.00000140E-3,
,,,-118.6999943E-6,-519.999980927E-3,,,,,-118.6999943E-6,54.00000140E-3,
,,,-118.5999936E-6,-500.000000000E-3,,,,,-118.5999936E-6,54.00000140E-3,
,,,-118.4999928E-6,-500.000000000E-3,,,,,-118.4999928E-6,54.00000140E-3,
,,,-118.3999921E-6,-500.000000000E-3,,,,,-118.3999921E-6,54.00000140E-3,
,,,-118.2999913E-6,-500.000000000E-3,,,,,-118.2999913E-6,54.00000140E-3,
,,,-118.1999905E-6,-500.000000000E-3,,,,,-118.1999905E-6,54.00000140E-3,
,,,-118.0999898E-6,-500.000000000E-3,,,,,-118.0999898E-6,54.00000140E-3,
,,,-117.9999890E-6,-500.000000000E-3,,,,,-117.9999890E-6,54.00000140E-3,
,,,-117.8999883E-6,-500.000000000E-3,,,,,-117.8999883E-6,54.00000140E-3,
,,,-117.7999948E-6,-500.000000000E-3,,,,,-117.7999948E-6,54.00000140E-3,
,,,-117.6999940E-6,-500.000000000E-3,,,,,-117.6999940E-6,54.00000140E-3,
,,,-117.5999932E-6,-479.999989271E-3,,,,,-117.5999932E-6,54.00000140E-3,
,,,-117.4999925E-6,-479.999989271E-3,,,,,-117.4999925E-6,52.00000107E-3,
,,,-117.3999917E-6,-479.999989271E-3,,,,,-117.3999917E-6,52.00000107E-3,
,,,-117.2999910E-6,-479.999989271E-3,,,,,-117.2999910E-6,52.00000107E-3,
,,,-117.1999902E-6,-479.999989271E-3,,,,,-117.1999902E-6,52.00000107E-3,
,,,-117.0999894E-6,-479.999989271E-3,,,,,-117.0999894E-6,52.00000107E-3,
,,,-116.9999887E-6,-459.999978542E-3,,,,,-116.9999887E-6,52.00000107E-3,
,,,-116.8999879E-6,-459.999978542E-3,,,,,-116.8999879E-6,50.00000075E-3,
,,,-116.7999944E-6,-459.999978542E-3,,,,,-116.7999944E-6,52.00000107E-3,
,,,-116.6999937E-6,-459.999978542E-3,,,,,-116.6999937E-6,52.00000107E-3,
,,,-116.5999929E-6,-459.999978542E-3,,,,,-116.5999929E-6,52.00000107E-3,
,,,-116.4999921E-6,-459.999978542E-3,,,,,-116.4999921E-6,52.00000107E-3,
,,,-116.3999914E-6,-459.999978542E-3,,,,,-116.3999914E-6,50.00000075E-3,
,,,-116.2999906E-6,-459.999978542E-3,,,,,-116.2999906E-6,52.00000107E-3,
,,,-116.1999899E-6,-459.999978542E-3,,,,,-116.1999899E-6,50.00000075E-3,
,,,-116.0999891E-6,-459.999978542E-3,,,,,-116.0999891E-6,50.00000075E-3,
,,,-115.9999883E-6,-439.999997616E-3,,,,,-115.9999883E-6,50.00000075E-3,
,,,-115.8999949E-6,-439.999997616E-3,,,,,-115.8999949E-6,50.00000075E-3,
,,,-115.7999941E-6,-439.999997616E-3,,,,,-115.7999941E-6,50.00000075E-3,
,,,-115.6999933E-6,-439.999997616E-3,,,,,-115.6999933E-6,50.00000075E-3,
,,,-115.5999926E-6,-439.999997616E-3,,,,,-115.5999926E-6,50.00000075E-3,
,,,-115.4999918E-6,-439.999997616E-3,,,,,-115.4999918E-6,50.00000075E-3,
,,,-115.3999910E-6,-439.999997616E-3,,,,,-115.3999910E-6,50.00000075E-3,
,,,-115.2999903E-6,-419.999986887E-3,,,,,-115.2999903E-6,50.00000075E-3,
,,,-115.1999895E-6,-419.999986887E-3,,,,,-115.1999895E-6,48.00000042E-3,
,,,-115.0999888E-6,-419.999986887E-3,,,,,-115.0999888E-6,48.00000042E-3,
,,,-114.9999880E-6,-419.999986887E-3,,,,,-114.9999880E-6,48.00000042E-3,
,,,-114.8999945E-6,-419.999986887E-3,,,,,-114.8999945E-6,48.00000042E-3,
,,,-114.7999938E-6,-419.999986887E-3,,,,,-114.7999938E-6,48.00000042E-3,
,,,-114.6999930E-6,-419.999986887E-3,,,,,-114.6999930E-6,48.00000042E-3,
,,,-114.5999922E-6,-419.999986887E-3,,,,,-114.5999922E-6,48.00000042E-3,
,,,-114.4999915E-6,-399.99997616E-3,,,,,-114.4999915E-6,48.00000042E-3,
,,,-114.3999907E-6,-399.99997616E-3,,,,,-114.3999907E-6,48.00000042E-3,
,,,-114.2999899E-6,-399.99997616E-3,,,,,-114.2999899E-6,48.00000042E-3,
,,,-114.1999892E-6,-399.99997616E-3,,,,,-114.1999892E-6,46.00000381E-3,
,,,-114.0999884E-6,-399.99997616E-3,,,,,-114.0999884E-6,46.00000381E-3,
,,,-113.9999877E-6,-399.99997616E-3,,,,,-113.9999877E-6,46.00000381E-3,
,,,-113.8999942E-6,-399.99997616E-3,,,,,-113.8999942E-6,46.00000381E-3,
,,,-113.7999934E-6,-379.99999523E-3,,,,,-113.7999934E-6,46.00000381E-3,
,,,-113.6999927E-6,-379.99999523E-3,,,,,-113.6999927E-6,46.00000381E-3,
,,,-113.5999919E-6,-379.99999523E-3,,,,,-113.5999919E-6,46.00000381E-3,
,,,-113.4999911E-6,-379.99999523E-3,,,,,-113.4999911E-6,46.00000381E-3,
,,,-113.3999904E-6,-379.99999523E-3,,,,,-113.3999904E-6,44.00000349E-3,
,,,-113.2999896E-6,-379.99999523E-3,,,,,-113.2999896E-6,46.00000381E-3,
,,,-113.1999888E-6,-359.99998450E-3,,,,,-113.1999888E-6,44.00000349E-3,
,,,-113.0999881E-6,-359.99998450E-3,,,,,-113.0999881E-6,44.00000349E-3,
,,,-112.9999946E-6,-359.99998450E-3,,,,,-112.9999946E-6,44.00000349E-3,
,,,-112.8999938E-6,-359.99998450E-3,,,,,-112.8999938E-6,44.00000349E-3,
,,,-112.7999931E-6,-359.99998450E-3,,,,,-112.7999931E-6,44.00000349E-3,
,,,-112.6999923E-6,-359.99998450E-3,,,,,-112.6999923E-6,42.00000316E-3,
,,,-112.5999916E-6,-359.99998450E-3,,,,,-112.5999916E-6,44.00000349E-3,
,,,-112.4999908E-6,-359.99998450E-3,,,,,-112.4999908E-6,44.00000349E-3,
,,,-112.3999900E-6,-340.00000358E-3,,,,,-112.3999900E-6,42.00000316E-3,
,,,-112.2999893E-6,-340.00000358E-3,,,,,-112.2999893E-6,42.00000316E-3,
,,,-112.1999885E-6,-340.00000358E-3,,,,,-112.1999885E-6,42.00000316E-3,
,,,-112.0999877E-6,-340.00000358E-3,,,,,-112.0999877E-6,42.00000316E-3,
,,,-111.9999943E-6,-340.00000358E-3,,,,,-111.9999943E-6,42.00000316E-3,
,,,-111.8999935E-6,-319.99999285E-3,,,,,-111.8999935E-6,42.00000316E-3,
,,,-111.7999927E-6,-319.99999285E-3,,,,,-111.7999927E-6,42.00000316E-3,
,,,-111.6999920E-6,-319.99999285E-3,,,,,-111.6999920E-6,42.00000316E-3,
,,,-111.5999912E-6,-319.99999285E-3,,,,,-111.5999912E-6,42.00000316E-3,
,,,-111.4999905E-6,-319.99999285E-3,,,,,-111.4999905E-6,40.00000283E-3,
,,,-111.3999897E-6,-319.99999285E-3,,,,,-111.3999897E-6,40.00000283E-3,
,,,-111.2999889E-6,-299.99998212E-3,,,,,-111.2999889E-6,38.00000250E-3,
,,,-111.1999882E-6,-299.99998212E-3,,,,,-111.1999882E-6,40.00000283E-3,
,,,-111.0999947E-6,-299.99998212E-3,,,,,-111.0999947E-6,40.00000283E-3,
,,,-110.9999939E-6,-299.99998212E-3,,,,,-110.9999939E-6,38.00000250E-3,
,,,-110.8999932E-6,-299.99998212E-3,,,,,-110.8999932E-6,38.00000250E-3,
,,,-110.7999924E-6,-280.00000119E-3,,,,,-110.7999924E-6,38.00000250E-3,
,,,-110.6999916E-6,-280.00000119E-3,,,,,-110.6999916E-6,38.00000250E-3,
,,,-110.5999909E-6,-280.00000119E-3,,,,,-110.5999909E-6,38.00000250E-3,
,,,-110.4999901E-6,-280.00000119E-3,,,,,-110.4999901E-6,36.00000218E-3,
,,,-110.3999894E-6,-280.00000119E-3,,,,,-110.3999894E-6,36.00000218E-3,
,,,-110.2999886E-6,-280.00000119E-3,,,,,-110.2999886E-6,36.00000218E-3,
,,,-110.1999878E-6,-280.00000119E-3,,,,,-110.1999878E-6,36.00000218E-3,
,,,-110.0999943E-6,-259.99999046E-3,,,,,-110.0999943E-6,36.00000218E-3,
,,,-109.9999936E-6,-259.99999046E-3,,,,,-109.9999936E-6,36.00000218E-3,
,,,-109.8999928E-6,-259.99999046E-3,,,,,-109.8999928E-6,34.00000185E-3,
,,,-109.7999921E-6,-259.99999046E-3,,,,,-109.7999921E-6,34.00000185E-3,
,,,-109.6999913E-6,-239.99999464E-3,,,,,-109.6999913E-6,34.00000185E-3,
,,,-109.5999905E-6,-259.99999046E-3,,,,,-109.5999905E-6,34.00000185E-3,
,,,-109.4999898E-6,-239.99999464E-3,,,,,-109.4999898E-6,34.00000185E-3,
,,,-109.3999890E-6,-239.99999464E-3,,,,,-109.3999890E-6,32.00000152E-3,
,,,-109.2999883E-6,-239.99999464E-3,,,,,-109.2999883E-6,32.00000152E-3,
,,,-109.1999948E-6,-239.99999464E-3,,,,,-109.1999948E-6,32.00000152E-3,
,,,-109.0999940E-6,-219.99999881E-3,,,,,-109.0999940E-6,32.00000152E-3,
,,,-108.9999932E-6,-219.99999881E-3,,,,,-108.9999932E-6,32.00000152E-3,
,,,-108.8999925E-6,-219.99999881E-3,,,,,-108.8999925E-6,32.00000152E-3,
,,,-108.7999917E-6,-219.99999881E-3,,,,,-108.7999917E-6,30.00000119E-3,
,,,-108.6999910E-6,-219.99999881E-3,,,,,-108.6999910E-6,30.00000119E-3,
,,,-108.5999902E-6,-199.99998808E-3,,,,,-108.5999902E-6,30.00000119E-3,
,,,-108.4999894E-6,-199.99998808E-3,,,,,-108.4999894E-6,30.00000119E-3,
,,,-108.3999887E-6,-199.99998808E-3,,,,,-108.3999887E-6,30.00000119E-3,
,,,-108.2999879E-6,-199.99998808E-3,,,,,-108.2999879E-6,28.00000086E-3,
,,,-108.1999944E-6,-199.99998808E-3,,,,,-108.1999944E-6,28.00000086E-3,
,,,-108.0999937E-6,-199.99998808E-3,,,,,-108.0999937E-6,28.00000086E-3,
,,,-107.9999929E-6,-179.99999225E-3,,,,,-107.9999929E-6,28.00000086E-3,
,,,-107.8999921E-6,-179.99999225E-3,,,,,-107.8999921E-6,28.00000086E-3,
,,,-107.7999914E-6,-179.99999225E-3,,,,,-107.7999914E-6,28.00000086E-3,
,,,-107.6999906E-6,-179.99999225E-3,,,,,-107.6999906E-6,26.00000054E-3,
,,,-107.5999899E-6,-179.99999225E-3,,,,,-107.5999899E-6,26.00000054E-3,
,,,-107.4999891E-6,-179.99999225E-3,,,,,-107.4999891E-6,26.00000054E-3,
,,,-107.3999883E-6,-159.99999642E-3,,,,,-107.3999883E-6,26.00000054E-3,
,,,-107.2999876E-6,-159.99999642E-3,,,,,-107.2999876E-6,26.00000054E-3,
,,,-107.1999941E-6,-159.99999642E-3,,,,,-107.1999941E-6,26.00000054E-3,
,,,-107.0999933E-6,-159.99999642E-3,,,,,-107.0999933E-6,24.00000021E-3,
,,,-106.9999926E-6,-140.0000006E-3,,,,,-106.9999926E-6,24.00000021E-3,
,,,-106.8999918E-6,-140.0000006E-3,,,,,-106.8999918E-6,24.00000021E-3,
,,,-106.7999910E-6,-140.0000006E-3,,,,,-106.7999910E-6,22.00000174E-3,
,,,-106.6999903E-6,-140.0000006E-3,,,,,-106.6999903E-6,22.00000174E-3,
,,,-106.5999895E-6,-140.0000006E-3,,,,,-106.5999895E-6,22.00000174E-3,
,,,-106.4999888E-6,-119.9999973E-3,,,,,-106.4999888E-6,22.00000174E-3,
,,,-106.3999880E-6,-119.9999973E-3,,,,,-106.3999880E-6,22.00000174E-3,
,,,-106.2999945E-6,-119.9999973E-3,,,,,-106.2999945E-6,22.00000174E-3,
,,,-106.1999938E-6,-119.9999973E-3,,,,,-106.1999938E-6,20.0000014E-3,
,,,-106.0999930E-6,-119.9999973E-3,,,,,-106.0999930E-6,20.0000014E-3,
,,,-105.9999922E-6,-99.999994040E-3,,,,,-105.9999922E-6,20.0000014E-3,
,,,-105.8999915E-6,-99.999994040E-3,,,,,-105.8999915E-6,20.0000014E-3,
,,,-105.7999907E-6,-99.999994040E-3,,,,,-105.7999907E-6,20.0000014E-3,
,,,-105.6999899E-6,-99.999994040E-3,,,,,-105.6999899E-6,18.0000011E-3,
,,,-105.5999892E-6,-99.999994040E-3,,,,,-105.5999892E-6,18.0000011E-3,
,,,-105.4999884E-6,-99.999994040E-3,,,,,-105.4999884E-6,18.0000011E-3,
,,,-105.3999877E-6,-79.999998212E-3,,,,,-105.3999877E-6,18.0000011E-3,
,,,-105.2999942E-6,-79.999998212E-3,,,,,-105.2999942E-6,16.0000008E-3,
,,,-105.1999934E-6,-79.999998212E-3,,,,,-105.1999934E-6,16.0000008E-3,
,,,-105.0999927E-6,-79.999998212E-3,,,,,-105.0999927E-6,16.0000008E-3,
,,,-104.9999919E-6,-59.999998659E-3,,,,,-104.9999919E-6,16.0000008E-3,
,,,-104.8999911E-6,-59.999998659E-3,,,,,-104.8999911E-6,16.0000008E-3,
,,,-104.7999904E-6,-59.999998659E-3,,,,,-104.7999904E-6,16.0000008E-3,
,,,-104.6999896E-6,-59.999998659E-3,,,,,-104.6999896E-6,14.0000004E-3,
,,,-104.5999888E-6,-59.999998659E-3,,,,,-104.5999888E-6,14.0000004E-3,
,,,-104.4999881E-6,-39.99999911E-3,,,,,-104.4999881E-6,14.0000004E-3,
,,,-104.3999946E-6,-39.99999911E-3,,,,,-104.3999946E-6,14.0000004E-3,
,,,-104.2999938E-6,-39.99999911E-3,,,,,-104.2999938E-6,12.0000001E-3,
,,,-104.1999931E-6,-39.99999911E-3,,,,,-104.1999931E-6,12.0000001E-3,
,,,-104.0999923E-6,-39.99999911E-3,,,,,-104.0999923E-6,12.0000001E-3,
,,,-103.9999916E-6,-19.9999996E-3,,,,,-103.9999916E-6,12.0000001E-3,
,,,-103.8999908E-6,-19.9999996E-3,,,,,-103.8999908E-6,12.0000001E-3,
,,,-103.7999900E-6,-19.9999996E-3,,,,,-103.7999900E-6,10.0000007E-3,
,,,-103.6999893E-6,-19.9999996E-3,,,,,-103.6999893E-6,10.0000007E-3,
,,,-103.5999885E-6,0.0,,,,,-103.5999885E-6,10.0000007E-3,
,,,-103.4999877E-6,-19.9999996E-3,,,,,-103.4999877E-6,10.0000007E-3,
,,,-103.3999943E-6,0.0,,,,,-103.3999943E-6,10.0000007E-3,
,,,-103.2999935E-6,0.0,,,,,-103.2999935E-6,10.0000007E-3,
,,,-103.1999927E-6,0.0,,,,,-103.1999927E-6,10.0000007E-3,
,,,-103.0999920E-6,0.0,,,,,-103.0999920E-6,8.000000380E-3,
,,,-102.9999912E-6,19.9999996E-3,,,,,-102.9999912E-6,8.000000380E-3,
,,,-102.8999905E-6,19.9999996E-3,,,,,-102.8999905E-6,8.000000380E-3,
,,,-102.7999897E-6,19.9999996E-3,,,,,-102.7999897E-6,8.000000380E-3,
,,,-102.6999889E-6,19.9999996E-3,,,,,-102.6999889E-6,8.000000380E-3,
,,,-102.5999882E-6,19.9999996E-3,,,,,-102.5999882E-6,6.00000005E-3,
,,,-102.4999947E-6,39.99999911E-3,,,,,-102.4999947E-6,6.00000005E-3,
,,,-102.3999939E-6,39.99999911E-3,,,,,-102.3999939E-6,6.00000005E-3,
,,,-102.2999932E-6,39.99999911E-3,,,,,-102.2999932E-6,6.00000005E-3,
,,,-102.1999924E-6,39.99999911E-3,,,,,-102.1999924E-6,6.00000005E-3,
,,,-102.0999916E-6,39.99999911E-3,,,,,-102.0999916E-6,6.00000005E-3,
,,,-101.9999909E-6,59.999998659E-3,,,,,-101.9999909E-6,4.00000019E-3,
,,,-101.8999901E-6,59.999998659E-3,,,,,-101.8999901E-6,4.00000019E-3,
,,,-101.7999894E-6,59.999998659E-3,,,,,-101.7999894E-6,4.00000019E-3,
,,,-101.6999886E-6,59.999998659E-3,,,,,-101.6999886E-6,4.00000019E-3,
,,,-101.5999878E-6,59.999998659E-3,,,,,-101.5999878E-6,4.00000019E-3,
,,,-101.4999943E-6,79.999998212E-3,,,,,-101.4999943E-6,4.00000019E-3,
,,,-101.3999936E-6,79.999998212E-3,,,,,-101.3999936E-6,4.00000019E-3,
,,,-101.2999928E-6,79.999998212E-3,,,,,-101.2999928E-6,4.00000019E-3,
,,,-101.1999921E-6,79.999998212E-3,,,,,-101.1999921E-6,2.0000001E-3,
,,,-101.0999913E-6,99.999994040E-3,,,,,-101.0999913E-6,2.0000001E-3,
,,,-100.9999905E-6,99.999994040E-3,,,,,-100.9999905E-6,2.0000001E-3,
,,,-100.8999898E-6,99.999994040E-3,,,,,-100.8999898E-6,2.0000001E-3,
,,,-100.7999890E-6,99.999994040E-3,,,,,-100.7999890E-6,2.0000001E-3,
,,,-100.6999883E-6,119.9999973E-3,,,,,-100.6999883E-6,0.0,
,,,-100.5999875E-6,99.999994040E-3,,,,,-100.5999875E-6,0.0,
,,,-100.4999940E-6,119.9999973E-3,,,,,-100.4999940E-6,0.0,
,,,-100.3999932E-6,119.9999973E-3,,,,,-100.3999932E-6,0.0,
,,,-100.2999925E-6,119.9999973E-3,,,,,-100.2999925E-6,0.0,
,,,-100.1999917E-6,119.9999973E-3,,,,,-100.1999917E-6,0.0,
,,,-100.0999910E-6,140.0000006E-3,,,,,-100.0999910E-6,-2.0000001E-3,
,,,-99.999990198E-6,140.0000006E-3,,,,,-99.999990198E-6,-2.0000001E-3,
,,,-99.899989436E-6,140.0000006E-3,,,,,-99.899989436E-6,0.0,
,,,-99.799988675E-6,140.0000006E-3,,,,,-99.799988675E-6,-2.0000001E-3,
,,,-99.699987913E-6,140.0000006E-3,,,,,-99.699987913E-6,-2.0000001E-3,
,,,-99.599994428E-6,159.99999642E-3,,,,,-99.599994428E-6,-2.0000001E-3,
,,,-99.499993667E-6,159.99999642E-3,,,,,-99.499993667E-6,-4.00000019E-3,
,,,-99.399992905E-6,159.99999642E-3,,,,,-99.399992905E-6,-4.00000019E-3,
,,,-99.299992144E-6,159.99999642E-3,,,,,-99.299992144E-6,-4.00000019E-3,
,,,-99.199991382E-6,159.99999642E-3,,,,,-99.199991382E-6,-4.00000019E-3,
,,,-99.099990621E-6,179.99999225E-3,,,,,-99.099990621E-6,-4.00000019E-3,
,,,-98.999989859E-6,179.99999225E-3,,,,,-98.999989859E-6,-4.00000019E-3,
,,,-98.899989098E-6,179.99999225E-3,,,,,-98.899989098E-6,-6.00000005E-3,
,,,-98.799988336E-6,179.99999225E-3,,,,,-98.799988336E-6,-6.00000005E-3,
,,,-98.699987575E-6,199.99998808E-3,,,,,-98.699987575E-6,-6.00000005E-3,
,,,-98.599994089E-6,199.99998808E-3,,,,,-98.599994089E-6,-6.00000005E-3,
,,,-98.499993328E-6,199.99998808E-3,,,,,-98.499993328E-6,-8.000000380E-3,
,,,-98.399992567E-6,199.99998808E-3,,,,,-98.399992567E-6,-8.000000380E-3,
,,,-98.299991805E-6,199.99998808E-3,,,,,-98.299991805E-6,-8.000000380E-3,
,,,-98.199991044E-6,199.99998808E-3,,,,,-98.199991044E-6,-8.000000380E-3,
,,,-98.099990282E-6,219.99999881E-3,,,,,-98.099990282E-6,-8.000000380E-3,
,,,-97.999989521E-6,219.99999881E-3,,,,,-97.999989521E-6,-10.0000007E-3,
