Week4/work_of_art_squared.csv

Record Length,2500,Points,-1.000000E-6,0.0,,Record Length,2500,Points,-1.000000E-6,0.0,
Sample Interval,100.0000012E-9,s,-899.999974990E-9,0.0,,Sample Interval,100.0000012E-9,s,-899.999974990E-9,0.0,
Trigger Point,9.999999858,Samples,-800.000009349E-9,0.0,,Trigger Point,9.999999858,Samples,-800.000009349E-9,0.0,
,,,-699.999986864E-9,0.0,,,,,-699.999986864E-9,0.0,
,,,-600.000021223E-9,0.0,,,,,-600.000021223E-9,0.0,
,,,-499.999998738E-9,0.0,,,,,-499.999998738E-9,0.0,
Source,CH1,,-399.99997625E-9,0.0,,Source,MATH,,-399.99997625E-9,0.0,
Vertical Units,Volts,,-299.99998219E-9,0.0,,Vertical Units,Volts,,-299.99998219E-9,0.0,
Vertical Scale,50.00000237E-3,,-199.99998813E-9,0.0,,Vertical Scale,100.0000047E-3,,-199.99998813E-9,0.0,
Vertical Offset,0,,-99.999986958E-9,0.0,,Vertical Offset,0,,-99.999986958E-9,0.0,
Horizontal Units,s,,14.2108545E-15,0.0,,Horizontal Units,s,,14.2108545E-15,0.0,
Horizontal Scale,25.00000029E-6,,100.0000154E-9,0.0,,Horizontal Scale,25.00000029E-6,,100.0000154E-9,0.0,
Pt Fmt,Y,,200.00001655E-9,0.0,,Pt Fmt,Y,,200.00001655E-9,0.0,
Yzero,-1.5600000,,300.00001061E-9,0.0,,Yzero,800.000000000E-3,,300.00001061E-9,0.0,
Probe Atten,1.000000,,400.00003310E-9,0.0,,,,,400.00003310E-9,0.0,
,,,499.999998738E-9,0.0,,,,,499.999998738E-9,0.0,
Note,TDS 1001B - 9:13:03   28/05/2025,,600.000021223E-9,-122.0000088E-3,,Note,TDS 1001B - 9:13:03   28/05/2025,,600.000021223E-9,-4.00000019E-3,
,,,700.000043707E-9,-72.000004351E-3,,,,,700.000043707E-9,-40.00000283E-3,
,,,800.000009349E-9,-22.00000174E-3,,,,,800.000009349E-9,-12.0000001E-3,
,,,900.000031834E-9,-12.0000001E-3,,,,,900.000031834E-9,-4.00000019E-3,
,,,1.000000E-6,-12.0000001E-3,,,,,1.000000E-6,0.0,
,,,1.1000001E-6,-10.0000007E-3,,,,,1.1000001E-6,-4.00000019E-3,
,,,1.2000000E-6,-18.0000011E-3,,,,,1.2000000E-6,0.0,
,,,1.3000000E-6,-18.0000011E-3,,,,,1.3000000E-6,-4.00000019E-3,
,,,1.4000000E-6,-22.00000174E-3,,,,,1.4000000E-6,0.0,
,,,1.5000001E-6,-24.00000021E-3,,,,,1.5000001E-6,0.0,
,,,1.6000000E-6,-26.00000054E-3,,,,,1.6000000E-6,-4.00000019E-3,
,,,1.7000000E-6,-30.00000119E-3,,,,,1.7000000E-6,-4.00000019E-3,
,,,1.8000001E-6,-32.00000152E-3,,,,,1.8000001E-6,0.0,
,,,1.9000000E-6,-36.00000218E-3,,,,,1.9000000E-6,-4.00000019E-3,
,,,2.0000000E-6,-38.00000250E-3,,,,,2.0000000E-6,-4.00000019E-3,
,,,2.1000001E-6,-40.00000283E-3,,,,,2.1000001E-6,0.0,
,,,2.1999999E-6,-44.00000349E-3,,,,,2.1999999E-6,0.0,
,,,2.3000000E-6,-46.00000381E-3,,,,,2.3000000E-6,-4.00000019E-3,
,,,2.4000001E-6,-48.00000042E-3,,,,,2.4000001E-6,0.0,
,,,2.4999999E-6,-50.00000075E-3,,,,,2.4999999E-6,-4.00000019E-3,
,,,2.6000000E-6,-54.00000140E-3,,,,,2.6000000E-6,-4.00000019E-3,
,,,2.7000001E-6,-56.000001729E-3,,,,,2.7000001E-6,0.0,
,,,2.79999995E-6,-58.000002056E-3,,,,,2.79999995E-6,-4.00000019E-3,
,,,2.90000003E-6,-60.000002384E-3,,,,,2.90000003E-6,-4.00000019E-3,
,,,3.00000011E-6,-64.000003040E-3,,,,,3.00000011E-6,-4.00000019E-3,
,,,3.09999996E-6,-65.999999642E-3,,,,,3.09999996E-6,-4.00000019E-3,
,,,3.20000004E-6,-68.000003695E-3,,,,,3.20000004E-6,0.0,
,,,3.30000012E-6,-70.000000298E-3,,,,,3.30000012E-6,-4.00000019E-3,
,,,3.39999997E-6,-72.000004351E-3,,,,,3.39999997E-6,-4.00000019E-3,
,,,3.50000005E-6,-74.000000954E-3,,,,,3.50000005E-6,-4.00000019E-3,
,,,3.60000013E-6,-76.000005007E-3,,,,,3.60000013E-6,-4.00000019E-3,
,,,3.69999998E-6,-80.000005662E-3,,,,,3.69999998E-6,-4.00000019E-3,
,,,3.80000006E-6,-80.000005662E-3,,,,,3.80000006E-6,-4.00000019E-3,
,,,3.90000014E-6,-82.000002265E-3,,,,,3.90000014E-6,-4.00000019E-3,
,,,3.99999999E-6,-84.000006318E-3,,,,,3.99999999E-6,-4.00000019E-3,
,,,4.09999984E-6,-86.000002921E-3,,,,,4.09999984E-6,-4.00000019E-3,
,,,4.20000015E-6,-88.000006974E-3,,,,,4.20000015E-6,-4.00000019E-3,
,,,4.30000000E-6,-90.000003576E-3,,,,,4.30000000E-6,-8.000000380E-3,
,,,4.39999985E-6,-92.000007629E-3,,,,,4.39999985E-6,-4.00000019E-3,
,,,4.50000016E-6,-94.000004232E-3,,,,,4.50000016E-6,-4.00000019E-3,
,,,4.60000001E-6,-96.000000834E-3,,,,,4.60000001E-6,-4.00000019E-3,
,,,4.69999986E-6,-98.000004888E-3,,,,,4.69999986E-6,-4.00000019E-3,
,,,4.80000017E-6,-98.000004888E-3,,,,,4.80000017E-6,-8.000000380E-3,
,,,4.90000002E-6,-100.0000015E-3,,,,,4.90000002E-6,-4.00000019E-3,
,,,4.99999987E-6,-102.0000055E-3,,,,,4.99999987E-6,-4.00000019E-3,
,,,5.10000018E-6,-104.0000021E-3,,,,,5.10000018E-6,-8.000000380E-3,
,,,5.20000003E-6,-104.0000021E-3,,,,,5.20000003E-6,-4.00000019E-3,
,,,5.29999988E-6,-106.0000062E-3,,,,,5.29999988E-6,-8.000000380E-3,
,,,5.40000019E-6,-106.0000062E-3,,,,,5.40000019E-6,-8.000000380E-3,
,,,5.50000004E-6,-108.0000028E-3,,,,,5.50000004E-6,-4.00000019E-3,
,,,5.59999989E-6,-108.0000028E-3,,,,,5.59999989E-6,-8.000000380E-3,
,,,5.70000020E-6,-110.0000069E-3,,,,,5.70000020E-6,-8.000000380E-3,
,,,5.80000005E-6,-110.0000069E-3,,,,,5.80000005E-6,-8.000000380E-3,
,,,5.89999991E-6,-112.0000035E-3,,,,,5.89999991E-6,-8.000000380E-3,
,,,6.00000021E-6,-112.0000035E-3,,,,,6.00000021E-6,-8.000000380E-3,
,,,6.10000006E-6,-114.0000075E-3,,,,,6.10000006E-6,-8.000000380E-3,
,,,6.19999992E-6,-114.0000075E-3,,,,,6.19999992E-6,-8.000000380E-3,
,,,6.30000022E-6,-114.0000075E-3,,,,,6.30000022E-6,-12.0000001E-3,
,,,6.40000007E-6,-116.0000041E-3,,,,,6.40000007E-6,-12.0000001E-3,
,,,6.49999993E-6,-116.0000041E-3,,,,,6.49999993E-6,-12.0000001E-3,
,,,6.60000023E-6,-116.0000041E-3,,,,,6.60000023E-6,-8.000000380E-3,
,,,6.70000009E-6,-116.0000041E-3,,,,,6.70000009E-6,-8.000000380E-3,
,,,6.79999994E-6,-116.0000041E-3,,,,,6.79999994E-6,-8.000000380E-3,
,,,6.90000024E-6,-116.0000041E-3,,,,,6.90000024E-6,-12.0000001E-3,
,,,7.00000010E-6,-116.0000041E-3,,,,,7.00000010E-6,-12.0000001E-3,
,,,7.09999995E-6,-116.0000041E-3,,,,,7.09999995E-6,-12.0000001E-3,
,,,7.20000025E-6,-118.0000082E-3,,,,,7.20000025E-6,-12.0000001E-3,
,,,7.30000011E-6,-118.0000082E-3,,,,,7.30000011E-6,-12.0000001E-3,
,,,7.399999959E-6,-116.0000041E-3,,,,,7.399999959E-6,-12.0000001E-3,
,,,7.500000265E-6,-116.0000041E-3,,,,,7.500000265E-6,-12.0000001E-3,
,,,7.600000117E-6,-116.0000041E-3,,,,,7.600000117E-6,-12.0000001E-3,
,,,7.700000424E-6,-116.0000041E-3,,,,,7.700000424E-6,-12.0000001E-3,
,,,7.800000276E-6,-116.0000041E-3,,,,,7.800000276E-6,-12.0000001E-3,
,,,7.900000128E-6,-116.0000041E-3,,,,,7.900000128E-6,-12.0000001E-3,
,,,7.999999980E-6,-114.0000075E-3,,,,,7.999999980E-6,-12.0000001E-3,
,,,8.099999832E-6,-114.0000075E-3,,,,,8.099999832E-6,-16.0000008E-3,
,,,8.199999684E-6,-114.0000075E-3,,,,,8.199999684E-6,-16.0000008E-3,
,,,8.300000445E-6,-112.0000035E-3,,,,,8.300000445E-6,-16.0000008E-3,
,,,8.400000297E-6,-112.0000035E-3,,,,,8.400000297E-6,-16.0000008E-3,
,,,8.500000149E-6,-112.0000035E-3,,,,,8.500000149E-6,-16.0000008E-3,
,,,8.600000001E-6,-112.0000035E-3,,,,,8.600000001E-6,-16.0000008E-3,
,,,8.699999853E-6,-110.0000069E-3,,,,,8.699999853E-6,-16.0000008E-3,
,,,8.799999705E-6,-110.0000069E-3,,,,,8.799999705E-6,-16.0000008E-3,
,,,8.900000466E-6,-108.0000028E-3,,,,,8.900000466E-6,-16.0000008E-3,
,,,9.000000318E-6,-106.0000062E-3,,,,,9.000000318E-6,-16.0000008E-3,
,,,9.100000170E-6,-106.0000062E-3,,,,,9.100000170E-6,-20.0000014E-3,
,,,9.200000022E-6,-106.0000062E-3,,,,,9.200000022E-6,-16.0000008E-3,
,,,9.299999874E-6,-104.0000021E-3,,,,,9.299999874E-6,-16.0000008E-3,
,,,9.399999726E-6,-102.0000055E-3,,,,,9.399999726E-6,-20.0000014E-3,
,,,9.500000488E-6,-102.0000055E-3,,,,,9.500000488E-6,-20.0000014E-3,
,,,9.600000340E-6,-100.0000015E-3,,,,,9.600000340E-6,-16.0000008E-3,
,,,9.700000192E-6,-98.000004888E-3,,,,,9.700000192E-6,-20.0000014E-3,
,,,9.800000043E-6,-96.000000834E-3,,,,,9.800000043E-6,-20.0000014E-3,
,,,9.899999895E-6,-96.000000834E-3,,,,,9.899999895E-6,-24.00000021E-3,
,,,9.999999747E-6,-94.000004232E-3,,,,,9.999999747E-6,-20.0000014E-3,
,,,10.1000005E-6,-92.000007629E-3,,,,,10.1000005E-6,-20.0000014E-3,
,,,10.2000004E-6,-90.000003576E-3,,,,,10.2000004E-6,-24.00000021E-3,
,,,10.3000002E-6,-88.000006974E-3,,,,,10.3000002E-6,-20.0000014E-3,
,,,10.4000001E-6,-86.000002921E-3,,,,,10.4000001E-6,-24.00000021E-3,
,,,10.4999999E-6,-86.000002921E-3,,,,,10.4999999E-6,-20.0000014E-3,
,,,10.5999998E-6,-82.000002265E-3,,,,,10.5999998E-6,-20.0000014E-3,
,,,10.7000005E-6,-80.000005662E-3,,,,,10.7000005E-6,-24.00000021E-3,
,,,10.8000004E-6,-78.000001609E-3,,,,,10.8000004E-6,-24.00000021E-3,
,,,10.9000002E-6,-78.000001609E-3,,,,,10.9000002E-6,-24.00000021E-3,
,,,11.0000001E-6,-74.000000954E-3,,,,,11.0000001E-6,-28.00000086E-3,
,,,11.0999999E-6,-72.000004351E-3,,,,,11.0999999E-6,-24.00000021E-3,
,,,11.1999998E-6,-70.000000298E-3,,,,,11.1999998E-6,-28.00000086E-3,
,,,11.3000006E-6,-68.000003695E-3,,,,,11.3000006E-6,-24.00000021E-3,
,,,11.4000004E-6,-65.999999642E-3,,,,,11.4000004E-6,-28.00000086E-3,
,,,11.5000003E-6,-64.000003040E-3,,,,,11.5000003E-6,-24.00000021E-3,
,,,11.6000001E-6,-62.000002712E-3,,,,,11.6000001E-6,-28.00000086E-3,
,,,11.7000000E-6,-60.000002384E-3,,,,,11.7000000E-6,-24.00000021E-3,
,,,11.7999998E-6,-56.000001729E-3,,,,,11.7999998E-6,-28.00000086E-3,
,,,11.9000006E-6,-54.00000140E-3,,,,,11.9000006E-6,-28.00000086E-3,
,,,12.0000004E-6,-52.00000107E-3,,,,,12.0000004E-6,-24.00000021E-3,
,,,12.1000003E-6,-50.00000075E-3,,,,,12.1000003E-6,-28.00000086E-3,
,,,12.2000001E-6,-48.00000042E-3,,,,,12.2000001E-6,-24.00000021E-3,
,,,12.3000000E-6,-44.00000349E-3,,,,,12.3000000E-6,-28.00000086E-3,
,,,12.3999998E-6,-42.00000316E-3,,,,,12.3999998E-6,-28.00000086E-3,
,,,12.5000006E-6,-40.00000283E-3,,,,,12.5000006E-6,-28.00000086E-3,
,,,12.6000004E-6,-38.00000250E-3,,,,,12.6000004E-6,-28.00000086E-3,
,,,12.7000003E-6,-36.00000218E-3,,,,,12.7000003E-6,-24.00000021E-3,
,,,12.8000001E-6,-32.00000152E-3,,,,,12.8000001E-6,-28.00000086E-3,
,,,12.9000000E-6,-30.00000119E-3,,,,,12.9000000E-6,-28.00000086E-3,
,,,12.9999999E-6,-28.00000086E-3,,,,,12.9999999E-6,-24.00000021E-3,
,,,13.1000006E-6,-24.00000021E-3,,,,,13.1000006E-6,-28.00000086E-3,
,,,13.2000005E-6,-22.00000174E-3,,,,,13.2000005E-6,-28.00000086E-3,
,,,13.3000003E-6,-20.0000014E-3,,,,,13.3000003E-6,-24.00000021E-3,
,,,13.4000002E-6,-18.0000011E-3,,,,,13.4000002E-6,-28.00000086E-3,
,,,13.5000000E-6,-14.0000004E-3,,,,,13.5000000E-6,-28.00000086E-3,
,,,13.5999999E-6,-12.0000001E-3,,,,,13.5999999E-6,-28.00000086E-3,
,,,13.6999997E-6,-10.0000007E-3,,,,,13.6999997E-6,-28.00000086E-3,
,,,13.8000005E-6,-6.00000005E-3,,,,,13.8000005E-6,-28.00000086E-3,
,,,13.9000003E-6,-4.00000019E-3,,,,,13.9000003E-6,-28.00000086E-3,
,,,14.0000002E-6,-2.0000001E-3,,,,,14.0000002E-6,-28.00000086E-3,
,,,14.1000000E-6,2.0000001E-3,,,,,14.1000000E-6,-28.00000086E-3,
,,,14.1999999E-6,4.00000019E-3,,,,,14.1999999E-6,-28.00000086E-3,
,,,14.2999997E-6,6.00000005E-3,,,,,14.2999997E-6,-28.00000086E-3,
,,,14.4000005E-6,8.000000380E-3,,,,,14.4000005E-6,-24.00000021E-3,
,,,14.5000004E-6,12.0000001E-3,,,,,14.5000004E-6,-24.00000021E-3,
,,,14.6000002E-6,14.0000004E-3,,,,,14.6000002E-6,-28.00000086E-3,
,,,14.7000001E-6,16.0000008E-3,,,,,14.7000001E-6,-24.00000021E-3,
,,,14.7999999E-6,20.0000014E-3,,,,,14.7999999E-6,-24.00000021E-3,
,,,14.8999998E-6,22.00000174E-3,,,,,14.8999998E-6,-28.00000086E-3,
,,,15.0000005E-6,24.00000021E-3,,,,,15.0000005E-6,-24.00000021E-3,
,,,15.1000004E-6,26.00000054E-3,,,,,15.1000004E-6,-24.00000021E-3,
,,,15.2000002E-6,30.00000119E-3,,,,,15.2000002E-6,-20.0000014E-3,
,,,15.3000001E-6,32.00000152E-3,,,,,15.3000001E-6,-24.00000021E-3,
,,,15.4000008E-6,34.00000185E-3,,,,,15.4000008E-6,-24.00000021E-3,
,,,15.4999998E-6,36.00000218E-3,,,,,15.4999998E-6,-24.00000021E-3,
,,,15.6000006E-6,38.00000250E-3,,,,,15.6000006E-6,-24.00000021E-3,
,,,15.6999995E-6,42.00000316E-3,,,,,15.6999995E-6,-24.00000021E-3,
,,,15.8000003E-6,44.00000349E-3,,,,,15.8000003E-6,-24.00000021E-3,
,,,15.9000010E-6,46.00000381E-3,,,,,15.9000010E-6,-24.00000021E-3,
,,,16.0000000E-6,48.00000042E-3,,,,,16.0000000E-6,-20.0000014E-3,
,,,16.1000007E-6,50.00000075E-3,,,,,16.1000007E-6,-24.00000021E-3,
,,,16.1999997E-6,52.00000107E-3,,,,,16.1999997E-6,-20.0000014E-3,
,,,16.3000004E-6,54.00000140E-3,,,,,16.3000004E-6,-20.0000014E-3,
,,,16.3999994E-6,56.000001729E-3,,,,,16.3999994E-6,-24.00000021E-3,
,,,16.5000001E-6,58.000002056E-3,,,,,16.5000001E-6,-20.0000014E-3,
,,,16.6000009E-6,62.000002712E-3,,,,,16.6000009E-6,-20.0000014E-3,
,,,16.6999998E-6,64.000003040E-3,,,,,16.6999998E-6,-20.0000014E-3,
,,,16.8000006E-6,65.999999642E-3,,,,,16.8000006E-6,-20.0000014E-3,
,,,16.8999995E-6,68.000003695E-3,,,,,16.8999995E-6,-16.0000008E-3,
,,,17.0000003E-6,70.000000298E-3,,,,,17.0000003E-6,-20.0000014E-3,
,,,17.1000011E-6,72.000004351E-3,,,,,17.1000011E-6,-16.0000008E-3,
,,,17.2000000E-6,72.000004351E-3,,,,,17.2000000E-6,-20.0000014E-3,
,,,17.3000008E-6,76.000005007E-3,,,,,17.3000008E-6,-16.0000008E-3,
,,,17.3999997E-6,76.000005007E-3,,,,,17.3999997E-6,-16.0000008E-3,
,,,17.5000005E-6,78.000001609E-3,,,,,17.5000005E-6,-16.0000008E-3,
,,,17.5999994E-6,80.000005662E-3,,,,,17.5999994E-6,-12.0000001E-3,
,,,17.7000002E-6,82.000002265E-3,,,,,17.7000002E-6,-16.0000008E-3,
,,,17.8000009E-6,84.000006318E-3,,,,,17.8000009E-6,-12.0000001E-3,
,,,17.8999999E-6,84.000006318E-3,,,,,17.8999999E-6,-12.0000001E-3,
,,,18.0000006E-6,86.000002921E-3,,,,,18.0000006E-6,-12.0000001E-3,
,,,18.0999996E-6,88.000006974E-3,,,,,18.0999996E-6,-12.0000001E-3,
,,,18.2000003E-6,88.000006974E-3,,,,,18.2000003E-6,-8.000000380E-3,
,,,18.3000011E-6,90.000003576E-3,,,,,18.3000011E-6,-8.000000380E-3,
,,,18.4000000E-6,92.000007629E-3,,,,,18.4000000E-6,-8.000000380E-3,
,,,18.5000008E-6,92.000007629E-3,,,,,18.5000008E-6,-4.00000019E-3,
,,,18.5999997E-6,94.000004232E-3,,,,,18.5999997E-6,-8.000000380E-3,
,,,18.7000005E-6,96.000000834E-3,,,,,18.7000005E-6,-8.000000380E-3,
,,,18.7999995E-6,96.000000834E-3,,,,,18.7999995E-6,-4.00000019E-3,
,,,18.9000002E-6,96.000000834E-3,,,,,18.9000002E-6,-4.00000019E-3,
,,,19.0000010E-6,98.000004888E-3,,,,,19.0000010E-6,-4.00000019E-3,
,,,19.0999999E-6,98.000004888E-3,,,,,19.0999999E-6,-4.00000019E-3,
,,,19.2000007E-6,100.0000015E-3,,,,,19.2000007E-6,0.0,
,,,19.2999996E-6,100.0000015E-3,,,,,19.2999996E-6,0.0,
,,,19.4000004E-6,102.0000055E-3,,,,,19.4000004E-6,0.0,
,,,19.5000011E-6,102.0000055E-3,,,,,19.5000011E-6,0.0,
,,,19.6000001E-6,102.0000055E-3,,,,,19.6000001E-6,0.0,
,,,19.7000008E-6,104.0000021E-3,,,,,19.7000008E-6,0.0,
,,,19.7999998E-6,104.0000021E-3,,,,,19.7999998E-6,4.00000019E-3,
,,,19.9000006E-6,104.0000021E-3,,,,,19.9000006E-6,4.00000019E-3,
,,,19.9999995E-6,104.0000021E-3,,,,,19.9999995E-6,4.00000019E-3,
,,,20.10000026E-6,104.0000021E-3,,,,,20.10000026E-6,8.000000380E-3,
,,,20.20000102E-6,104.0000021E-3,,,,,20.20000102E-6,4.00000019E-3,
,,,20.29999996E-6,106.0000062E-3,,,,,20.29999996E-6,4.00000019E-3,
,,,20.40000072E-6,106.0000062E-3,,,,,20.40000072E-6,4.00000019E-3,
,,,20.49999966E-6,106.0000062E-3,,,,,20.49999966E-6,8.000000380E-3,
,,,20.60000043E-6,106.0000062E-3,,,,,20.60000043E-6,8.000000380E-3,
,,,20.69999937E-6,106.0000062E-3,,,,,20.69999937E-6,8.000000380E-3,
,,,20.80000013E-6,106.0000062E-3,,,,,20.80000013E-6,8.000000380E-3,
,,,20.90000089E-6,106.0000062E-3,,,,,20.90000089E-6,8.000000380E-3,
,,,20.99999983E-6,106.0000062E-3,,,,,20.99999983E-6,12.0000001E-3,
,,,21.10000059E-6,104.0000021E-3,,,,,21.10000059E-6,16.0000008E-3,
,,,21.19999954E-6,104.0000021E-3,,,,,21.19999954E-6,16.0000008E-3,
,,,21.30000030E-6,104.0000021E-3,,,,,21.30000030E-6,16.0000008E-3,
,,,21.40000106E-6,104.0000021E-3,,,,,21.40000106E-6,16.0000008E-3,
,,,21.50000000E-6,104.0000021E-3,,,,,21.50000000E-6,16.0000008E-3,
,,,21.60000076E-6,102.0000055E-3,,,,,21.60000076E-6,16.0000008E-3,
,,,21.69999971E-6,102.0000055E-3,,,,,21.69999971E-6,16.0000008E-3,
,,,21.80000047E-6,102.0000055E-3,,,,,21.80000047E-6,20.0000014E-3,
,,,21.89999941E-6,100.0000015E-3,,,,,21.89999941E-6,20.0000014E-3,
,,,22.00000017E-6,100.0000015E-3,,,,,22.00000017E-6,20.0000014E-3,
,,,22.10000093E-6,100.0000015E-3,,,,,22.10000093E-6,20.0000014E-3,
,,,22.19999988E-6,98.000004888E-3,,,,,22.19999988E-6,24.00000021E-3,
,,,22.30000064E-6,98.000004888E-3,,,,,22.30000064E-6,24.00000021E-3,
,,,22.39999958E-6,96.000000834E-3,,,,,22.39999958E-6,24.00000021E-3,
,,,22.50000034E-6,96.000000834E-3,,,,,22.50000034E-6,24.00000021E-3,
,,,22.60000110E-6,94.000004232E-3,,,,,22.60000110E-6,24.00000021E-3,
,,,22.70000005E-6,94.000004232E-3,,,,,22.70000005E-6,24.00000021E-3,
,,,22.80000081E-6,92.000007629E-3,,,,,22.80000081E-6,28.00000086E-3,
,,,22.89999975E-6,92.000007629E-3,,,,,22.89999975E-6,28.00000086E-3,
,,,23.00000051E-6,90.000003576E-3,,,,,23.00000051E-6,28.00000086E-3,
,,,23.09999945E-6,88.000006974E-3,,,,,23.09999945E-6,32.00000152E-3,
,,,23.20000021E-6,86.000002921E-3,,,,,23.20000021E-6,32.00000152E-3,
,,,23.30000098E-6,86.000002921E-3,,,,,23.30000098E-6,32.00000152E-3,
,,,23.39999992E-6,84.000006318E-3,,,,,23.39999992E-6,32.00000152E-3,
,,,23.50000068E-6,82.000002265E-3,,,,,23.50000068E-6,32.00000152E-3,
,,,23.59999962E-6,82.000002265E-3,,,,,23.59999962E-6,32.00000152E-3,
,,,23.70000038E-6,80.000005662E-3,,,,,23.70000038E-6,36.00000218E-3,
,,,23.80000114E-6,78.000001609E-3,,,,,23.80000114E-6,32.00000152E-3,
,,,23.90000009E-6,76.000005007E-3,,,,,23.90000009E-6,36.00000218E-3,
,,,24.00000085E-6,76.000005007E-3,,,,,24.00000085E-6,36.00000218E-3,
,,,24.09999979E-6,74.000000954E-3,,,,,24.09999979E-6,36.00000218E-3,
,,,24.20000055E-6,72.000004351E-3,,,,,24.20000055E-6,40.00000283E-3,
,,,24.29999950E-6,70.000000298E-3,,,,,24.29999950E-6,36.00000218E-3,
,,,24.40000026E-6,68.000003695E-3,,,,,24.40000026E-6,40.00000283E-3,
,,,24.50000102E-6,65.999999642E-3,,,,,24.50000102E-6,40.00000283E-3,
,,,24.59999996E-6,64.000003040E-3,,,,,24.59999996E-6,40.00000283E-3,
,,,24.70000072E-6,62.000002712E-3,,,,,24.70000072E-6,40.00000283E-3,
,,,24.79999966E-6,60.000002384E-3,,,,,24.79999966E-6,44.00000349E-3,
,,,24.90000043E-6,58.000002056E-3,,,,,24.90000043E-6,40.00000283E-3,
,,,25.00000119E-6,56.000001729E-3,,,,,25.00000119E-6,44.00000349E-3,
,,,25.10000013E-6,54.00000140E-3,,,,,25.10000013E-6,44.00000349E-3,
,,,25.20000089E-6,52.00000107E-3,,,,,25.20000089E-6,44.00000349E-3,
,,,25.29999983E-6,50.00000075E-3,,,,,25.29999983E-6,44.00000349E-3,
,,,25.40000060E-6,48.00000042E-3,,,,,25.40000060E-6,44.00000349E-3,
,,,25.49999954E-6,46.00000381E-3,,,,,25.49999954E-6,44.00000349E-3,
,,,25.60000030E-6,44.00000349E-3,,,,,25.60000030E-6,44.00000349E-3,
,,,25.70000106E-6,42.00000316E-3,,,,,25.70000106E-6,44.00000349E-3,
,,,25.80000000E-6,40.00000283E-3,,,,,25.80000000E-6,48.00000042E-3,
,,,25.90000076E-6,38.00000250E-3,,,,,25.90000076E-6,44.00000349E-3,
,,,25.99999971E-6,36.00000218E-3,,,,,25.99999971E-6,44.00000349E-3,
,,,26.10000047E-6,34.00000185E-3,,,,,26.10000047E-6,44.00000349E-3,
,,,26.19999941E-6,32.00000152E-3,,,,,26.19999941E-6,48.00000042E-3,
,,,26.30000017E-6,30.00000119E-3,,,,,26.30000017E-6,48.00000042E-3,
,,,26.40000093E-6,26.00000054E-3,,,,,26.40000093E-6,48.00000042E-3,
,,,26.49999988E-6,24.00000021E-3,,,,,26.49999988E-6,48.00000042E-3,
,,,26.60000064E-6,22.00000174E-3,,,,,26.60000064E-6,48.00000042E-3,
,,,26.69999958E-6,20.0000014E-3,,,,,26.69999958E-6,48.00000042E-3,
,,,26.80000034E-6,18.0000011E-3,,,,,26.80000034E-6,44.00000349E-3,
,,,26.90000110E-6,16.0000008E-3,,,,,26.90000110E-6,48.00000042E-3,
,,,27.00000005E-6,14.0000004E-3,,,,,27.00000005E-6,48.00000042E-3,
,,,27.10000081E-6,10.0000007E-3,,,,,27.10000081E-6,48.00000042E-3,
,,,27.19999975E-6,10.0000007E-3,,,,,27.19999975E-6,44.00000349E-3,
,,,27.30000051E-6,6.00000005E-3,,,,,27.30000051E-6,48.00000042E-3,
,,,27.39999945E-6,4.00000019E-3,,,,,27.39999945E-6,48.00000042E-3,
,,,27.50000021E-6,2.0000001E-3,,,,,27.50000021E-6,44.00000349E-3,
,,,27.60000098E-6,0.0,,,,,27.60000098E-6,48.00000042E-3,
,,,27.69999992E-6,-2.0000001E-3,,,,,27.69999992E-6,44.00000349E-3,
,,,27.80000068E-6,-4.00000019E-3,,,,,27.80000068E-6,48.00000042E-3,
,,,27.89999962E-6,-6.00000005E-3,,,,,27.89999962E-6,44.00000349E-3,
,,,28.00000038E-6,-10.0000007E-3,,,,,28.00000038E-6,48.00000042E-3,
,,,28.10000115E-6,-10.0000007E-3,,,,,28.10000115E-6,44.00000349E-3,
,,,28.20000009E-6,-14.0000004E-3,,,,,28.20000009E-6,48.00000042E-3,
,,,28.30000085E-6,-16.0000008E-3,,,,,28.30000085E-6,48.00000042E-3,
