Week2/PartB-LowPass/data-230k-H.csv

Record Length,2500,Points,58.999998146E-6,-170.00000179E-3,,Record Length,2500,Points,58.999998146E-6,39.20000046E-3,
Sample Interval,3.99999989E-9,s,59.003999922E-6,-170.00000179E-3,,Sample Interval,3.99999989E-9,s,59.003999922E-6,41.60000011E-3,
Trigger Point,-14.7500007E3,Samples,59.007998061E-6,-168.00001264E-3,,Trigger Point,-14.7500007E3,Samples,59.007998061E-6,43.19999740E-3,
,,,59.011999838E-6,-170.00000179E-3,,,,,59.011999838E-6,41.60000011E-3,
,,,59.015997977E-6,-170.00000179E-3,,,,,59.015997977E-6,45.59999704E-3,
,,,59.019999753E-6,-168.00001264E-3,,,,,59.019999753E-6,43.99999976E-3,
Source,CH1,,59.023997892E-6,-168.00001264E-3,,Source,CH2,,59.023997892E-6,44.79999840E-3,
Vertical Units,Volts,,59.027999669E-6,-170.00000179E-3,,Vertical Units,Volts,,59.027999669E-6,44.79999840E-3,
Vertical Scale,50.00000237E-3,,59.031997807E-6,-168.00001264E-3,,Vertical Scale,19.9999995E-3,,59.031997807E-6,42.39999875E-3,
Vertical Offset,0,,59.035999584E-6,-166.00000858E-3,,Vertical Offset,0,,59.035999584E-6,43.19999740E-3,
Horizontal Units,s,,59.039997723E-6,-166.00000858E-3,,Horizontal Units,s,,59.039997723E-6,45.59999704E-3,
Horizontal Scale,999.999971718E-9,,59.043999499E-6,-164.00000453E-3,,Horizontal Scale,999.999971718E-9,,59.043999499E-6,43.19999740E-3,
Pt Fmt,Y,,59.047997638E-6,-164.00000453E-3,,Pt Fmt,Y,,59.047997638E-6,46.39999941E-3,
Yzero,80.000000000E-3,,59.051999415E-6,-168.00001264E-3,,Yzero,0.0,,59.051999415E-6,45.59999704E-3,
Probe Atten,1.000000,,59.055997554E-6,-164.00000453E-3,,Probe Atten,1.000000,,59.055997554E-6,43.99999976E-3,
,,,59.059999330E-6,-166.00000858E-3,,,,,59.059999330E-6,48.00000042E-3,
Note,TDS 1001B - 10:57:07   14/05/2025,,59.063997469E-6,-162.00000048E-3,,Note,TDS 1001B - 10:57:07   14/05/2025,,59.063997469E-6,47.19999805E-3,
,,,59.067999246E-6,-162.00000048E-3,,,,,59.067999246E-6,46.39999941E-3,
,,,59.071997384E-6,-162.00000048E-3,,,,,59.071997384E-6,48.00000042E-3,
,,,59.075999161E-6,-164.00000453E-3,,,,,59.075999161E-6,47.19999805E-3,
,,,59.079997300E-6,-160.00001132E-3,,,,,59.079997300E-6,49.59999770E-3,
,,,59.083999076E-6,-162.00000048E-3,,,,,59.083999076E-6,50.40000007E-3,
,,,59.087997215E-6,-156.00000322E-3,,,,,59.087997215E-6,49.59999770E-3,
,,,59.091998992E-6,-162.00000048E-3,,,,,59.091998992E-6,50.40000007E-3,
,,,59.095997130E-6,-158.00000727E-3,,,,,59.095997130E-6,47.19999805E-3,
,,,59.099998907E-6,-158.00000727E-3,,,,,59.099998907E-6,49.59999770E-3,
,,,59.103997046E-6,-160.00001132E-3,,,,,59.103997046E-6,50.40000007E-3,
,,,59.107998823E-6,-156.00000322E-3,,,,,59.107998823E-6,46.39999941E-3,
,,,59.111996961E-6,-156.00000322E-3,,,,,59.111996961E-6,49.59999770E-3,
,,,59.115998738E-6,-154.00001407E-3,,,,,59.115998738E-6,48.79999906E-3,
,,,59.119996877E-6,-156.00000322E-3,,,,,59.119996877E-6,48.79999906E-3,
,,,59.123998653E-6,-154.00001407E-3,,,,,59.123998653E-6,51.99999735E-3,
,,,59.127996792E-6,-152.00001001E-3,,,,,59.127996792E-6,51.19999871E-3,
,,,59.131998569E-6,-154.00001407E-3,,,,,59.131998569E-6,51.19999871E-3,
,,,59.135996707E-6,-152.00001001E-3,,,,,59.135996707E-6,54.39999700E-3,
,,,59.139998484E-6,-150.00000596E-3,,,,,59.139998484E-6,50.40000007E-3,
,,,59.143996623E-6,-152.00001001E-3,,,,,59.143996623E-6,51.99999735E-3,
,,,59.147998400E-6,-150.00000596E-3,,,,,59.147998400E-6,53.59999835E-3,
,,,59.151996538E-6,-146.0000128E-3,,,,,59.151996538E-6,51.19999871E-3,
,,,59.155998315E-6,-148.0000019E-3,,,,,59.155998315E-6,55.199999362E-3,
,,,59.159996454E-6,-148.0000019E-3,,,,,59.159996454E-6,52.79999971E-3,
,,,59.163998230E-6,-144.0000087E-3,,,,,59.163998230E-6,51.99999735E-3,
,,,59.167996369E-6,-144.0000087E-3,,,,,59.167996369E-6,55.999998003E-3,
,,,59.171998146E-6,-142.0000046E-3,,,,,59.171998146E-6,51.99999735E-3,
,,,59.175999922E-6,-144.0000087E-3,,,,,59.175999922E-6,54.39999700E-3,
,,,59.179998061E-6,-142.0000046E-3,,,,,59.179998061E-6,53.59999835E-3,
,,,59.183999838E-6,-142.0000046E-3,,,,,59.183999838E-6,52.79999971E-3,
,,,59.187997977E-6,-140.0000006E-3,,,,,59.187997977E-6,55.199999362E-3,
,,,59.191999753E-6,-142.0000046E-3,,,,,59.191999753E-6,54.39999700E-3,
,,,59.195997892E-6,-140.0000006E-3,,,,,59.195997892E-6,55.199999362E-3,
,,,59.199999669E-6,-136.0000074E-3,,,,,59.199999669E-6,56.800000370E-3,
,,,59.203997807E-6,-136.0000074E-3,,,,,59.203997807E-6,55.999998003E-3,
,,,59.207999584E-6,-138.0000114E-3,,,,,59.207999584E-6,55.999998003E-3,
,,,59.211997723E-6,-140.0000006E-3,,,,,59.211997723E-6,57.599999011E-3,
,,,59.215999499E-6,-136.0000074E-3,,,,,59.215999499E-6,55.199999362E-3,
,,,59.219997638E-6,-134.0000033E-3,,,,,59.219997638E-6,56.800000370E-3,
,,,59.223999415E-6,-136.0000074E-3,,,,,59.223999415E-6,55.999998003E-3,
,,,59.227997554E-6,-131.9999993E-3,,,,,59.227997554E-6,53.59999835E-3,
,,,59.231999330E-6,-131.9999993E-3,,,,,59.231999330E-6,59.200000018E-3,
,,,59.235997469E-6,-130.0000101E-3,,,,,59.235997469E-6,56.800000370E-3,
,,,59.239999246E-6,-134.0000033E-3,,,,,59.239999246E-6,57.599999011E-3,
,,,59.243997384E-6,-128.0000061E-3,,,,,59.243997384E-6,57.599999011E-3,
,,,59.247999161E-6,-130.0000101E-3,,,,,59.247999161E-6,58.399997652E-3,
,,,59.251997300E-6,-130.0000101E-3,,,,,59.251997300E-6,59.200000018E-3,
,,,59.255999076E-6,-126.0000020E-3,,,,,59.255999076E-6,56.800000370E-3,
,,,59.259997215E-6,-124.0000054E-3,,,,,59.259997215E-6,58.399997652E-3,
,,,59.263998992E-6,-124.0000054E-3,,,,,59.263998992E-6,58.399997652E-3,
,,,59.267997131E-6,-124.0000054E-3,,,,,59.267997131E-6,57.599999011E-3,
,,,59.271998907E-6,-122.0000088E-3,,,,,59.271998907E-6,58.399997652E-3,
,,,59.275997046E-6,-126.0000020E-3,,,,,59.275997046E-6,59.999998659E-3,
,,,59.279998823E-6,-122.0000088E-3,,,,,59.279998823E-6,60.799997300E-3,
,,,59.283996961E-6,-120.0000048E-3,,,,,59.283996961E-6,59.200000018E-3,
,,,59.287998738E-6,-120.0000048E-3,,,,,59.287998738E-6,60.799997300E-3,
,,,59.291996877E-6,-118.0000082E-3,,,,,59.291996877E-6,59.200000018E-3,
,,,59.295998653E-6,-120.0000048E-3,,,,,59.295998653E-6,59.999998659E-3,
,,,59.299996792E-6,-120.0000048E-3,,,,,59.299996792E-6,61.599999666E-3,
,,,59.303998569E-6,-116.0000041E-3,,,,,59.303998569E-6,60.799997300E-3,
,,,59.307996708E-6,-112.0000035E-3,,,,,59.307996708E-6,61.599999666E-3,
,,,59.311998484E-6,-114.0000075E-3,,,,,59.311998484E-6,59.999998659E-3,
,,,59.315996623E-6,-116.0000041E-3,,,,,59.315996623E-6,59.200000018E-3,
,,,59.319998400E-6,-112.0000035E-3,,,,,59.319998400E-6,62.399998307E-3,
,,,59.323996538E-6,-114.0000075E-3,,,,,59.323996538E-6,59.999998659E-3,
,,,59.327998315E-6,-110.0000069E-3,,,,,59.327998315E-6,61.599999666E-3,
,,,59.331996454E-6,-110.0000069E-3,,,,,59.331996454E-6,61.599999666E-3,
,,,59.335998230E-6,-110.0000069E-3,,,,,59.335998230E-6,62.399998307E-3,
,,,59.339996369E-6,-110.0000069E-3,,,,,59.339996369E-6,64.800001681E-3,
,,,59.343998146E-6,-106.0000062E-3,,,,,59.343998146E-6,60.799997300E-3,
,,,59.347999922E-6,-106.0000062E-3,,,,,59.347999922E-6,59.999998659E-3,
,,,59.351998061E-6,-104.0000021E-3,,,,,59.351998061E-6,63.999995589E-3,
,,,59.355999838E-6,-104.0000021E-3,,,,,59.355999838E-6,60.799997300E-3,
,,,59.359997977E-6,-104.0000021E-3,,,,,59.359997977E-6,60.799997300E-3,
,,,59.363999753E-6,-100.0000015E-3,,,,,59.363999753E-6,63.199996948E-3,
,,,59.367997892E-6,-100.0000015E-3,,,,,59.367997892E-6,61.599999666E-3,
,,,59.371999669E-6,-100.0000015E-3,,,,,59.371999669E-6,62.399998307E-3,
,,,59.375997807E-6,-94.000004232E-3,,,,,59.375997807E-6,63.199996948E-3,
,,,59.379999584E-6,-98.000004888E-3,,,,,59.379999584E-6,62.399998307E-3,
,,,59.383997723E-6,-98.000004888E-3,,,,,59.383997723E-6,63.999995589E-3,
,,,59.387999499E-6,-100.0000015E-3,,,,,59.387999499E-6,62.399998307E-3,
,,,59.391997638E-6,-94.000004232E-3,,,,,59.391997638E-6,63.199996948E-3,
,,,59.395999415E-6,-92.000007629E-3,,,,,59.395999415E-6,65.600000322E-3,
,,,59.399997554E-6,-96.000000834E-3,,,,,59.399997554E-6,63.999995589E-3,
,,,59.403999330E-6,-94.000004232E-3,,,,,59.403999330E-6,63.999995589E-3,
,,,59.407997469E-6,-94.000004232E-3,,,,,59.407997469E-6,67.199997604E-3,
,,,59.411999246E-6,-90.000003576E-3,,,,,59.411999246E-6,62.399998307E-3,
,,,59.415997384E-6,-90.000003576E-3,,,,,59.415997384E-6,65.600000322E-3,
,,,59.419999161E-6,-90.000003576E-3,,,,,59.419999161E-6,65.600000322E-3,
,,,59.423997300E-6,-84.000006318E-3,,,,,59.423997300E-6,62.399998307E-3,
,,,59.427999076E-6,-82.000002265E-3,,,,,59.427999076E-6,66.399998963E-3,
,,,59.431997215E-6,-86.000002921E-3,,,,,59.431997215E-6,61.599999666E-3,
,,,59.435998992E-6,-84.000006318E-3,,,,,59.435998992E-6,66.399998963E-3,
,,,59.439997131E-6,-84.000006318E-3,,,,,59.439997131E-6,66.399998963E-3,
,,,59.443998907E-6,-78.000001609E-3,,,,,59.443998907E-6,62.399998307E-3,
,,,59.447997046E-6,-80.000005662E-3,,,,,59.447997046E-6,67.999996245E-3,
,,,59.451998823E-6,-78.000001609E-3,,,,,59.451998823E-6,64.800001681E-3,
,,,59.455996961E-6,-80.000005662E-3,,,,,59.455996961E-6,63.999995589E-3,
,,,59.459998738E-6,-78.000001609E-3,,,,,59.459998738E-6,65.600000322E-3,
,,,59.463996877E-6,-76.000005007E-3,,,,,59.463996877E-6,63.999995589E-3,
,,,59.467998653E-6,-72.000004351E-3,,,,,59.467998653E-6,67.199997604E-3,
,,,59.471996792E-6,-76.000005007E-3,,,,,59.471996792E-6,64.800001681E-3,
,,,59.475998569E-6,-74.000000954E-3,,,,,59.475998569E-6,64.800001681E-3,
,,,59.479996708E-6,-72.000004351E-3,,,,,59.479996708E-6,66.399998963E-3,
,,,59.483998484E-6,-70.000000298E-3,,,,,59.483998484E-6,67.199997604E-3,
,,,59.487996623E-6,-68.000003695E-3,,,,,59.487996623E-6,66.399998963E-3,
,,,59.491998400E-6,-68.000003695E-3,,,,,59.491998400E-6,66.399998963E-3,
,,,59.495996538E-6,-64.000003040E-3,,,,,59.495996538E-6,63.199996948E-3,
,,,59.499998315E-6,-68.000003695E-3,,,,,59.499998315E-6,66.399998963E-3,
,,,59.503996454E-6,-64.000003040E-3,,,,,59.503996454E-6,67.199997604E-3,
,,,59.507998230E-6,-62.000002712E-3,,,,,59.507998230E-6,64.800001681E-3,
,,,59.511996369E-6,-58.000002056E-3,,,,,59.511996369E-6,67.199997604E-3,
,,,59.515998146E-6,-60.000002384E-3,,,,,59.515998146E-6,64.800001681E-3,
,,,59.519999922E-6,-58.000002056E-3,,,,,59.519999922E-6,65.600000322E-3,
,,,59.523998061E-6,-60.000002384E-3,,,,,59.523998061E-6,69.600000978E-3,
,,,59.527999838E-6,-60.000002384E-3,,,,,59.527999838E-6,63.999995589E-3,
,,,59.531997977E-6,-58.000002056E-3,,,,,59.531997977E-6,67.199997604E-3,
,,,59.535999753E-6,-56.000001729E-3,,,,,59.535999753E-6,67.999996245E-3,
,,,59.539997892E-6,-54.00000140E-3,,,,,59.539997892E-6,66.399998963E-3,
,,,59.543999669E-6,-54.00000140E-3,,,,,59.543999669E-6,67.999996245E-3,
,,,59.547997807E-6,-52.00000107E-3,,,,,59.547997807E-6,65.600000322E-3,
,,,59.551999584E-6,-52.00000107E-3,,,,,59.551999584E-6,65.600000322E-3,
,,,59.555997723E-6,-46.00000381E-3,,,,,59.555997723E-6,68.799994886E-3,
,,,59.559999499E-6,-50.00000075E-3,,,,,59.559999499E-6,65.600000322E-3,
,,,59.563997638E-6,-50.00000075E-3,,,,,59.563997638E-6,66.399998963E-3,
,,,59.567999415E-6,-46.00000381E-3,,,,,59.567999415E-6,67.999996245E-3,
,,,59.571997554E-6,-44.00000349E-3,,,,,59.571997554E-6,65.600000322E-3,
,,,59.575999330E-6,-42.00000316E-3,,,,,59.575999330E-6,67.999996245E-3,
,,,59.579997469E-6,-40.00000283E-3,,,,,59.579997469E-6,67.999996245E-3,
,,,59.583999246E-6,-40.00000283E-3,,,,,59.583999246E-6,65.600000322E-3,
,,,59.587997384E-6,-42.00000316E-3,,,,,59.587997384E-6,68.799994886E-3,
,,,59.591999161E-6,-40.00000283E-3,,,,,59.591999161E-6,65.600000322E-3,
,,,59.595997300E-6,-40.00000283E-3,,,,,59.595997300E-6,67.199997604E-3,
,,,59.599999076E-6,-34.00000185E-3,,,,,59.599999076E-6,69.600000978E-3,
,,,59.603997215E-6,-36.00000218E-3,,,,,59.603997215E-6,65.600000322E-3,
,,,59.607998992E-6,-34.00000185E-3,,,,,59.607998992E-6,69.600000978E-3,
,,,59.611997131E-6,-38.00000250E-3,,,,,59.611997131E-6,66.399998963E-3,
,,,59.615998907E-6,-34.00000185E-3,,,,,59.615998907E-6,67.199997604E-3,
,,,59.619997046E-6,-32.00000152E-3,,,,,59.619997046E-6,68.799994886E-3,
,,,59.623998823E-6,-28.00000086E-3,,,,,59.623998823E-6,66.399998963E-3,
,,,59.627996961E-6,-30.00000119E-3,,,,,59.627996961E-6,68.799994886E-3,
,,,59.631998738E-6,-32.00000152E-3,,,,,59.631998738E-6,68.799994886E-3,
,,,59.635996877E-6,-32.00000152E-3,,,,,59.635996877E-6,66.399998963E-3,
,,,59.639998653E-6,-24.00000021E-3,,,,,59.639998653E-6,68.799994886E-3,
,,,59.643996792E-6,-24.00000021E-3,,,,,59.643996792E-6,67.999996245E-3,
,,,59.647998569E-6,-26.00000054E-3,,,,,59.647998569E-6,66.399998963E-3,
,,,59.651996708E-6,-26.00000054E-3,,,,,59.651996708E-6,67.999996245E-3,
,,,59.655998484E-6,-20.0000014E-3,,,,,59.655998484E-6,67.199997604E-3,
,,,59.659996623E-6,-18.0000011E-3,,,,,59.659996623E-6,66.399998963E-3,
,,,59.663998400E-6,-20.0000014E-3,,,,,59.663998400E-6,65.600000322E-3,
,,,59.667996538E-6,-18.0000011E-3,,,,,59.667996538E-6,67.199997604E-3,
,,,59.671998315E-6,-16.0000008E-3,,,,,59.671998315E-6,68.799994886E-3,
,,,59.675996454E-6,-14.0000004E-3,,,,,59.675996454E-6,67.999996245E-3,
,,,59.679998230E-6,-16.0000008E-3,,,,,59.679998230E-6,67.199997604E-3,
,,,59.683996369E-6,-12.0000001E-3,,,,,59.683996369E-6,69.600000978E-3,
,,,59.687998146E-6,-14.0000004E-3,,,,,59.687998146E-6,67.999996245E-3,
,,,59.691999923E-6,-10.0000007E-3,,,,,59.691999923E-6,67.199997604E-3,
,,,59.695998061E-6,-10.0000007E-3,,,,,59.695998061E-6,67.199997604E-3,
,,,59.699999838E-6,-10.0000007E-3,,,,,59.699999838E-6,65.600000322E-3,
,,,59.703997977E-6,-6.00000005E-3,,,,,59.703997977E-6,66.399998963E-3,
,,,59.707999753E-6,-6.00000005E-3,,,,,59.707999753E-6,68.799994886E-3,
,,,59.711997892E-6,-6.00000005E-3,,,,,59.711997892E-6,65.600000322E-3,
,,,59.715999669E-6,-4.00000019E-3,,,,,59.715999669E-6,67.999996245E-3,
,,,59.719997807E-6,-4.00000019E-3,,,,,59.719997807E-6,67.199997604E-3,
,,,59.723999584E-6,-2.0000001E-3,,,,,59.723999584E-6,64.800001681E-3,
,,,59.727997723E-6,0.0,,,,,59.727997723E-6,67.999996245E-3,
,,,59.731999499E-6,2.0000001E-3,,,,,59.731999499E-6,67.199997604E-3,
,,,59.735997638E-6,2.0000001E-3,,,,,59.735997638E-6,66.399998963E-3,
,,,59.739999415E-6,4.00000019E-3,,,,,59.739999415E-6,66.399998963E-3,
,,,59.743997554E-6,6.00000005E-3,,,,,59.743997554E-6,65.600000322E-3,
,,,59.747999330E-6,6.00000005E-3,,,,,59.747999330E-6,65.600000322E-3,
,,,59.751997469E-6,4.00000019E-3,,,,,59.751997469E-6,67.199997604E-3,
,,,59.755999246E-6,6.00000005E-3,,,,,59.755999246E-6,64.800001681E-3,
,,,59.759997384E-6,10.0000007E-3,,,,,59.759997384E-6,66.399998963E-3,
,,,59.763999161E-6,10.0000007E-3,,,,,59.763999161E-6,67.999996245E-3,
,,,59.767997300E-6,12.0000001E-3,,,,,59.767997300E-6,64.800001681E-3,
,,,59.771999076E-6,14.0000004E-3,,,,,59.771999076E-6,67.999996245E-3,
,,,59.775997215E-6,12.0000001E-3,,,,,59.775997215E-6,64.800001681E-3,
,,,59.779998992E-6,14.0000004E-3,,,,,59.779998992E-6,65.600000322E-3,
,,,59.783997131E-6,18.0000011E-3,,,,,59.783997131E-6,66.399998963E-3,
,,,59.787998907E-6,16.0000008E-3,,,,,59.787998907E-6,63.999995589E-3,
,,,59.791997046E-6,20.0000014E-3,,,,,59.791997046E-6,67.199997604E-3,
,,,59.795998823E-6,18.0000011E-3,,,,,59.795998823E-6,64.800001681E-3,
,,,59.799996961E-6,24.00000021E-3,,,,,59.799996961E-6,64.800001681E-3,
,,,59.803998738E-6,22.00000174E-3,,,,,59.803998738E-6,67.199997604E-3,
,,,59.807996877E-6,24.00000021E-3,,,,,59.807996877E-6,63.999995589E-3,
,,,59.811998653E-6,24.00000021E-3,,,,,59.811998653E-6,65.600000322E-3,
,,,59.815996792E-6,26.00000054E-3,,,,,59.815996792E-6,67.999996245E-3,
,,,59.819998569E-6,28.00000086E-3,,,,,59.819998569E-6,64.800001681E-3,
,,,59.823996708E-6,28.00000086E-3,,,,,59.823996708E-6,66.399998963E-3,
,,,59.827998484E-6,26.00000054E-3,,,,,59.827998484E-6,64.800001681E-3,
,,,59.831996623E-6,30.00000119E-3,,,,,59.831996623E-6,63.199996948E-3,
,,,59.835998400E-6,32.00000152E-3,,,,,59.835998400E-6,65.600000322E-3,
,,,59.839996538E-6,34.00000185E-3,,,,,59.839996538E-6,65.600000322E-3,
,,,59.843998315E-6,30.00000119E-3,,,,,59.843998315E-6,62.399998307E-3,
,,,59.847996454E-6,36.00000218E-3,,,,,59.847996454E-6,65.600000322E-3,
,,,59.851998230E-6,36.00000218E-3,,,,,59.851998230E-6,62.399998307E-3,
,,,59.855996369E-6,36.00000218E-3,,,,,59.855996369E-6,62.399998307E-3,
,,,59.859998146E-6,40.00000283E-3,,,,,59.859998146E-6,64.800001681E-3,
,,,59.863999923E-6,42.00000316E-3,,,,,59.863999923E-6,61.599999666E-3,
,,,59.867998061E-6,40.00000283E-3,,,,,59.867998061E-6,64.800001681E-3,
,,,59.871999838E-6,42.00000316E-3,,,,,59.871999838E-6,63.999995589E-3,
,,,59.875997977E-6,40.00000283E-3,,,,,59.875997977E-6,61.599999666E-3,
,,,59.879999753E-6,46.00000381E-3,,,,,59.879999753E-6,64.800001681E-3,
,,,59.883997892E-6,46.00000381E-3,,,,,59.883997892E-6,61.599999666E-3,
,,,59.887999669E-6,48.00000042E-3,,,,,59.887999669E-6,62.399998307E-3,
,,,59.891997807E-6,46.00000381E-3,,,,,59.891997807E-6,62.399998307E-3,
,,,59.895999584E-6,46.00000381E-3,,,,,59.895999584E-6,60.799997300E-3,
,,,59.899997723E-6,48.00000042E-3,,,,,59.899997723E-6,64.800001681E-3,
,,,59.903999500E-6,50.00000075E-3,,,,,59.903999500E-6,64.800001681E-3,
,,,59.907997638E-6,52.00000107E-3,,,,,59.907997638E-6,61.599999666E-3,
,,,59.911999415E-6,52.00000107E-3,,,,,59.911999415E-6,63.199996948E-3,
,,,59.915997554E-6,54.00000140E-3,,,,,59.915997554E-6,60.799997300E-3,
,,,59.919999330E-6,56.000001729E-3,,,,,59.919999330E-6,63.999995589E-3,
,,,59.923997469E-6,56.000001729E-3,,,,,59.923997469E-6,62.399998307E-3,
,,,59.927999246E-6,58.000002056E-3,,,,,59.927999246E-6,57.599999011E-3,
,,,59.931997384E-6,58.000002056E-3,,,,,59.931997384E-6,62.399998307E-3,
,,,59.935999161E-6,60.000002384E-3,,,,,59.935999161E-6,61.599999666E-3,
,,,59.939997300E-6,60.000002384E-3,,,,,59.939997300E-6,58.399997652E-3,
,,,59.943999076E-6,64.000003040E-3,,,,,59.943999076E-6,63.199996948E-3,
,,,59.947997215E-6,64.000003040E-3,,,,,59.947997215E-6,59.200000018E-3,
,,,59.951998992E-6,68.000003695E-3,,,,,59.951998992E-6,60.799997300E-3,
,,,59.955997131E-6,65.999999642E-3,,,,,59.955997131E-6,59.999998659E-3,
,,,59.959998907E-6,68.000003695E-3,,,,,59.959998907E-6,57.599999011E-3,
,,,59.963997046E-6,65.999999642E-3,,,,,59.963997046E-6,61.599999666E-3,
,,,59.967998823E-6,68.000003695E-3,,,,,59.967998823E-6,59.999998659E-3,
,,,59.971996961E-6,70.000000298E-3,,,,,59.971996961E-6,57.599999011E-3,
,,,59.975998738E-6,68.000003695E-3,,,,,59.975998738E-6,60.799997300E-3,
,,,59.979996877E-6,74.000000954E-3,,,,,59.979996877E-6,58.399997652E-3,
,,,59.983998653E-6,72.000004351E-3,,,,,59.983998653E-6,58.399997652E-3,
,,,59.987996792E-6,74.000000954E-3,,,,,59.987996792E-6,59.200000018E-3,
,,,59.991998569E-6,74.000000954E-3,,,,,59.991998569E-6,58.399997652E-3,
,,,59.995996708E-6,78.000001609E-3,,,,,59.995996708E-6,59.200000018E-3,
,,,59.999998484E-6,76.000005007E-3,,,,,59.999998484E-6,59.200000018E-3,
,,,60.003996623E-6,76.000005007E-3,,,,,60.003996623E-6,58.399997652E-3,
,,,60.007998400E-6,76.000005007E-3,,,,,60.007998400E-6,58.399997652E-3,
,,,60.011996538E-6,80.000005662E-3,,,,,60.011996538E-6,57.599999011E-3,
,,,60.015998315E-6,80.000005662E-3,,,,,60.015998315E-6,56.800000370E-3,
,,,60.019996454E-6,86.000002921E-3,,,,,60.019996454E-6,55.999998003E-3,
,,,60.023998230E-6,84.000006318E-3,,,,,60.023998230E-6,56.800000370E-3,
,,,60.027996369E-6,84.000006318E-3,,,,,60.027996369E-6,57.599999011E-3,
,,,60.031998146E-6,82.000002265E-3,,,,,60.031998146E-6,56.800000370E-3,
,,,60.035999923E-6,88.000006974E-3,,,,,60.035999923E-6,54.39999700E-3,
,,,60.039998061E-6,86.000002921E-3,,,,,60.039998061E-6,56.800000370E-3,
,,,60.043999838E-6,88.000006974E-3,,,,,60.043999838E-6,55.999998003E-3,
,,,60.047997977E-6,90.000003576E-3,,,,,60.047997977E-6,55.199999362E-3,
,,,60.051999753E-6,92.000007629E-3,,,,,60.051999753E-6,56.800000370E-3,
,,,60.055997892E-6,92.000007629E-3,,,,,60.055997892E-6,51.99999735E-3,
,,,60.059999669E-6,92.000007629E-3,,,,,60.059999669E-6,55.199999362E-3,
,,,60.063997807E-6,94.000004232E-3,,,,,60.063997807E-6,55.999998003E-3,
,,,60.067999584E-6,94.000004232E-3,,,,,60.067999584E-6,51.99999735E-3,
,,,60.071997723E-6,98.000004888E-3,,,,,60.071997723E-6,55.999998003E-3,
,,,60.075999500E-6,96.000000834E-3,,,,,60.075999500E-6,52.79999971E-3,
