Week2/PartB-LowPass/data-15k-H.csv

Record Length,2500,Points,-60.999998823E-6,-184.00001526E-3,,Record Length,2500,Points,-60.999998823E-6,-178.00000310E-3,
Sample Interval,100.0000012E-9,s,-60.899998061E-6,-180.00000715E-3,,Sample Interval,100.0000012E-9,s,-60.899998061E-6,-182.00001121E-3,
Trigger Point,609.999981100,Samples,-60.799997300E-6,-182.00001121E-3,,Trigger Point,609.999981100,Samples,-60.799997300E-6,-176.00001395E-3,
,,,-60.700000176E-6,-182.00001121E-3,,,,,-60.700000176E-6,-174.00000989E-3,
,,,-60.599999415E-6,-182.00001121E-3,,,,,-60.599999415E-6,-174.00000989E-3,
,,,-60.499998654E-6,-180.00000715E-3,,,,,-60.499998654E-6,-176.00001395E-3,
Source,CH1,,-60.399997892E-6,-182.00001121E-3,,Source,CH2,,-60.399997892E-6,-174.00000989E-3,
Vertical Units,Volts,,-60.299997131E-6,-182.00001121E-3,,Vertical Units,Volts,,-60.299997131E-6,-178.00000310E-3,
Vertical Scale,50.00000237E-3,,-60.200000007E-6,-180.00000715E-3,,Vertical Scale,50.00000237E-3,,-60.200000007E-6,-178.00000310E-3,
Vertical Offset,0,,-60.099999246E-6,-180.00000715E-3,,Vertical Offset,0,,-60.099999246E-6,-176.00001395E-3,
Horizontal Units,s,,-59.999998484E-6,-178.00000310E-3,,Horizontal Units,s,,-59.999998484E-6,-180.00000715E-3,
Horizontal Scale,25.00000029E-6,,-59.899997723E-6,-176.00001395E-3,,Horizontal Scale,25.00000029E-6,,-59.899997723E-6,-174.00000989E-3,
Pt Fmt,Y,,-59.800000599E-6,-176.00001395E-3,,Pt Fmt,Y,,-59.800000599E-6,-174.00000989E-3,
Yzero,80.000000000E-3,,-59.699999838E-6,-178.00000310E-3,,Yzero,0.0,,-59.699999838E-6,-178.00000310E-3,
Probe Atten,1.000000,,-59.599999076E-6,-176.00001395E-3,,Probe Atten,1.000000,,-59.599999076E-6,-176.00001395E-3,
,,,-59.499998315E-6,-172.00000584E-3,,,,,-59.499998315E-6,-172.00000584E-3,
Note,TDS 1001B - 10:54:33   14/05/2025,,-59.399997554E-6,-174.00000989E-3,,Note,TDS 1001B - 10:54:33   14/05/2025,,-59.399997554E-6,-178.00000310E-3,
,,,-59.300000430E-6,-176.00001395E-3,,,,,-59.300000430E-6,-178.00000310E-3,
,,,-59.199999669E-6,-176.00001395E-3,,,,,-59.199999669E-6,-178.00000310E-3,
,,,-59.099998907E-6,-172.00000584E-3,,,,,-59.099998907E-6,-172.00000584E-3,
,,,-58.999998146E-6,-174.00000989E-3,,,,,-58.999998146E-6,-174.00000989E-3,
,,,-58.899997384E-6,-172.00000584E-3,,,,,-58.899997384E-6,-174.00000989E-3,
,,,-58.800000261E-6,-170.00000179E-3,,,,,-58.800000261E-6,-170.00000179E-3,
,,,-58.699999499E-6,-172.00000584E-3,,,,,-58.699999499E-6,-174.00000989E-3,
,,,-58.599998738E-6,-172.00000584E-3,,,,,-58.599998738E-6,-176.00001395E-3,
,,,-58.499997976E-6,-168.00001264E-3,,,,,-58.499997976E-6,-170.00000179E-3,
,,,-58.399997215E-6,-168.00001264E-3,,,,,-58.399997215E-6,-170.00000179E-3,
,,,-58.300000092E-6,-166.00000858E-3,,,,,-58.300000092E-6,-174.00000989E-3,
,,,-58.199999330E-6,-166.00000858E-3,,,,,-58.199999330E-6,-172.00000584E-3,
,,,-58.099998569E-6,-168.00001264E-3,,,,,-58.099998569E-6,-176.00001395E-3,
,,,-57.999997807E-6,-166.00000858E-3,,,,,-57.999997807E-6,-170.00000179E-3,
,,,-57.899997046E-6,-164.00000453E-3,,,,,-57.899997046E-6,-174.00000989E-3,
,,,-57.799999922E-6,-162.00000048E-3,,,,,-57.799999922E-6,-174.00000989E-3,
,,,-57.699999161E-6,-162.00000048E-3,,,,,-57.699999161E-6,-170.00000179E-3,
,,,-57.599998399E-6,-162.00000048E-3,,,,,-57.599998399E-6,-170.00000179E-3,
,,,-57.499997638E-6,-162.00000048E-3,,,,,-57.499997638E-6,-172.00000584E-3,
,,,-57.400000514E-6,-160.00001132E-3,,,,,-57.400000514E-6,-168.00001264E-3,
,,,-57.299999753E-6,-160.00001132E-3,,,,,-57.299999753E-6,-166.00000858E-3,
,,,-57.199998992E-6,-160.00001132E-3,,,,,-57.199998992E-6,-168.00001264E-3,
,,,-57.099998230E-6,-156.00000322E-3,,,,,-57.099998230E-6,-168.00001264E-3,
,,,-56.999997469E-6,-158.00000727E-3,,,,,-56.999997469E-6,-164.00000453E-3,
,,,-56.900000345E-6,-156.00000322E-3,,,,,-56.900000345E-6,-166.00000858E-3,
,,,-56.799999584E-6,-150.00000596E-3,,,,,-56.799999584E-6,-162.00000048E-3,
,,,-56.699998822E-6,-150.00000596E-3,,,,,-56.699998822E-6,-158.00000727E-3,
,,,-56.599998061E-6,-154.00001407E-3,,,,,-56.599998061E-6,-164.00000453E-3,
,,,-56.499997299E-6,-150.00000596E-3,,,,,-56.499997299E-6,-166.00000858E-3,
,,,-56.400000176E-6,-148.0000019E-3,,,,,-56.400000176E-6,-164.00000453E-3,
,,,-56.299999414E-6,-148.0000019E-3,,,,,-56.299999414E-6,-166.00000858E-3,
,,,-56.199998653E-6,-148.0000019E-3,,,,,-56.199998653E-6,-160.00001132E-3,
,,,-56.099997892E-6,-148.0000019E-3,,,,,-56.099997892E-6,-160.00001132E-3,
,,,-55.999997130E-6,-144.0000087E-3,,,,,-55.999997130E-6,-158.00000727E-3,
,,,-55.900000007E-6,-144.0000087E-3,,,,,-55.900000007E-6,-154.00001407E-3,
,,,-55.799999245E-6,-140.0000006E-3,,,,,-55.799999245E-6,-154.00001407E-3,
,,,-55.699998484E-6,-144.0000087E-3,,,,,-55.699998484E-6,-156.00000322E-3,
,,,-55.599997722E-6,-142.0000046E-3,,,,,-55.599997722E-6,-152.00001001E-3,
,,,-55.499996961E-6,-140.0000006E-3,,,,,-55.499996961E-6,-156.00000322E-3,
,,,-55.399999837E-6,-138.0000114E-3,,,,,-55.399999837E-6,-158.00000727E-3,
,,,-55.299999076E-6,-136.0000074E-3,,,,,-55.299999076E-6,-158.00000727E-3,
,,,-55.199998314E-6,-134.0000033E-3,,,,,-55.199998314E-6,-156.00000322E-3,
,,,-55.099997553E-6,-136.0000074E-3,,,,,-55.099997553E-6,-150.00000596E-3,
,,,-55.000000430E-6,-134.0000033E-3,,,,,-55.000000430E-6,-154.00001407E-3,
,,,-54.899999668E-6,-128.0000061E-3,,,,,-54.899999668E-6,-152.00001001E-3,
,,,-54.799998907E-6,-131.9999993E-3,,,,,-54.799998907E-6,-148.0000019E-3,
,,,-54.699998145E-6,-126.0000020E-3,,,,,-54.699998145E-6,-148.0000019E-3,
,,,-54.599997384E-6,-124.0000054E-3,,,,,-54.599997384E-6,-144.0000087E-3,
,,,-54.50000026E-6,-124.0000054E-3,,,,,-54.50000026E-6,-142.0000046E-3,
,,,-54.39999950E-6,-126.0000020E-3,,,,,-54.39999950E-6,-146.0000128E-3,
,,,-54.29999874E-6,-122.0000088E-3,,,,,-54.29999874E-6,-144.0000087E-3,
,,,-54.19999798E-6,-122.0000088E-3,,,,,-54.19999798E-6,-140.0000006E-3,
,,,-54.09999721E-6,-122.0000088E-3,,,,,-54.09999721E-6,-140.0000006E-3,
,,,-54.00000009E-6,-122.0000088E-3,,,,,-54.00000009E-6,-136.0000074E-3,
,,,-53.89999933E-6,-120.0000048E-3,,,,,-53.89999933E-6,-138.0000114E-3,
,,,-53.79999857E-6,-122.0000088E-3,,,,,-53.79999857E-6,-140.0000006E-3,
,,,-53.69999781E-6,-116.0000041E-3,,,,,-53.69999781E-6,-142.0000046E-3,
,,,-53.59999705E-6,-112.0000035E-3,,,,,-53.59999705E-6,-138.0000114E-3,
,,,-53.49999992E-6,-110.0000069E-3,,,,,-53.49999992E-6,-136.0000074E-3,
,,,-53.39999916E-6,-110.0000069E-3,,,,,-53.39999916E-6,-131.9999993E-3,
,,,-53.29999840E-6,-110.0000069E-3,,,,,-53.29999840E-6,-131.9999993E-3,
,,,-53.19999764E-6,-108.0000028E-3,,,,,-53.19999764E-6,-128.0000061E-3,
,,,-53.10000051E-6,-106.0000062E-3,,,,,-53.10000051E-6,-128.0000061E-3,
,,,-52.99999975E-6,-104.0000021E-3,,,,,-52.99999975E-6,-124.0000054E-3,
,,,-52.89999899E-6,-102.0000055E-3,,,,,-52.89999899E-6,-126.0000020E-3,
,,,-52.79999823E-6,-102.0000055E-3,,,,,-52.79999823E-6,-124.0000054E-3,
,,,-52.69999747E-6,-100.0000015E-3,,,,,-52.69999747E-6,-124.0000054E-3,
,,,-52.60000034E-6,-98.000004888E-3,,,,,-52.60000034E-6,-124.0000054E-3,
,,,-52.49999958E-6,-96.000000834E-3,,,,,-52.49999958E-6,-120.0000048E-3,
,,,-52.39999882E-6,-96.000000834E-3,,,,,-52.39999882E-6,-126.0000020E-3,
,,,-52.29999806E-6,-92.000007629E-3,,,,,-52.29999806E-6,-122.0000088E-3,
,,,-52.19999730E-6,-94.000004232E-3,,,,,-52.19999730E-6,-118.0000082E-3,
,,,-52.10000018E-6,-90.000003576E-3,,,,,-52.10000018E-6,-118.0000082E-3,
,,,-51.99999941E-6,-88.000006974E-3,,,,,-51.99999941E-6,-114.0000075E-3,
,,,-51.89999865E-6,-88.000006974E-3,,,,,-51.89999865E-6,-112.0000035E-3,
,,,-51.79999789E-6,-84.000006318E-3,,,,,-51.79999789E-6,-108.0000028E-3,
,,,-51.69999713E-6,-84.000006318E-3,,,,,-51.69999713E-6,-112.0000035E-3,
,,,-51.60000001E-6,-80.000005662E-3,,,,,-51.60000001E-6,-108.0000028E-3,
,,,-51.49999924E-6,-78.000001609E-3,,,,,-51.49999924E-6,-108.0000028E-3,
,,,-51.39999848E-6,-80.000005662E-3,,,,,-51.39999848E-6,-106.0000062E-3,
,,,-51.29999772E-6,-78.000001609E-3,,,,,-51.29999772E-6,-106.0000062E-3,
,,,-51.19999696E-6,-76.000005007E-3,,,,,-51.19999696E-6,-104.0000021E-3,
,,,-51.09999984E-6,-74.000000954E-3,,,,,-51.09999984E-6,-102.0000055E-3,
,,,-50.99999908E-6,-72.000004351E-3,,,,,-50.99999908E-6,-102.0000055E-3,
,,,-50.89999831E-6,-70.000000298E-3,,,,,-50.89999831E-6,-98.000004888E-3,
,,,-50.79999755E-6,-70.000000298E-3,,,,,-50.79999755E-6,-94.000004232E-3,
,,,-50.70000043E-6,-65.999999642E-3,,,,,-50.70000043E-6,-100.0000015E-3,
,,,-50.59999967E-6,-65.999999642E-3,,,,,-50.59999967E-6,-94.000004232E-3,
,,,-50.49999891E-6,-60.000002384E-3,,,,,-50.49999891E-6,-94.000004232E-3,
,,,-50.39999814E-6,-60.000002384E-3,,,,,-50.39999814E-6,-92.000007629E-3,
,,,-50.29999738E-6,-60.000002384E-3,,,,,-50.29999738E-6,-92.000007629E-3,
,,,-50.20000026E-6,-58.000002056E-3,,,,,-50.20000026E-6,-86.000002921E-3,
,,,-50.09999950E-6,-54.00000140E-3,,,,,-50.09999950E-6,-86.000002921E-3,
,,,-49.99999874E-6,-52.00000107E-3,,,,,-49.99999874E-6,-86.000002921E-3,
,,,-49.89999798E-6,-56.000001729E-3,,,,,-49.89999798E-6,-88.000006974E-3,
,,,-49.79999721E-6,-52.00000107E-3,,,,,-49.79999721E-6,-82.000002265E-3,
,,,-49.70000009E-6,-50.00000075E-3,,,,,-49.70000009E-6,-80.000005662E-3,
,,,-49.59999933E-6,-46.00000381E-3,,,,,-49.59999933E-6,-82.000002265E-3,
,,,-49.49999857E-6,-44.00000349E-3,,,,,-49.49999857E-6,-80.000005662E-3,
,,,-49.39999781E-6,-46.00000381E-3,,,,,-49.39999781E-6,-76.000005007E-3,
,,,-49.29999704E-6,-42.00000316E-3,,,,,-49.29999704E-6,-78.000001609E-3,
,,,-49.19999992E-6,-42.00000316E-3,,,,,-49.19999992E-6,-70.000000298E-3,
,,,-49.09999916E-6,-36.00000218E-3,,,,,-49.09999916E-6,-72.000004351E-3,
,,,-48.99999840E-6,-36.00000218E-3,,,,,-48.99999840E-6,-70.000000298E-3,
,,,-48.89999764E-6,-34.00000185E-3,,,,,-48.89999764E-6,-68.000003695E-3,
,,,-48.79999688E-6,-32.00000152E-3,,,,,-48.79999688E-6,-65.999999642E-3,
,,,-48.69999975E-6,-28.00000086E-3,,,,,-48.69999975E-6,-65.999999642E-3,
,,,-48.59999899E-6,-30.00000119E-3,,,,,-48.59999899E-6,-62.000002712E-3,
,,,-48.49999823E-6,-26.00000054E-3,,,,,-48.49999823E-6,-60.000002384E-3,
,,,-48.39999747E-6,-26.00000054E-3,,,,,-48.39999747E-6,-58.000002056E-3,
,,,-48.30000034E-6,-22.00000174E-3,,,,,-48.30000034E-6,-58.000002056E-3,
,,,-48.19999958E-6,-20.0000014E-3,,,,,-48.19999958E-6,-62.000002712E-3,
,,,-48.09999882E-6,-20.0000014E-3,,,,,-48.09999882E-6,-56.000001729E-3,
,,,-47.99999806E-6,-16.0000008E-3,,,,,-47.99999806E-6,-54.00000140E-3,
,,,-47.89999730E-6,-16.0000008E-3,,,,,-47.89999730E-6,-54.00000140E-3,
,,,-47.80000017E-6,-12.0000001E-3,,,,,-47.80000017E-6,-54.00000140E-3,
,,,-47.69999941E-6,-8.000000380E-3,,,,,-47.69999941E-6,-50.00000075E-3,
,,,-47.59999865E-6,-10.0000007E-3,,,,,-47.59999865E-6,-48.00000042E-3,
,,,-47.49999789E-6,-10.0000007E-3,,,,,-47.49999789E-6,-46.00000381E-3,
,,,-47.39999713E-6,-4.00000019E-3,,,,,-47.39999713E-6,-42.00000316E-3,
,,,-47.30000001E-6,-4.00000019E-3,,,,,-47.30000001E-6,-38.00000250E-3,
,,,-47.19999924E-6,-2.0000001E-3,,,,,-47.19999924E-6,-38.00000250E-3,
,,,-47.09999848E-6,0.0,,,,,-47.09999848E-6,-36.00000218E-3,
,,,-46.99999772E-6,2.0000001E-3,,,,,-46.99999772E-6,-34.00000185E-3,
,,,-46.89999696E-6,4.00000019E-3,,,,,-46.89999696E-6,-30.00000119E-3,
,,,-46.79999984E-6,6.00000005E-3,,,,,-46.79999984E-6,-32.00000152E-3,
,,,-46.69999907E-6,6.00000005E-3,,,,,-46.69999907E-6,-30.00000119E-3,
,,,-46.59999831E-6,8.000000380E-3,,,,,-46.59999831E-6,-28.00000086E-3,
,,,-46.49999755E-6,12.0000001E-3,,,,,-46.49999755E-6,-28.00000086E-3,
,,,-46.40000043E-6,14.0000004E-3,,,,,-46.40000043E-6,-28.00000086E-3,
,,,-46.29999967E-6,16.0000008E-3,,,,,-46.29999967E-6,-22.00000174E-3,
,,,-46.19999891E-6,14.0000004E-3,,,,,-46.19999891E-6,-22.00000174E-3,
,,,-46.09999814E-6,16.0000008E-3,,,,,-46.09999814E-6,-18.0000011E-3,
,,,-45.99999738E-6,22.00000174E-3,,,,,-45.99999738E-6,-16.0000008E-3,
,,,-45.90000026E-6,22.00000174E-3,,,,,-45.90000026E-6,-14.0000004E-3,
,,,-45.79999950E-6,24.00000021E-3,,,,,-45.79999950E-6,-12.0000001E-3,
,,,-45.69999874E-6,26.00000054E-3,,,,,-45.69999874E-6,-8.000000380E-3,
,,,-45.59999797E-6,30.00000119E-3,,,,,-45.59999797E-6,-8.000000380E-3,
,,,-45.49999721E-6,30.00000119E-3,,,,,-45.49999721E-6,-8.000000380E-3,
,,,-45.40000009E-6,32.00000152E-3,,,,,-45.40000009E-6,-10.0000007E-3,
,,,-45.29999933E-6,34.00000185E-3,,,,,-45.29999933E-6,-10.0000007E-3,
,,,-45.19999857E-6,34.00000185E-3,,,,,-45.19999857E-6,2.0000001E-3,
,,,-45.09999781E-6,36.00000218E-3,,,,,-45.09999781E-6,-4.00000019E-3,
,,,-44.99999704E-6,42.00000316E-3,,,,,-44.99999704E-6,-2.0000001E-3,
,,,-44.89999992E-6,44.00000349E-3,,,,,-44.89999992E-6,2.0000001E-3,
,,,-44.79999916E-6,44.00000349E-3,,,,,-44.79999916E-6,4.00000019E-3,
,,,-44.69999840E-6,48.00000042E-3,,,,,-44.69999840E-6,6.00000005E-3,
,,,-44.59999764E-6,46.00000381E-3,,,,,-44.59999764E-6,6.00000005E-3,
,,,-44.49999687E-6,48.00000042E-3,,,,,-44.49999687E-6,6.00000005E-3,
,,,-44.39999975E-6,50.00000075E-3,,,,,-44.39999975E-6,14.0000004E-3,
,,,-44.29999899E-6,52.00000107E-3,,,,,-44.29999899E-6,10.0000007E-3,
,,,-44.19999823E-6,52.00000107E-3,,,,,-44.19999823E-6,20.0000014E-3,
,,,-44.09999747E-6,56.000001729E-3,,,,,-44.09999747E-6,20.0000014E-3,
,,,-44.00000034E-6,58.000002056E-3,,,,,-44.00000034E-6,18.0000011E-3,
,,,-43.89999958E-6,58.000002056E-3,,,,,-43.89999958E-6,24.00000021E-3,
,,,-43.79999882E-6,60.000002384E-3,,,,,-43.79999882E-6,24.00000021E-3,
,,,-43.69999806E-6,64.000003040E-3,,,,,-43.69999806E-6,24.00000021E-3,
,,,-43.59999730E-6,65.999999642E-3,,,,,-43.59999730E-6,28.00000086E-3,
,,,-43.50000017E-6,65.999999642E-3,,,,,-43.50000017E-6,28.00000086E-3,
,,,-43.39999941E-6,68.000003695E-3,,,,,-43.39999941E-6,32.00000152E-3,
,,,-43.29999865E-6,70.000000298E-3,,,,,-43.29999865E-6,34.00000185E-3,
,,,-43.19999789E-6,70.000000298E-3,,,,,-43.19999789E-6,36.00000218E-3,
,,,-43.09999713E-6,74.000000954E-3,,,,,-43.09999713E-6,36.00000218E-3,
,,,-43.00000001E-6,76.000005007E-3,,,,,-43.00000001E-6,38.00000250E-3,
,,,-42.89999924E-6,74.000000954E-3,,,,,-42.89999924E-6,40.00000283E-3,
,,,-42.79999848E-6,78.000001609E-3,,,,,-42.79999848E-6,42.00000316E-3,
,,,-42.69999772E-6,80.000005662E-3,,,,,-42.69999772E-6,42.00000316E-3,
,,,-42.59999696E-6,82.000002265E-3,,,,,-42.59999696E-6,44.00000349E-3,
,,,-42.49999984E-6,82.000002265E-3,,,,,-42.49999984E-6,44.00000349E-3,
,,,-42.39999907E-6,84.000006318E-3,,,,,-42.39999907E-6,48.00000042E-3,
,,,-42.29999831E-6,86.000002921E-3,,,,,-42.29999831E-6,52.00000107E-3,
,,,-42.19999755E-6,90.000003576E-3,,,,,-42.19999755E-6,54.00000140E-3,
,,,-42.09999679E-6,88.000006974E-3,,,,,-42.09999679E-6,52.00000107E-3,
,,,-41.99999967E-6,88.000006974E-3,,,,,-41.99999967E-6,56.000001729E-3,
,,,-41.89999891E-6,90.000003576E-3,,,,,-41.89999891E-6,56.000001729E-3,
,,,-41.79999814E-6,94.000004232E-3,,,,,-41.79999814E-6,54.00000140E-3,
,,,-41.69999738E-6,94.000004232E-3,,,,,-41.69999738E-6,58.000002056E-3,
,,,-41.60000026E-6,98.000004888E-3,,,,,-41.60000026E-6,60.000002384E-3,
,,,-41.49999950E-6,98.000004888E-3,,,,,-41.49999950E-6,62.000002712E-3,
,,,-41.39999874E-6,100.0000015E-3,,,,,-41.39999874E-6,58.000002056E-3,
,,,-41.29999797E-6,102.0000055E-3,,,,,-41.29999797E-6,65.999999642E-3,
,,,-41.19999721E-6,104.0000021E-3,,,,,-41.19999721E-6,65.999999642E-3,
,,,-41.10000009E-6,104.0000021E-3,,,,,-41.10000009E-6,70.000000298E-3,
,,,-40.99999933E-6,106.0000062E-3,,,,,-40.99999933E-6,74.000000954E-3,
,,,-40.89999857E-6,108.0000028E-3,,,,,-40.89999857E-6,76.000005007E-3,
,,,-40.79999781E-6,114.0000075E-3,,,,,-40.79999781E-6,76.000005007E-3,
,,,-40.69999704E-6,112.0000035E-3,,,,,-40.69999704E-6,78.000001609E-3,
,,,-40.59999992E-6,114.0000075E-3,,,,,-40.59999992E-6,80.000005662E-3,
,,,-40.49999916E-6,116.0000041E-3,,,,,-40.49999916E-6,80.000005662E-3,
,,,-40.39999840E-6,120.0000048E-3,,,,,-40.39999840E-6,82.000002265E-3,
,,,-40.29999764E-6,114.0000075E-3,,,,,-40.29999764E-6,80.000005662E-3,
,,,-40.19999687E-6,118.0000082E-3,,,,,-40.19999687E-6,84.000006318E-3,
,,,-40.09999975E-6,118.0000082E-3,,,,,-40.09999975E-6,88.000006974E-3,
,,,-39.99999899E-6,120.0000048E-3,,,,,-39.99999899E-6,88.000006974E-3,
,,,-39.89999823E-6,122.0000088E-3,,,,,-39.89999823E-6,88.000006974E-3,
,,,-39.79999747E-6,126.0000020E-3,,,,,-39.79999747E-6,92.000007629E-3,
,,,-39.70000034E-6,128.0000061E-3,,,,,-39.70000034E-6,94.000004232E-3,
,,,-39.59999958E-6,128.0000061E-3,,,,,-39.59999958E-6,94.000004232E-3,
,,,-39.49999882E-6,126.0000020E-3,,,,,-39.49999882E-6,98.000004888E-3,
,,,-39.39999806E-6,130.0000101E-3,,,,,-39.39999806E-6,96.000000834E-3,
,,,-39.29999730E-6,131.9999993E-3,,,,,-39.29999730E-6,100.0000015E-3,
,,,-39.20000017E-6,136.0000074E-3,,,,,-39.20000017E-6,100.0000015E-3,
,,,-39.09999941E-6,138.0000114E-3,,,,,-39.09999941E-6,104.0000021E-3,
,,,-38.99999865E-6,138.0000114E-3,,,,,-38.99999865E-6,104.0000021E-3,
,,,-38.89999789E-6,138.0000114E-3,,,,,-38.89999789E-6,102.0000055E-3,
,,,-38.79999713E-6,138.0000114E-3,,,,,-38.79999713E-6,108.0000028E-3,
,,,-38.70000000E-6,140.0000006E-3,,,,,-38.70000000E-6,108.0000028E-3,
,,,-38.59999924E-6,140.0000006E-3,,,,,-38.59999924E-6,110.0000069E-3,
,,,-38.49999848E-6,142.0000046E-3,,,,,-38.49999848E-6,112.0000035E-3,
,,,-38.39999772E-6,142.0000046E-3,,,,,-38.39999772E-6,112.0000035E-3,
,,,-38.29999696E-6,142.0000046E-3,,,,,-38.29999696E-6,112.0000035E-3,
,,,-38.19999984E-6,148.0000019E-3,,,,,-38.19999984E-6,116.0000041E-3,
,,,-38.09999907E-6,150.00000596E-3,,,,,-38.09999907E-6,116.0000041E-3,
,,,-37.99999831E-6,148.0000019E-3,,,,,-37.99999831E-6,120.0000048E-3,
,,,-37.89999755E-6,150.00000596E-3,,,,,-37.89999755E-6,118.0000082E-3,
,,,-37.79999679E-6,150.00000596E-3,,,,,-37.79999679E-6,120.0000048E-3,
,,,-37.69999967E-6,154.00001407E-3,,,,,-37.69999967E-6,122.0000088E-3,
,,,-37.59999890E-6,152.00001001E-3,,,,,-37.59999890E-6,120.0000048E-3,
,,,-37.49999814E-6,154.00001407E-3,,,,,-37.49999814E-6,126.0000020E-3,
,,,-37.39999738E-6,160.00001132E-3,,,,,-37.39999738E-6,126.0000020E-3,
,,,-37.30000026E-6,156.00000322E-3,,,,,-37.30000026E-6,130.0000101E-3,
,,,-37.19999950E-6,158.00000727E-3,,,,,-37.19999950E-6,128.0000061E-3,
,,,-37.09999874E-6,156.00000322E-3,,,,,-37.09999874E-6,130.0000101E-3,
,,,-36.99999797E-6,160.00001132E-3,,,,,-36.99999797E-6,131.9999993E-3,
,,,-36.89999721E-6,160.00001132E-3,,,,,-36.89999721E-6,136.0000074E-3,
,,,-36.80000009E-6,162.00000048E-3,,,,,-36.80000009E-6,131.9999993E-3,
,,,-36.69999933E-6,164.00000453E-3,,,,,-36.69999933E-6,134.0000033E-3,
,,,-36.59999857E-6,166.00000858E-3,,,,,-36.59999857E-6,138.0000114E-3,
,,,-36.49999780E-6,166.00000858E-3,,,,,-36.49999780E-6,136.0000074E-3,
,,,-36.39999704E-6,168.00001264E-3,,,,,-36.39999704E-6,138.0000114E-3,
,,,-36.29999992E-6,166.00000858E-3,,,,,-36.29999992E-6,142.0000046E-3,
,,,-36.19999916E-6,168.00001264E-3,,,,,-36.19999916E-6,144.0000087E-3,
,,,-36.09999840E-6,168.00001264E-3,,,,,-36.09999840E-6,144.0000087E-3,
,,,-35.99999764E-6,170.00000179E-3,,,,,-35.99999764E-6,144.0000087E-3,
,,,-35.89999687E-6,170.00000179E-3,,,,,-35.89999687E-6,146.0000128E-3,
,,,-35.79999975E-6,172.00000584E-3,,,,,-35.79999975E-6,148.0000019E-3,
,,,-35.69999899E-6,172.00000584E-3,,,,,-35.69999899E-6,148.0000019E-3,
,,,-35.59999823E-6,172.00000584E-3,,,,,-35.59999823E-6,150.00000596E-3,
,,,-35.49999747E-6,172.00000584E-3,,,,,-35.49999747E-6,150.00000596E-3,
,,,-35.40000034E-6,170.00000179E-3,,,,,-35.40000034E-6,150.00000596E-3,
,,,-35.29999958E-6,172.00000584E-3,,,,,-35.29999958E-6,154.00001407E-3,
,,,-35.19999882E-6,174.00000989E-3,,,,,-35.19999882E-6,152.00001001E-3,
,,,-35.09999806E-6,176.00001395E-3,,,,,-35.09999806E-6,156.00000322E-3,
,,,-34.99999730E-6,178.00000310E-3,,,,,-34.99999730E-6,152.00001001E-3,
,,,-34.90000017E-6,178.00000310E-3,,,,,-34.90000017E-6,154.00001407E-3,
,,,-34.79999941E-6,180.00000715E-3,,,,,-34.79999941E-6,158.00000727E-3,
,,,-34.69999865E-6,178.00000310E-3,,,,,-34.69999865E-6,158.00000727E-3,
,,,-34.59999789E-6,178.00000310E-3,,,,,-34.59999789E-6,158.00000727E-3,
,,,-34.49999713E-6,180.00000715E-3,,,,,-34.49999713E-6,158.00000727E-3,
,,,-34.40000000E-6,178.00000310E-3,,,,,-34.40000000E-6,160.00001132E-3,
,,,-34.29999924E-6,182.00001121E-3,,,,,-34.29999924E-6,164.00000453E-3,
