Week2/PartB-LowPass/data-43-H.csv

Record Length,2500,Points,-24.93999898E-3,-150.00000596E-3,,Record Length,2500,Points,-24.93999898E-3,-150.00000596E-3,
Sample Interval,19.9999995E-6,s,-24.91999976E-3,-150.00000596E-3,,Sample Interval,19.9999995E-6,s,-24.91999976E-3,-150.00000596E-3,
Trigger Point,1.2470000E3,Samples,-24.89999868E-3,-150.00000596E-3,,Trigger Point,1.2470000E3,Samples,-24.89999868E-3,-150.00000596E-3,
,,,-24.87999946E-3,-152.00001001E-3,,,,,-24.87999946E-3,-146.0000128E-3,
,,,-24.85999838E-3,-154.00001407E-3,,,,,-24.85999838E-3,-150.00000596E-3,
,,,-24.83999915E-3,-154.00001407E-3,,,,,-24.83999915E-3,-150.00000596E-3,
Source,CH1,,-24.81999807E-3,-154.00001407E-3,,Source,CH2,,-24.81999807E-3,-154.00001407E-3,
Vertical Units,Volts,,-24.79999885E-3,-154.00001407E-3,,Vertical Units,Volts,,-24.79999885E-3,-156.00000322E-3,
Vertical Scale,50.00000237E-3,,-24.77999963E-3,-156.00000322E-3,,Vertical Scale,50.00000237E-3,,-24.77999963E-3,-152.00001001E-3,
Vertical Offset,0,,-24.75999855E-3,-154.00001407E-3,,Vertical Offset,0,,-24.75999855E-3,-152.00001001E-3,
Horizontal Units,s,,-24.73999932E-3,-156.00000322E-3,,Horizontal Units,s,,-24.73999932E-3,-152.00001001E-3,
Horizontal Scale,4.99999987E-3,,-24.71999824E-3,-156.00000322E-3,,Horizontal Scale,4.99999987E-3,,-24.71999824E-3,-154.00001407E-3,
Pt Fmt,Y,,-24.69999902E-3,-156.00000322E-3,,Pt Fmt,Y,,-24.69999902E-3,-156.00000322E-3,
Yzero,80.000000000E-3,,-24.67999980E-3,-156.00000322E-3,,Yzero,0.0,,-24.67999980E-3,-156.00000322E-3,
Probe Atten,1.000000,,-24.65999871E-3,-158.00000727E-3,,Probe Atten,1.000000,,-24.65999871E-3,-156.00000322E-3,
,,,-24.63999949E-3,-158.00000727E-3,,,,,-24.63999949E-3,-156.00000322E-3,
Note,TDS 1001B - 10:58:31   14/05/2025,,-24.61999841E-3,-158.00000727E-3,,Note,TDS 1001B - 10:58:31   14/05/2025,,-24.61999841E-3,-156.00000322E-3,
,,,-24.59999919E-3,-158.00000727E-3,,,,,-24.59999919E-3,-158.00000727E-3,
,,,-24.57999811E-3,-158.00000727E-3,,,,,-24.57999811E-3,-160.00001132E-3,
,,,-24.55999888E-3,-160.00001132E-3,,,,,-24.55999888E-3,-158.00000727E-3,
,,,-24.53999966E-3,-160.00001132E-3,,,,,-24.53999966E-3,-160.00001132E-3,
,,,-24.51999858E-3,-160.00001132E-3,,,,,-24.51999858E-3,-160.00001132E-3,
,,,-24.49999936E-3,-160.00001132E-3,,,,,-24.49999936E-3,-160.00001132E-3,
,,,-24.47999828E-3,-162.00000048E-3,,,,,-24.47999828E-3,-160.00001132E-3,
,,,-24.45999905E-3,-162.00000048E-3,,,,,-24.45999905E-3,-160.00001132E-3,
,,,-24.43999983E-3,-160.00001132E-3,,,,,-24.43999983E-3,-162.00000048E-3,
,,,-24.41999875E-3,-162.00000048E-3,,,,,-24.41999875E-3,-162.00000048E-3,
,,,-24.39999953E-3,-162.00000048E-3,,,,,-24.39999953E-3,-158.00000727E-3,
,,,-24.37999845E-3,-162.00000048E-3,,,,,-24.37999845E-3,-162.00000048E-3,
,,,-24.35999922E-3,-164.00000453E-3,,,,,-24.35999922E-3,-162.00000048E-3,
,,,-24.33999814E-3,-164.00000453E-3,,,,,-24.33999814E-3,-162.00000048E-3,
,,,-24.31999892E-3,-164.00000453E-3,,,,,-24.31999892E-3,-164.00000453E-3,
,,,-24.29999970E-3,-164.00000453E-3,,,,,-24.29999970E-3,-164.00000453E-3,
,,,-24.27999862E-3,-166.00000858E-3,,,,,-24.27999862E-3,-164.00000453E-3,
,,,-24.25999939E-3,-164.00000453E-3,,,,,-24.25999939E-3,-166.00000858E-3,
,,,-24.23999831E-3,-166.00000858E-3,,,,,-24.23999831E-3,-166.00000858E-3,
,,,-24.21999909E-3,-166.00000858E-3,,,,,-24.21999909E-3,-164.00000453E-3,
,,,-24.19999987E-3,-166.00000858E-3,,,,,-24.19999987E-3,-162.00000048E-3,
,,,-24.17999879E-3,-168.00001264E-3,,,,,-24.17999879E-3,-168.00001264E-3,
,,,-24.15999956E-3,-168.00001264E-3,,,,,-24.15999956E-3,-162.00000048E-3,
,,,-24.13999848E-3,-168.00001264E-3,,,,,-24.13999848E-3,-166.00000858E-3,
,,,-24.11999926E-3,-168.00001264E-3,,,,,-24.11999926E-3,-168.00001264E-3,
,,,-24.09999818E-3,-168.00001264E-3,,,,,-24.09999818E-3,-170.00000179E-3,
,,,-24.07999896E-3,-168.00001264E-3,,,,,-24.07999896E-3,-170.00000179E-3,
,,,-24.05999973E-3,-170.00000179E-3,,,,,-24.05999973E-3,-168.00001264E-3,
,,,-24.03999865E-3,-170.00000179E-3,,,,,-24.03999865E-3,-168.00001264E-3,
,,,-24.01999943E-3,-170.00000179E-3,,,,,-24.01999943E-3,-168.00001264E-3,
,,,-23.99999835E-3,-172.00000584E-3,,,,,-23.99999835E-3,-170.00000179E-3,
,,,-23.97999913E-3,-170.00000179E-3,,,,,-23.97999913E-3,-168.00001264E-3,
,,,-23.95999990E-3,-170.00000179E-3,,,,,-23.95999990E-3,-168.00001264E-3,
,,,-23.93999882E-3,-172.00000584E-3,,,,,-23.93999882E-3,-170.00000179E-3,
,,,-23.91999960E-3,-172.00000584E-3,,,,,-23.91999960E-3,-170.00000179E-3,
,,,-23.89999852E-3,-172.00000584E-3,,,,,-23.89999852E-3,-170.00000179E-3,
,,,-23.87999929E-3,-172.00000584E-3,,,,,-23.87999929E-3,-170.00000179E-3,
,,,-23.85999821E-3,-172.00000584E-3,,,,,-23.85999821E-3,-172.00000584E-3,
,,,-23.83999899E-3,-172.00000584E-3,,,,,-23.83999899E-3,-174.00000989E-3,
,,,-23.81999977E-3,-174.00000989E-3,,,,,-23.81999977E-3,-172.00000584E-3,
,,,-23.79999869E-3,-174.00000989E-3,,,,,-23.79999869E-3,-172.00000584E-3,
,,,-23.77999946E-3,-174.00000989E-3,,,,,-23.77999946E-3,-172.00000584E-3,
,,,-23.75999838E-3,-174.00000989E-3,,,,,-23.75999838E-3,-172.00000584E-3,
,,,-23.73999916E-3,-174.00000989E-3,,,,,-23.73999916E-3,-174.00000989E-3,
,,,-23.71999994E-3,-174.00000989E-3,,,,,-23.71999994E-3,-172.00000584E-3,
,,,-23.69999886E-3,-176.00001395E-3,,,,,-23.69999886E-3,-172.00000584E-3,
,,,-23.67999963E-3,-176.00001395E-3,,,,,-23.67999963E-3,-176.00001395E-3,
,,,-23.65999855E-3,-176.00001395E-3,,,,,-23.65999855E-3,-176.00001395E-3,
,,,-23.63999933E-3,-176.00001395E-3,,,,,-23.63999933E-3,-172.00000584E-3,
,,,-23.61999825E-3,-176.00001395E-3,,,,,-23.61999825E-3,-172.00000584E-3,
,,,-23.59999903E-3,-176.00001395E-3,,,,,-23.59999903E-3,-174.00000989E-3,
,,,-23.57999980E-3,-178.00000310E-3,,,,,-23.57999980E-3,-176.00001395E-3,
,,,-23.55999872E-3,-178.00000310E-3,,,,,-23.55999872E-3,-176.00001395E-3,
,,,-23.53999950E-3,-176.00001395E-3,,,,,-23.53999950E-3,-176.00001395E-3,
,,,-23.51999842E-3,-176.00001395E-3,,,,,-23.51999842E-3,-174.00000989E-3,
,,,-23.49999920E-3,-178.00000310E-3,,,,,-23.49999920E-3,-176.00001395E-3,
,,,-23.47999811E-3,-176.00001395E-3,,,,,-23.47999811E-3,-176.00001395E-3,
,,,-23.45999889E-3,-178.00000310E-3,,,,,-23.45999889E-3,-174.00000989E-3,
,,,-23.43999967E-3,-178.00000310E-3,,,,,-23.43999967E-3,-176.00001395E-3,
,,,-23.41999859E-3,-178.00000310E-3,,,,,-23.41999859E-3,-176.00001395E-3,
,,,-23.39999937E-3,-178.00000310E-3,,,,,-23.39999937E-3,-174.00000989E-3,
,,,-23.37999828E-3,-178.00000310E-3,,,,,-23.37999828E-3,-178.00000310E-3,
,,,-23.35999906E-3,-176.00001395E-3,,,,,-23.35999906E-3,-176.00001395E-3,
,,,-23.33999984E-3,-178.00000310E-3,,,,,-23.33999984E-3,-180.00000715E-3,
,,,-23.31999876E-3,-180.00000715E-3,,,,,-23.31999876E-3,-176.00001395E-3,
,,,-23.29999954E-3,-180.00000715E-3,,,,,-23.29999954E-3,-174.00000989E-3,
,,,-23.27999845E-3,-178.00000310E-3,,,,,-23.27999845E-3,-180.00000715E-3,
,,,-23.25999923E-3,-178.00000310E-3,,,,,-23.25999923E-3,-176.00001395E-3,
,,,-23.23999815E-3,-180.00000715E-3,,,,,-23.23999815E-3,-180.00000715E-3,
,,,-23.21999893E-3,-180.00000715E-3,,,,,-23.21999893E-3,-176.00001395E-3,
,,,-23.19999970E-3,-178.00000310E-3,,,,,-23.19999970E-3,-178.00000310E-3,
,,,-23.17999862E-3,-180.00000715E-3,,,,,-23.17999862E-3,-180.00000715E-3,
,,,-23.15999940E-3,-180.00000715E-3,,,,,-23.15999940E-3,-178.00000310E-3,
,,,-23.13999832E-3,-180.00000715E-3,,,,,-23.13999832E-3,-178.00000310E-3,
,,,-23.11999910E-3,-180.00000715E-3,,,,,-23.11999910E-3,-178.00000310E-3,
,,,-23.09999987E-3,-180.00000715E-3,,,,,-23.09999987E-3,-180.00000715E-3,
,,,-23.07999879E-3,-180.00000715E-3,,,,,-23.07999879E-3,-176.00001395E-3,
,,,-23.05999957E-3,-180.00000715E-3,,,,,-23.05999957E-3,-180.00000715E-3,
,,,-23.03999849E-3,-180.00000715E-3,,,,,-23.03999849E-3,-180.00000715E-3,
,,,-23.01999927E-3,-180.00000715E-3,,,,,-23.01999927E-3,-176.00001395E-3,
,,,-22.99999818E-3,-182.00001121E-3,,,,,-22.99999818E-3,-178.00000310E-3,
,,,-22.97999896E-3,-182.00001121E-3,,,,,-22.97999896E-3,-180.00000715E-3,
,,,-22.95999974E-3,-182.00001121E-3,,,,,-22.95999974E-3,-182.00001121E-3,
,,,-22.93999866E-3,-182.00001121E-3,,,,,-22.93999866E-3,-180.00000715E-3,
,,,-22.91999944E-3,-182.00001121E-3,,,,,-22.91999944E-3,-182.00001121E-3,
,,,-22.89999835E-3,-182.00001121E-3,,,,,-22.89999835E-3,-180.00000715E-3,
,,,-22.87999913E-3,-182.00001121E-3,,,,,-22.87999913E-3,-182.00001121E-3,
,,,-22.85999991E-3,-182.00001121E-3,,,,,-22.85999991E-3,-182.00001121E-3,
,,,-22.83999883E-3,-180.00000715E-3,,,,,-22.83999883E-3,-180.00000715E-3,
,,,-22.81999961E-3,-182.00001121E-3,,,,,-22.81999961E-3,-182.00001121E-3,
,,,-22.79999852E-3,-182.00001121E-3,,,,,-22.79999852E-3,-182.00001121E-3,
,,,-22.77999930E-3,-182.00001121E-3,,,,,-22.77999930E-3,-184.00001526E-3,
,,,-22.75999822E-3,-182.00001121E-3,,,,,-22.75999822E-3,-180.00000715E-3,
,,,-22.73999900E-3,-182.00001121E-3,,,,,-22.73999900E-3,-180.00000715E-3,
,,,-22.71999978E-3,-182.00001121E-3,,,,,-22.71999978E-3,-180.00000715E-3,
,,,-22.69999869E-3,-182.00001121E-3,,,,,-22.69999869E-3,-182.00001121E-3,
,,,-22.67999947E-3,-182.00001121E-3,,,,,-22.67999947E-3,-182.00001121E-3,
,,,-22.65999839E-3,-182.00001121E-3,,,,,-22.65999839E-3,-182.00001121E-3,
,,,-22.63999917E-3,-182.00001121E-3,,,,,-22.63999917E-3,-180.00000715E-3,
,,,-22.61999995E-3,-182.00001121E-3,,,,,-22.61999995E-3,-180.00000715E-3,
,,,-22.59999886E-3,-182.00001121E-3,,,,,-22.59999886E-3,-182.00001121E-3,
,,,-22.57999964E-3,-182.00001121E-3,,,,,-22.57999964E-3,-184.00001526E-3,
,,,-22.55999856E-3,-180.00000715E-3,,,,,-22.55999856E-3,-182.00001121E-3,
,,,-22.53999934E-3,-180.00000715E-3,,,,,-22.53999934E-3,-180.00000715E-3,
,,,-22.51999825E-3,-180.00000715E-3,,,,,-22.51999825E-3,-178.00000310E-3,
,,,-22.49999903E-3,-180.00000715E-3,,,,,-22.49999903E-3,-180.00000715E-3,
,,,-22.47999981E-3,-180.00000715E-3,,,,,-22.47999981E-3,-180.00000715E-3,
,,,-22.45999873E-3,-180.00000715E-3,,,,,-22.45999873E-3,-180.00000715E-3,
,,,-22.43999951E-3,-180.00000715E-3,,,,,-22.43999951E-3,-182.00001121E-3,
,,,-22.41999842E-3,-180.00000715E-3,,,,,-22.41999842E-3,-176.00001395E-3,
,,,-22.39999920E-3,-180.00000715E-3,,,,,-22.39999920E-3,-176.00001395E-3,
,,,-22.37999812E-3,-180.00000715E-3,,,,,-22.37999812E-3,-178.00000310E-3,
,,,-22.35999890E-3,-180.00000715E-3,,,,,-22.35999890E-3,-180.00000715E-3,
,,,-22.33999968E-3,-180.00000715E-3,,,,,-22.33999968E-3,-178.00000310E-3,
,,,-22.31999859E-3,-178.00000310E-3,,,,,-22.31999859E-3,-176.00001395E-3,
,,,-22.29999937E-3,-180.00000715E-3,,,,,-22.29999937E-3,-178.00000310E-3,
,,,-22.27999829E-3,-178.00000310E-3,,,,,-22.27999829E-3,-178.00000310E-3,
,,,-22.25999907E-3,-178.00000310E-3,,,,,-22.25999907E-3,-176.00001395E-3,
,,,-22.23999985E-3,-178.00000310E-3,,,,,-22.23999985E-3,-174.00000989E-3,
,,,-22.21999876E-3,-178.00000310E-3,,,,,-22.21999876E-3,-176.00001395E-3,
,,,-22.19999954E-3,-178.00000310E-3,,,,,-22.19999954E-3,-176.00001395E-3,
,,,-22.17999846E-3,-178.00000310E-3,,,,,-22.17999846E-3,-178.00000310E-3,
,,,-22.15999924E-3,-178.00000310E-3,,,,,-22.15999924E-3,-178.00000310E-3,
,,,-22.13999815E-3,-176.00001395E-3,,,,,-22.13999815E-3,-176.00001395E-3,
,,,-22.11999893E-3,-178.00000310E-3,,,,,-22.11999893E-3,-174.00000989E-3,
,,,-22.09999971E-3,-176.00001395E-3,,,,,-22.09999971E-3,-174.00000989E-3,
,,,-22.07999863E-3,-178.00000310E-3,,,,,-22.07999863E-3,-178.00000310E-3,
,,,-22.05999941E-3,-178.00000310E-3,,,,,-22.05999941E-3,-178.00000310E-3,
,,,-22.03999832E-3,-176.00001395E-3,,,,,-22.03999832E-3,-172.00000584E-3,
,,,-22.01999910E-3,-176.00001395E-3,,,,,-22.01999910E-3,-178.00000310E-3,
,,,-21.99999988E-3,-176.00001395E-3,,,,,-21.99999988E-3,-174.00000989E-3,
,,,-21.97999880E-3,-176.00001395E-3,,,,,-21.97999880E-3,-172.00000584E-3,
,,,-21.95999958E-3,-176.00001395E-3,,,,,-21.95999958E-3,-172.00000584E-3,
,,,-21.93999849E-3,-176.00001395E-3,,,,,-21.93999849E-3,-176.00001395E-3,
,,,-21.91999927E-3,-174.00000989E-3,,,,,-21.91999927E-3,-172.00000584E-3,
,,,-21.89999819E-3,-176.00001395E-3,,,,,-21.89999819E-3,-172.00000584E-3,
,,,-21.87999897E-3,-174.00000989E-3,,,,,-21.87999897E-3,-176.00001395E-3,
,,,-21.85999975E-3,-174.00000989E-3,,,,,-21.85999975E-3,-174.00000989E-3,
,,,-21.83999866E-3,-174.00000989E-3,,,,,-21.83999866E-3,-172.00000584E-3,
,,,-21.81999944E-3,-174.00000989E-3,,,,,-21.81999944E-3,-172.00000584E-3,
,,,-21.79999836E-3,-174.00000989E-3,,,,,-21.79999836E-3,-174.00000989E-3,
,,,-21.77999914E-3,-174.00000989E-3,,,,,-21.77999914E-3,-174.00000989E-3,
,,,-21.75999992E-3,-174.00000989E-3,,,,,-21.75999992E-3,-172.00000584E-3,
,,,-21.73999883E-3,-172.00000584E-3,,,,,-21.73999883E-3,-172.00000584E-3,
,,,-21.71999961E-3,-174.00000989E-3,,,,,-21.71999961E-3,-170.00000179E-3,
,,,-21.69999853E-3,-172.00000584E-3,,,,,-21.69999853E-3,-172.00000584E-3,
,,,-21.67999931E-3,-172.00000584E-3,,,,,-21.67999931E-3,-172.00000584E-3,
,,,-21.65999822E-3,-172.00000584E-3,,,,,-21.65999822E-3,-172.00000584E-3,
,,,-21.63999900E-3,-172.00000584E-3,,,,,-21.63999900E-3,-170.00000179E-3,
,,,-21.61999978E-3,-172.00000584E-3,,,,,-21.61999978E-3,-172.00000584E-3,
,,,-21.59999870E-3,-172.00000584E-3,,,,,-21.59999870E-3,-170.00000179E-3,
,,,-21.57999948E-3,-172.00000584E-3,,,,,-21.57999948E-3,-164.00000453E-3,
,,,-21.55999839E-3,-170.00000179E-3,,,,,-21.55999839E-3,-170.00000179E-3,
,,,-21.53999917E-3,-170.00000179E-3,,,,,-21.53999917E-3,-170.00000179E-3,
,,,-21.51999995E-3,-168.00001264E-3,,,,,-21.51999995E-3,-166.00000858E-3,
,,,-21.49999887E-3,-170.00000179E-3,,,,,-21.49999887E-3,-170.00000179E-3,
,,,-21.47999965E-3,-170.00000179E-3,,,,,-21.47999965E-3,-170.00000179E-3,
,,,-21.45999856E-3,-170.00000179E-3,,,,,-21.45999856E-3,-166.00000858E-3,
,,,-21.43999934E-3,-168.00001264E-3,,,,,-21.43999934E-3,-168.00001264E-3,
,,,-21.41999826E-3,-168.00001264E-3,,,,,-21.41999826E-3,-168.00001264E-3,
,,,-21.39999904E-3,-168.00001264E-3,,,,,-21.39999904E-3,-166.00000858E-3,
,,,-21.37999982E-3,-166.00000858E-3,,,,,-21.37999982E-3,-168.00001264E-3,
,,,-21.35999873E-3,-164.00000453E-3,,,,,-21.35999873E-3,-166.00000858E-3,
,,,-21.33999951E-3,-166.00000858E-3,,,,,-21.33999951E-3,-162.00000048E-3,
,,,-21.31999843E-3,-166.00000858E-3,,,,,-21.31999843E-3,-162.00000048E-3,
,,,-21.29999921E-3,-166.00000858E-3,,,,,-21.29999921E-3,-164.00000453E-3,
,,,-21.27999999E-3,-164.00000453E-3,,,,,-21.27999999E-3,-164.00000453E-3,
,,,-21.25999890E-3,-164.00000453E-3,,,,,-21.25999890E-3,-164.00000453E-3,
,,,-21.23999968E-3,-162.00000048E-3,,,,,-21.23999968E-3,-162.00000048E-3,
,,,-21.21999860E-3,-164.00000453E-3,,,,,-21.21999860E-3,-160.00001132E-3,
,,,-21.19999938E-3,-164.00000453E-3,,,,,-21.19999938E-3,-164.00000453E-3,
,,,-21.17999829E-3,-164.00000453E-3,,,,,-21.17999829E-3,-160.00001132E-3,
,,,-21.15999907E-3,-164.00000453E-3,,,,,-21.15999907E-3,-160.00001132E-3,
,,,-21.13999985E-3,-162.00000048E-3,,,,,-21.13999985E-3,-160.00001132E-3,
,,,-21.11999877E-3,-162.00000048E-3,,,,,-21.11999877E-3,-158.00000727E-3,
,,,-21.09999955E-3,-160.00001132E-3,,,,,-21.09999955E-3,-160.00001132E-3,
,,,-21.07999846E-3,-160.00001132E-3,,,,,-21.07999846E-3,-160.00001132E-3,
,,,-21.05999924E-3,-160.00001132E-3,,,,,-21.05999924E-3,-158.00000727E-3,
,,,-21.03999816E-3,-160.00001132E-3,,,,,-21.03999816E-3,-160.00001132E-3,
,,,-21.01999894E-3,-160.00001132E-3,,,,,-21.01999894E-3,-158.00000727E-3,
,,,-20.99999972E-3,-160.00001132E-3,,,,,-20.99999972E-3,-158.00000727E-3,
,,,-20.97999863E-3,-158.00000727E-3,,,,,-20.97999863E-3,-158.00000727E-3,
,,,-20.95999941E-3,-160.00001132E-3,,,,,-20.95999941E-3,-160.00001132E-3,
,,,-20.93999833E-3,-158.00000727E-3,,,,,-20.93999833E-3,-158.00000727E-3,
,,,-20.91999911E-3,-158.00000727E-3,,,,,-20.91999911E-3,-158.00000727E-3,
,,,-20.89999989E-3,-156.00000322E-3,,,,,-20.89999989E-3,-154.00001407E-3,
,,,-20.87999880E-3,-156.00000322E-3,,,,,-20.87999880E-3,-156.00000322E-3,
,,,-20.85999958E-3,-156.00000322E-3,,,,,-20.85999958E-3,-158.00000727E-3,
,,,-20.83999850E-3,-156.00000322E-3,,,,,-20.83999850E-3,-156.00000322E-3,
,,,-20.81999928E-3,-156.00000322E-3,,,,,-20.81999928E-3,-156.00000322E-3,
,,,-20.79999819E-3,-156.00000322E-3,,,,,-20.79999819E-3,-152.00001001E-3,
,,,-20.77999897E-3,-154.00001407E-3,,,,,-20.77999897E-3,-154.00001407E-3,
,,,-20.75999975E-3,-154.00001407E-3,,,,,-20.75999975E-3,-150.00000596E-3,
,,,-20.73999867E-3,-152.00001001E-3,,,,,-20.73999867E-3,-152.00001001E-3,
,,,-20.71999945E-3,-154.00001407E-3,,,,,-20.71999945E-3,-152.00001001E-3,
,,,-20.69999836E-3,-152.00001001E-3,,,,,-20.69999836E-3,-150.00000596E-3,
,,,-20.67999914E-3,-152.00001001E-3,,,,,-20.67999914E-3,-150.00000596E-3,
,,,-20.65999992E-3,-152.00001001E-3,,,,,-20.65999992E-3,-148.0000019E-3,
,,,-20.63999884E-3,-150.00000596E-3,,,,,-20.63999884E-3,-150.00000596E-3,
,,,-20.61999962E-3,-150.00000596E-3,,,,,-20.61999962E-3,-150.00000596E-3,
,,,-20.59999853E-3,-150.00000596E-3,,,,,-20.59999853E-3,-148.0000019E-3,
,,,-20.57999931E-3,-148.0000019E-3,,,,,-20.57999931E-3,-148.0000019E-3,
,,,-20.55999823E-3,-148.0000019E-3,,,,,-20.55999823E-3,-146.0000128E-3,
,,,-20.53999901E-3,-148.0000019E-3,,,,,-20.53999901E-3,-146.0000128E-3,
,,,-20.51999979E-3,-146.0000128E-3,,,,,-20.51999979E-3,-144.0000087E-3,
,,,-20.49999870E-3,-148.0000019E-3,,,,,-20.49999870E-3,-146.0000128E-3,
,,,-20.47999948E-3,-144.0000087E-3,,,,,-20.47999948E-3,-144.0000087E-3,
,,,-20.45999840E-3,-146.0000128E-3,,,,,-20.45999840E-3,-144.0000087E-3,
,,,-20.43999918E-3,-144.0000087E-3,,,,,-20.43999918E-3,-140.0000006E-3,
,,,-20.41999996E-3,-142.0000046E-3,,,,,-20.41999996E-3,-142.0000046E-3,
,,,-20.39999887E-3,-142.0000046E-3,,,,,-20.39999887E-3,-142.0000046E-3,
,,,-20.37999965E-3,-142.0000046E-3,,,,,-20.37999965E-3,-140.0000006E-3,
,,,-20.35999857E-3,-142.0000046E-3,,,,,-20.35999857E-3,-142.0000046E-3,
,,,-20.33999935E-3,-140.0000006E-3,,,,,-20.33999935E-3,-138.0000114E-3,
,,,-20.31999826E-3,-140.0000006E-3,,,,,-20.31999826E-3,-138.0000114E-3,
,,,-20.29999904E-3,-140.0000006E-3,,,,,-20.29999904E-3,-140.0000006E-3,
,,,-20.27999982E-3,-140.0000006E-3,,,,,-20.27999982E-3,-138.0000114E-3,
,,,-20.25999874E-3,-140.0000006E-3,,,,,-20.25999874E-3,-136.0000074E-3,
,,,-20.23999952E-3,-140.0000006E-3,,,,,-20.23999952E-3,-138.0000114E-3,
,,,-20.21999843E-3,-136.0000074E-3,,,,,-20.21999843E-3,-136.0000074E-3,
,,,-20.19999921E-3,-138.0000114E-3,,,,,-20.19999921E-3,-134.0000033E-3,
,,,-20.17999999E-3,-136.0000074E-3,,,,,-20.17999999E-3,-134.0000033E-3,
,,,-20.15999891E-3,-134.0000033E-3,,,,,-20.15999891E-3,-136.0000074E-3,
,,,-20.13999969E-3,-134.0000033E-3,,,,,-20.13999969E-3,-134.0000033E-3,
,,,-20.11999860E-3,-134.0000033E-3,,,,,-20.11999860E-3,-131.9999993E-3,
,,,-20.09999938E-3,-134.0000033E-3,,,,,-20.09999938E-3,-134.0000033E-3,
,,,-20.0799983E-3,-131.9999993E-3,,,,,-20.0799983E-3,-131.9999993E-3,
,,,-20.0599991E-3,-131.9999993E-3,,,,,-20.0599991E-3,-130.0000101E-3,
,,,-20.0399999E-3,-131.9999993E-3,,,,,-20.0399999E-3,-134.0000033E-3,
,,,-20.0199988E-3,-130.0000101E-3,,,,,-20.0199988E-3,-130.0000101E-3,
,,,-19.9999996E-3,-130.0000101E-3,,,,,-19.9999996E-3,-130.0000101E-3,
,,,-19.9799985E-3,-128.0000061E-3,,,,,-19.9799985E-3,-124.0000054E-3,
,,,-19.9599992E-3,-128.0000061E-3,,,,,-19.9599992E-3,-128.0000061E-3,
,,,-19.9400000E-3,-128.0000061E-3,,,,,-19.9400000E-3,-128.0000061E-3,
,,,-19.9199989E-3,-128.0000061E-3,,,,,-19.9199989E-3,-126.0000020E-3,
,,,-19.8999997E-3,-126.0000020E-3,,,,,-19.8999997E-3,-124.0000054E-3,
,,,-19.8799986E-3,-124.0000054E-3,,,,,-19.8799986E-3,-126.0000020E-3,
,,,-19.8599994E-3,-124.0000054E-3,,,,,-19.8599994E-3,-124.0000054E-3,
,,,-19.8399983E-3,-124.0000054E-3,,,,,-19.8399983E-3,-122.0000088E-3,
,,,-19.8199991E-3,-122.0000088E-3,,,,,-19.8199991E-3,-122.0000088E-3,
,,,-19.7999999E-3,-124.0000054E-3,,,,,-19.7999999E-3,-120.0000048E-3,
,,,-19.7799988E-3,-122.0000088E-3,,,,,-19.7799988E-3,-122.0000088E-3,
,,,-19.7599996E-3,-120.0000048E-3,,,,,-19.7599996E-3,-120.0000048E-3,
,,,-19.7399985E-3,-120.0000048E-3,,,,,-19.7399985E-3,-120.0000048E-3,
,,,-19.7199993E-3,-120.0000048E-3,,,,,-19.7199993E-3,-116.0000041E-3,
,,,-19.6999982E-3,-118.0000082E-3,,,,,-19.6999982E-3,-118.0000082E-3,
,,,-19.6799990E-3,-118.0000082E-3,,,,,-19.6799990E-3,-114.0000075E-3,
