Week2/PartB-LowPass/data-10-H.csv

Record Length,2500,Points,-124.9000058E-3,65.999999642E-3,,Record Length,2500,Points,-124.9000058E-3,65.999999642E-3,
Sample Interval,99.999997474E-6,s,-124.8000041E-3,64.000003040E-3,,Sample Interval,99.999997474E-6,s,-124.8000041E-3,64.000003040E-3,
Trigger Point,1.2490001E3,Samples,-124.7000024E-3,64.000003040E-3,,Trigger Point,1.2490001E3,Samples,-124.7000024E-3,64.000003040E-3,
,,,-124.6000081E-3,64.000003040E-3,,,,,-124.6000081E-3,62.000002712E-3,
,,,-124.5000064E-3,62.000002712E-3,,,,,-124.5000064E-3,62.000002712E-3,
,,,-124.4000047E-3,62.000002712E-3,,,,,-124.4000047E-3,58.000002056E-3,
Source,CH1,,-124.3000031E-3,60.000002384E-3,,Source,CH2,,-124.3000031E-3,58.000002056E-3,
Vertical Units,Volts,,-124.2000088E-3,58.000002056E-3,,Vertical Units,Volts,,-124.2000088E-3,58.000002056E-3,
Vertical Scale,50.00000237E-3,,-124.1000071E-3,56.000001729E-3,,Vertical Scale,50.00000237E-3,,-124.1000071E-3,58.000002056E-3,
Vertical Offset,0,,-124.0000054E-3,56.000001729E-3,,Vertical Offset,0,,-124.0000054E-3,56.000001729E-3,
Horizontal Units,s,,-123.9000037E-3,56.000001729E-3,,Horizontal Units,s,,-123.9000037E-3,54.00000140E-3,
Horizontal Scale,24.99999937E-3,,-123.8000095E-3,54.00000140E-3,,Horizontal Scale,24.99999937E-3,,-123.8000095E-3,50.00000075E-3,
Pt Fmt,Y,,-123.7000078E-3,54.00000140E-3,,Pt Fmt,Y,,-123.7000078E-3,50.00000075E-3,
Yzero,80.000000000E-3,,-123.6000061E-3,52.00000107E-3,,Yzero,0.0,,-123.6000061E-3,50.00000075E-3,
Probe Atten,1.000000,,-123.5000044E-3,52.00000107E-3,,Probe Atten,1.000000,,-123.5000044E-3,48.00000042E-3,
,,,-123.4000027E-3,50.00000075E-3,,,,,-123.4000027E-3,48.00000042E-3,
Note,TDS 1001B - 10:59:29   14/05/2025,,-123.3000085E-3,48.00000042E-3,,Note,TDS 1001B - 10:59:29   14/05/2025,,-123.3000085E-3,48.00000042E-3,
,,,-123.2000068E-3,48.00000042E-3,,,,,-123.2000068E-3,48.00000042E-3,
,,,-123.1000051E-3,46.00000381E-3,,,,,-123.1000051E-3,46.00000381E-3,
,,,-123.0000034E-3,44.00000349E-3,,,,,-123.0000034E-3,42.00000316E-3,
,,,-122.9000092E-3,46.00000381E-3,,,,,-122.9000092E-3,40.00000283E-3,
,,,-122.8000075E-3,42.00000316E-3,,,,,-122.8000075E-3,42.00000316E-3,
,,,-122.7000058E-3,40.00000283E-3,,,,,-122.7000058E-3,40.00000283E-3,
,,,-122.6000041E-3,40.00000283E-3,,,,,-122.6000041E-3,40.00000283E-3,
,,,-122.5000024E-3,38.00000250E-3,,,,,-122.5000024E-3,36.00000218E-3,
,,,-122.4000081E-3,38.00000250E-3,,,,,-122.4000081E-3,36.00000218E-3,
,,,-122.3000064E-3,36.00000218E-3,,,,,-122.3000064E-3,32.00000152E-3,
,,,-122.2000048E-3,36.00000218E-3,,,,,-122.2000048E-3,34.00000185E-3,
,,,-122.1000031E-3,34.00000185E-3,,,,,-122.1000031E-3,32.00000152E-3,
,,,-122.0000088E-3,34.00000185E-3,,,,,-122.0000088E-3,30.00000119E-3,
,,,-121.9000071E-3,32.00000152E-3,,,,,-121.9000071E-3,28.00000086E-3,
,,,-121.8000054E-3,32.00000152E-3,,,,,-121.8000054E-3,28.00000086E-3,
,,,-121.7000037E-3,32.00000152E-3,,,,,-121.7000037E-3,26.00000054E-3,
,,,-121.6000095E-3,28.00000086E-3,,,,,-121.6000095E-3,28.00000086E-3,
,,,-121.5000078E-3,28.00000086E-3,,,,,-121.5000078E-3,24.00000021E-3,
,,,-121.4000061E-3,26.00000054E-3,,,,,-121.4000061E-3,26.00000054E-3,
,,,-121.3000044E-3,24.00000021E-3,,,,,-121.3000044E-3,20.0000014E-3,
,,,-121.2000027E-3,24.00000021E-3,,,,,-121.2000027E-3,20.0000014E-3,
,,,-121.1000085E-3,24.00000021E-3,,,,,-121.1000085E-3,22.00000174E-3,
,,,-121.0000068E-3,20.0000014E-3,,,,,-121.0000068E-3,20.0000014E-3,
,,,-120.9000051E-3,20.0000014E-3,,,,,-120.9000051E-3,18.0000011E-3,
,,,-120.8000034E-3,20.0000014E-3,,,,,-120.8000034E-3,18.0000011E-3,
,,,-120.7000092E-3,16.0000008E-3,,,,,-120.7000092E-3,16.0000008E-3,
,,,-120.6000075E-3,16.0000008E-3,,,,,-120.6000075E-3,18.0000011E-3,
,,,-120.5000058E-3,16.0000008E-3,,,,,-120.5000058E-3,14.0000004E-3,
,,,-120.4000041E-3,14.0000004E-3,,,,,-120.4000041E-3,8.000000380E-3,
,,,-120.3000024E-3,12.0000001E-3,,,,,-120.3000024E-3,10.0000007E-3,
,,,-120.2000082E-3,12.0000001E-3,,,,,-120.2000082E-3,10.0000007E-3,
,,,-120.1000065E-3,10.0000007E-3,,,,,-120.1000065E-3,6.00000005E-3,
,,,-120.0000048E-3,10.0000007E-3,,,,,-120.0000048E-3,8.000000380E-3,
,,,-119.9000031E-3,6.00000005E-3,,,,,-119.9000031E-3,6.00000005E-3,
,,,-119.8000088E-3,6.00000005E-3,,,,,-119.8000088E-3,4.00000019E-3,
,,,-119.7000071E-3,4.00000019E-3,,,,,-119.7000071E-3,2.0000001E-3,
,,,-119.6000054E-3,2.0000001E-3,,,,,-119.6000054E-3,0.0,
,,,-119.5000038E-3,2.0000001E-3,,,,,-119.5000038E-3,-2.0000001E-3,
,,,-119.4000095E-3,2.0000001E-3,,,,,-119.4000095E-3,4.00000019E-3,
,,,-119.3000078E-3,0.0,,,,,-119.3000078E-3,0.0,
,,,-119.2000061E-3,-2.0000001E-3,,,,,-119.2000061E-3,-4.00000019E-3,
,,,-119.1000044E-3,-2.0000001E-3,,,,,-119.1000044E-3,-4.00000019E-3,
,,,-119.0000027E-3,-2.0000001E-3,,,,,-119.0000027E-3,-4.00000019E-3,
,,,-118.9000085E-3,-4.00000019E-3,,,,,-118.9000085E-3,-8.000000380E-3,
,,,-118.8000068E-3,-8.000000380E-3,,,,,-118.8000068E-3,-8.000000380E-3,
,,,-118.7000051E-3,-8.000000380E-3,,,,,-118.7000051E-3,-12.0000001E-3,
,,,-118.6000034E-3,-10.0000007E-3,,,,,-118.6000034E-3,-8.000000380E-3,
,,,-118.5000092E-3,-10.0000007E-3,,,,,-118.5000092E-3,-12.0000001E-3,
,,,-118.4000075E-3,-12.0000001E-3,,,,,-118.4000075E-3,-14.0000004E-3,
,,,-118.3000058E-3,-12.0000001E-3,,,,,-118.3000058E-3,-14.0000004E-3,
,,,-118.2000041E-3,-14.0000004E-3,,,,,-118.2000041E-3,-14.0000004E-3,
,,,-118.1000024E-3,-16.0000008E-3,,,,,-118.1000024E-3,-16.0000008E-3,
,,,-118.0000082E-3,-16.0000008E-3,,,,,-118.0000082E-3,-16.0000008E-3,
,,,-117.9000065E-3,-18.0000011E-3,,,,,-117.9000065E-3,-22.00000174E-3,
,,,-117.8000048E-3,-20.0000014E-3,,,,,-117.8000048E-3,-18.0000011E-3,
,,,-117.7000031E-3,-20.0000014E-3,,,,,-117.7000031E-3,-20.0000014E-3,
,,,-117.6000088E-3,-20.0000014E-3,,,,,-117.6000088E-3,-26.00000054E-3,
,,,-117.5000072E-3,-22.00000174E-3,,,,,-117.5000072E-3,-26.00000054E-3,
,,,-117.4000055E-3,-24.00000021E-3,,,,,-117.4000055E-3,-26.00000054E-3,
,,,-117.3000038E-3,-26.00000054E-3,,,,,-117.3000038E-3,-26.00000054E-3,
,,,-117.2000095E-3,-26.00000054E-3,,,,,-117.2000095E-3,-26.00000054E-3,
,,,-117.1000078E-3,-28.00000086E-3,,,,,-117.1000078E-3,-28.00000086E-3,
,,,-117.0000061E-3,-30.00000119E-3,,,,,-117.0000061E-3,-30.00000119E-3,
,,,-116.9000044E-3,-30.00000119E-3,,,,,-116.9000044E-3,-28.00000086E-3,
,,,-116.8000028E-3,-32.00000152E-3,,,,,-116.8000028E-3,-34.00000185E-3,
,,,-116.7000085E-3,-32.00000152E-3,,,,,-116.7000085E-3,-36.00000218E-3,
,,,-116.6000068E-3,-34.00000185E-3,,,,,-116.6000068E-3,-36.00000218E-3,
,,,-116.5000051E-3,-34.00000185E-3,,,,,-116.5000051E-3,-36.00000218E-3,
,,,-116.4000034E-3,-36.00000218E-3,,,,,-116.4000034E-3,-36.00000218E-3,
,,,-116.3000092E-3,-36.00000218E-3,,,,,-116.3000092E-3,-38.00000250E-3,
,,,-116.2000075E-3,-38.00000250E-3,,,,,-116.2000075E-3,-36.00000218E-3,
,,,-116.1000058E-3,-40.00000283E-3,,,,,-116.1000058E-3,-40.00000283E-3,
,,,-116.0000041E-3,-42.00000316E-3,,,,,-116.0000041E-3,-42.00000316E-3,
,,,-115.9000024E-3,-40.00000283E-3,,,,,-115.9000024E-3,-42.00000316E-3,
,,,-115.8000082E-3,-42.00000316E-3,,,,,-115.8000082E-3,-44.00000349E-3,
,,,-115.7000065E-3,-44.00000349E-3,,,,,-115.7000065E-3,-46.00000381E-3,
,,,-115.6000048E-3,-44.00000349E-3,,,,,-115.6000048E-3,-46.00000381E-3,
,,,-115.5000031E-3,-46.00000381E-3,,,,,-115.5000031E-3,-50.00000075E-3,
,,,-115.4000089E-3,-48.00000042E-3,,,,,-115.4000089E-3,-48.00000042E-3,
,,,-115.3000072E-3,-48.00000042E-3,,,,,-115.3000072E-3,-50.00000075E-3,
,,,-115.2000055E-3,-50.00000075E-3,,,,,-115.2000055E-3,-52.00000107E-3,
,,,-115.1000038E-3,-50.00000075E-3,,,,,-115.1000038E-3,-52.00000107E-3,
,,,-115.0000095E-3,-52.00000107E-3,,,,,-115.0000095E-3,-54.00000140E-3,
,,,-114.9000078E-3,-52.00000107E-3,,,,,-114.9000078E-3,-56.000001729E-3,
,,,-114.8000062E-3,-54.00000140E-3,,,,,-114.8000062E-3,-56.000001729E-3,
,,,-114.7000045E-3,-54.00000140E-3,,,,,-114.7000045E-3,-58.000002056E-3,
,,,-114.6000028E-3,-58.000002056E-3,,,,,-114.6000028E-3,-58.000002056E-3,
,,,-114.5000085E-3,-58.000002056E-3,,,,,-114.5000085E-3,-58.000002056E-3,
,,,-114.4000068E-3,-58.000002056E-3,,,,,-114.4000068E-3,-62.000002712E-3,
,,,-114.3000051E-3,-60.000002384E-3,,,,,-114.3000051E-3,-60.000002384E-3,
,,,-114.2000034E-3,-62.000002712E-3,,,,,-114.2000034E-3,-64.000003040E-3,
,,,-114.1000092E-3,-64.000003040E-3,,,,,-114.1000092E-3,-62.000002712E-3,
,,,-114.0000075E-3,-64.000003040E-3,,,,,-114.0000075E-3,-64.000003040E-3,
,,,-113.9000058E-3,-65.999999642E-3,,,,,-113.9000058E-3,-64.000003040E-3,
,,,-113.8000041E-3,-65.999999642E-3,,,,,-113.8000041E-3,-65.999999642E-3,
,,,-113.7000024E-3,-65.999999642E-3,,,,,-113.7000024E-3,-65.999999642E-3,
,,,-113.6000082E-3,-68.000003695E-3,,,,,-113.6000082E-3,-65.999999642E-3,
,,,-113.5000065E-3,-68.000003695E-3,,,,,-113.5000065E-3,-70.000000298E-3,
,,,-113.4000048E-3,-72.000004351E-3,,,,,-113.4000048E-3,-74.000000954E-3,
,,,-113.3000031E-3,-72.000004351E-3,,,,,-113.3000031E-3,-72.000004351E-3,
,,,-113.2000089E-3,-74.000000954E-3,,,,,-113.2000089E-3,-76.000005007E-3,
,,,-113.1000072E-3,-74.000000954E-3,,,,,-113.1000072E-3,-74.000000954E-3,
,,,-113.0000055E-3,-74.000000954E-3,,,,,-113.0000055E-3,-78.000001609E-3,
,,,-112.9000038E-3,-76.000005007E-3,,,,,-112.9000038E-3,-78.000001609E-3,
,,,-112.8000095E-3,-76.000005007E-3,,,,,-112.8000095E-3,-76.000005007E-3,
,,,-112.7000079E-3,-78.000001609E-3,,,,,-112.7000079E-3,-78.000001609E-3,
,,,-112.6000062E-3,-80.000005662E-3,,,,,-112.6000062E-3,-78.000001609E-3,
,,,-112.5000045E-3,-82.000002265E-3,,,,,-112.5000045E-3,-82.000002265E-3,
,,,-112.4000028E-3,-82.000002265E-3,,,,,-112.4000028E-3,-80.000005662E-3,
,,,-112.3000085E-3,-82.000002265E-3,,,,,-112.3000085E-3,-84.000006318E-3,
,,,-112.2000068E-3,-84.000006318E-3,,,,,-112.2000068E-3,-86.000002921E-3,
,,,-112.1000051E-3,-84.000006318E-3,,,,,-112.1000051E-3,-82.000002265E-3,
,,,-112.0000035E-3,-86.000002921E-3,,,,,-112.0000035E-3,-86.000002921E-3,
,,,-111.9000092E-3,-86.000002921E-3,,,,,-111.9000092E-3,-86.000002921E-3,
,,,-111.8000075E-3,-88.000006974E-3,,,,,-111.8000075E-3,-88.000006974E-3,
,,,-111.7000058E-3,-88.000006974E-3,,,,,-111.7000058E-3,-88.000006974E-3,
,,,-111.6000041E-3,-92.000007629E-3,,,,,-111.6000041E-3,-92.000007629E-3,
,,,-111.5000024E-3,-90.000003576E-3,,,,,-111.5000024E-3,-92.000007629E-3,
,,,-111.4000082E-3,-92.000007629E-3,,,,,-111.4000082E-3,-94.000004232E-3,
,,,-111.3000065E-3,-94.000004232E-3,,,,,-111.3000065E-3,-92.000007629E-3,
,,,-111.2000048E-3,-92.000007629E-3,,,,,-111.2000048E-3,-92.000007629E-3,
,,,-111.1000031E-3,-96.000000834E-3,,,,,-111.1000031E-3,-92.000007629E-3,
,,,-111.0000089E-3,-96.000000834E-3,,,,,-111.0000089E-3,-98.000004888E-3,
,,,-110.9000072E-3,-98.000004888E-3,,,,,-110.9000072E-3,-96.000000834E-3,
,,,-110.8000055E-3,-98.000004888E-3,,,,,-110.8000055E-3,-98.000004888E-3,
,,,-110.7000038E-3,-98.000004888E-3,,,,,-110.7000038E-3,-96.000000834E-3,
,,,-110.6000096E-3,-100.0000015E-3,,,,,-110.6000096E-3,-100.0000015E-3,
,,,-110.5000079E-3,-100.0000015E-3,,,,,-110.5000079E-3,-100.0000015E-3,
,,,-110.4000062E-3,-102.0000055E-3,,,,,-110.4000062E-3,-98.000004888E-3,
,,,-110.3000045E-3,-104.0000021E-3,,,,,-110.3000045E-3,-102.0000055E-3,
,,,-110.2000028E-3,-104.0000021E-3,,,,,-110.2000028E-3,-104.0000021E-3,
,,,-110.1000085E-3,-106.0000062E-3,,,,,-110.1000085E-3,-106.0000062E-3,
,,,-110.0000069E-3,-104.0000021E-3,,,,,-110.0000069E-3,-108.0000028E-3,
,,,-109.9000052E-3,-108.0000028E-3,,,,,-109.9000052E-3,-104.0000021E-3,
,,,-109.8000035E-3,-108.0000028E-3,,,,,-109.8000035E-3,-110.0000069E-3,
,,,-109.7000092E-3,-108.0000028E-3,,,,,-109.7000092E-3,-106.0000062E-3,
,,,-109.6000075E-3,-108.0000028E-3,,,,,-109.6000075E-3,-110.0000069E-3,
,,,-109.5000058E-3,-112.0000035E-3,,,,,-109.5000058E-3,-114.0000075E-3,
,,,-109.4000041E-3,-112.0000035E-3,,,,,-109.4000041E-3,-112.0000035E-3,
,,,-109.3000025E-3,-114.0000075E-3,,,,,-109.3000025E-3,-114.0000075E-3,
,,,-109.2000082E-3,-114.0000075E-3,,,,,-109.2000082E-3,-114.0000075E-3,
,,,-109.1000065E-3,-116.0000041E-3,,,,,-109.1000065E-3,-114.0000075E-3,
,,,-109.0000048E-3,-116.0000041E-3,,,,,-109.0000048E-3,-114.0000075E-3,
,,,-108.9000031E-3,-118.0000082E-3,,,,,-108.9000031E-3,-120.0000048E-3,
,,,-108.8000089E-3,-118.0000082E-3,,,,,-108.8000089E-3,-118.0000082E-3,
,,,-108.7000072E-3,-118.0000082E-3,,,,,-108.7000072E-3,-120.0000048E-3,
,,,-108.6000055E-3,-120.0000048E-3,,,,,-108.6000055E-3,-120.0000048E-3,
,,,-108.5000038E-3,-122.0000088E-3,,,,,-108.5000038E-3,-120.0000048E-3,
,,,-108.4000096E-3,-124.0000054E-3,,,,,-108.4000096E-3,-120.0000048E-3,
,,,-108.3000079E-3,-124.0000054E-3,,,,,-108.3000079E-3,-126.0000020E-3,
,,,-108.2000062E-3,-124.0000054E-3,,,,,-108.2000062E-3,-124.0000054E-3,
,,,-108.1000045E-3,-124.0000054E-3,,,,,-108.1000045E-3,-126.0000020E-3,
,,,-108.0000028E-3,-126.0000020E-3,,,,,-108.0000028E-3,-126.0000020E-3,
,,,-107.9000086E-3,-126.0000020E-3,,,,,-107.9000086E-3,-124.0000054E-3,
,,,-107.8000069E-3,-126.0000020E-3,,,,,-107.8000069E-3,-126.0000020E-3,
,,,-107.7000052E-3,-128.0000061E-3,,,,,-107.7000052E-3,-126.0000020E-3,
,,,-107.6000035E-3,-128.0000061E-3,,,,,-107.6000035E-3,-130.0000101E-3,
,,,-107.5000092E-3,-130.0000101E-3,,,,,-107.5000092E-3,-130.0000101E-3,
,,,-107.4000075E-3,-131.9999993E-3,,,,,-107.4000075E-3,-131.9999993E-3,
,,,-107.3000059E-3,-131.9999993E-3,,,,,-107.3000059E-3,-131.9999993E-3,
,,,-107.2000042E-3,-131.9999993E-3,,,,,-107.2000042E-3,-130.0000101E-3,
,,,-107.1000099E-3,-131.9999993E-3,,,,,-107.1000099E-3,-131.9999993E-3,
,,,-107.0000082E-3,-134.0000033E-3,,,,,-107.0000082E-3,-136.0000074E-3,
,,,-106.9000065E-3,-134.0000033E-3,,,,,-106.9000065E-3,-136.0000074E-3,
,,,-106.8000048E-3,-136.0000074E-3,,,,,-106.8000048E-3,-138.0000114E-3,
,,,-106.7000031E-3,-136.0000074E-3,,,,,-106.7000031E-3,-134.0000033E-3,
,,,-106.6000089E-3,-138.0000114E-3,,,,,-106.6000089E-3,-136.0000074E-3,
,,,-106.5000072E-3,-138.0000114E-3,,,,,-106.5000072E-3,-136.0000074E-3,
,,,-106.4000055E-3,-138.0000114E-3,,,,,-106.4000055E-3,-138.0000114E-3,
,,,-106.3000038E-3,-140.0000006E-3,,,,,-106.3000038E-3,-138.0000114E-3,
,,,-106.2000096E-3,-140.0000006E-3,,,,,-106.2000096E-3,-138.0000114E-3,
,,,-106.1000079E-3,-142.0000046E-3,,,,,-106.1000079E-3,-138.0000114E-3,
,,,-106.0000062E-3,-140.0000006E-3,,,,,-106.0000062E-3,-144.0000087E-3,
,,,-105.9000045E-3,-142.0000046E-3,,,,,-105.9000045E-3,-142.0000046E-3,
,,,-105.8000028E-3,-144.0000087E-3,,,,,-105.8000028E-3,-142.0000046E-3,
,,,-105.7000086E-3,-144.0000087E-3,,,,,-105.7000086E-3,-144.0000087E-3,
,,,-105.6000069E-3,-144.0000087E-3,,,,,-105.6000069E-3,-144.0000087E-3,
,,,-105.5000052E-3,-146.0000128E-3,,,,,-105.5000052E-3,-144.0000087E-3,
,,,-105.4000035E-3,-148.0000019E-3,,,,,-105.4000035E-3,-146.0000128E-3,
,,,-105.3000093E-3,-146.0000128E-3,,,,,-105.3000093E-3,-146.0000128E-3,
,,,-105.2000076E-3,-148.0000019E-3,,,,,-105.2000076E-3,-148.0000019E-3,
,,,-105.1000059E-3,-148.0000019E-3,,,,,-105.1000059E-3,-150.00000596E-3,
,,,-105.0000042E-3,-148.0000019E-3,,,,,-105.0000042E-3,-150.00000596E-3,
,,,-104.9000099E-3,-148.0000019E-3,,,,,-104.9000099E-3,-148.0000019E-3,
,,,-104.8000082E-3,-150.00000596E-3,,,,,-104.8000082E-3,-150.00000596E-3,
,,,-104.7000065E-3,-150.00000596E-3,,,,,-104.7000065E-3,-150.00000596E-3,
,,,-104.6000049E-3,-150.00000596E-3,,,,,-104.6000049E-3,-152.00001001E-3,
,,,-104.5000032E-3,-152.00001001E-3,,,,,-104.5000032E-3,-152.00001001E-3,
,,,-104.4000089E-3,-154.00001407E-3,,,,,-104.4000089E-3,-150.00000596E-3,
,,,-104.3000072E-3,-152.00001001E-3,,,,,-104.3000072E-3,-150.00000596E-3,
,,,-104.2000055E-3,-154.00001407E-3,,,,,-104.2000055E-3,-154.00001407E-3,
,,,-104.1000038E-3,-154.00001407E-3,,,,,-104.1000038E-3,-152.00001001E-3,
,,,-104.0000096E-3,-156.00000322E-3,,,,,-104.0000096E-3,-154.00001407E-3,
,,,-103.9000079E-3,-158.00000727E-3,,,,,-103.9000079E-3,-156.00000322E-3,
,,,-103.8000062E-3,-158.00000727E-3,,,,,-103.8000062E-3,-156.00000322E-3,
,,,-103.7000045E-3,-156.00000322E-3,,,,,-103.7000045E-3,-156.00000322E-3,
,,,-103.6000028E-3,-156.00000322E-3,,,,,-103.6000028E-3,-156.00000322E-3,
,,,-103.5000086E-3,-158.00000727E-3,,,,,-103.5000086E-3,-156.00000322E-3,
,,,-103.4000069E-3,-158.00000727E-3,,,,,-103.4000069E-3,-160.00001132E-3,
,,,-103.3000052E-3,-158.00000727E-3,,,,,-103.3000052E-3,-158.00000727E-3,
,,,-103.2000035E-3,-158.00000727E-3,,,,,-103.2000035E-3,-156.00000322E-3,
,,,-103.1000093E-3,-160.00001132E-3,,,,,-103.1000093E-3,-160.00001132E-3,
,,,-103.0000076E-3,-160.00001132E-3,,,,,-103.0000076E-3,-160.00001132E-3,
,,,-102.9000059E-3,-160.00001132E-3,,,,,-102.9000059E-3,-158.00000727E-3,
,,,-102.8000042E-3,-160.00001132E-3,,,,,-102.8000042E-3,-164.00000453E-3,
,,,-102.7000099E-3,-160.00001132E-3,,,,,-102.7000099E-3,-160.00001132E-3,
,,,-102.6000082E-3,-162.00000048E-3,,,,,-102.6000082E-3,-162.00000048E-3,
,,,-102.5000066E-3,-162.00000048E-3,,,,,-102.5000066E-3,-164.00000453E-3,
,,,-102.4000049E-3,-162.00000048E-3,,,,,-102.4000049E-3,-160.00001132E-3,
,,,-102.3000032E-3,-164.00000453E-3,,,,,-102.3000032E-3,-160.00001132E-3,
,,,-102.2000089E-3,-164.00000453E-3,,,,,-102.2000089E-3,-162.00000048E-3,
,,,-102.1000072E-3,-164.00000453E-3,,,,,-102.1000072E-3,-164.00000453E-3,
,,,-102.0000055E-3,-164.00000453E-3,,,,,-102.0000055E-3,-164.00000453E-3,
,,,-101.9000039E-3,-166.00000858E-3,,,,,-101.9000039E-3,-164.00000453E-3,
,,,-101.8000096E-3,-166.00000858E-3,,,,,-101.8000096E-3,-166.00000858E-3,
,,,-101.7000079E-3,-168.00001264E-3,,,,,-101.7000079E-3,-166.00000858E-3,
,,,-101.6000062E-3,-166.00000858E-3,,,,,-101.6000062E-3,-168.00001264E-3,
,,,-101.5000045E-3,-168.00001264E-3,,,,,-101.5000045E-3,-168.00001264E-3,
,,,-101.4000028E-3,-170.00000179E-3,,,,,-101.4000028E-3,-166.00000858E-3,
,,,-101.3000086E-3,-170.00000179E-3,,,,,-101.3000086E-3,-168.00001264E-3,
,,,-101.2000069E-3,-170.00000179E-3,,,,,-101.2000069E-3,-168.00001264E-3,
,,,-101.1000052E-3,-170.00000179E-3,,,,,-101.1000052E-3,-168.00001264E-3,
,,,-101.0000035E-3,-170.00000179E-3,,,,,-101.0000035E-3,-168.00001264E-3,
,,,-100.9000093E-3,-170.00000179E-3,,,,,-100.9000093E-3,-170.00000179E-3,
,,,-100.8000076E-3,-170.00000179E-3,,,,,-100.8000076E-3,-168.00001264E-3,
,,,-100.7000059E-3,-170.00000179E-3,,,,,-100.7000059E-3,-170.00000179E-3,
,,,-100.6000042E-3,-172.00000584E-3,,,,,-100.6000042E-3,-168.00001264E-3,
,,,-100.5000100E-3,-172.00000584E-3,,,,,-100.5000100E-3,-172.00000584E-3,
,,,-100.4000083E-3,-172.00000584E-3,,,,,-100.4000083E-3,-172.00000584E-3,
,,,-100.3000066E-3,-172.00000584E-3,,,,,-100.3000066E-3,-170.00000179E-3,
,,,-100.2000049E-3,-172.00000584E-3,,,,,-100.2000049E-3,-174.00000989E-3,
,,,-100.1000032E-3,-174.00000989E-3,,,,,-100.1000032E-3,-172.00000584E-3,
,,,-100.0000089E-3,-176.00001395E-3,,,,,-100.0000089E-3,-174.00000989E-3,
,,,-99.900007248E-3,-174.00000989E-3,,,,,-99.900007248E-3,-170.00000179E-3,
,,,-99.800005555E-3,-174.00000989E-3,,,,,-99.800005555E-3,-174.00000989E-3,
,,,-99.700003862E-3,-174.00000989E-3,,,,,-99.700003862E-3,-172.00000584E-3,
,,,-99.600009620E-3,-174.00000989E-3,,,,,-99.600009620E-3,-172.00000584E-3,
,,,-99.500007927E-3,-176.00001395E-3,,,,,-99.500007927E-3,-172.00000584E-3,
,,,-99.400006235E-3,-174.00000989E-3,,,,,-99.400006235E-3,-178.00000310E-3,
,,,-99.300004542E-3,-174.00000989E-3,,,,,-99.300004542E-3,-172.00000584E-3,
,,,-99.200002849E-3,-176.00001395E-3,,,,,-99.200002849E-3,-174.00000989E-3,
,,,-99.100008607E-3,-176.00001395E-3,,,,,-99.100008607E-3,-176.00001395E-3,
,,,-99.000006914E-3,-176.00001395E-3,,,,,-99.000006914E-3,-180.00000715E-3,
,,,-98.900005221E-3,-176.00001395E-3,,,,,-98.900005221E-3,-174.00000989E-3,
,,,-98.800003529E-3,-176.00001395E-3,,,,,-98.800003529E-3,-176.00001395E-3,
,,,-98.700009286E-3,-176.00001395E-3,,,,,-98.700009286E-3,-176.00001395E-3,
,,,-98.600007594E-3,-178.00000310E-3,,,,,-98.600007594E-3,-176.00001395E-3,
,,,-98.500005901E-3,-178.00000310E-3,,,,,-98.500005901E-3,-178.00000310E-3,
,,,-98.400004208E-3,-178.00000310E-3,,,,,-98.400004208E-3,-176.00001395E-3,
,,,-98.300009966E-3,-178.00000310E-3,,,,,-98.300009966E-3,-176.00001395E-3,
,,,-98.200008273E-3,-178.00000310E-3,,,,,-98.200008273E-3,-178.00000310E-3,
,,,-98.100006580E-3,-178.00000310E-3,,,,,-98.100006580E-3,-176.00001395E-3,
