Week2/PartB-LowPass/data-733-H.csv

Record Length,2500,Points,-2.4360002E-3,-38.00000250E-3,,Record Length,2500,Points,-2.4360002E-3,-38.00000250E-3,
Sample Interval,2.0000000E-6,s,-2.4340001E-3,-36.00000218E-3,,Sample Interval,2.0000000E-6,s,-2.4340001E-3,-36.00000218E-3,
Trigger Point,1.2180001E3,Samples,-2.4320001E-3,-34.00000185E-3,,Trigger Point,1.2180001E3,Samples,-2.4320001E-3,-36.00000218E-3,
,,,-2.4300001E-3,-32.00000152E-3,,,,,-2.4300001E-3,-34.00000185E-3,
,,,-2.4280001E-3,-32.00000152E-3,,,,,-2.4280001E-3,-34.00000185E-3,
,,,-2.4260001E-3,-30.00000119E-3,,,,,-2.4260001E-3,-28.00000086E-3,
Source,CH1,,-2.4240001E-3,-26.00000054E-3,,Source,CH2,,-2.4240001E-3,-28.00000086E-3,
Vertical Units,Volts,,-2.4220000E-3,-26.00000054E-3,,Vertical Units,Volts,,-2.4220000E-3,-30.00000119E-3,
Vertical Scale,50.00000237E-3,,-2.4200003E-3,-22.00000174E-3,,Vertical Scale,50.00000237E-3,,-2.4200003E-3,-26.00000054E-3,
Vertical Offset,0,,-2.4180003E-3,-22.00000174E-3,,Vertical Offset,0,,-2.4180003E-3,-22.00000174E-3,
Horizontal Units,s,,-2.4160002E-3,-20.0000014E-3,,Horizontal Units,s,,-2.4160002E-3,-22.00000174E-3,
Horizontal Scale,499.999998738E-6,,-2.4140002E-3,-18.0000011E-3,,Horizontal Scale,499.999998738E-6,,-2.4140002E-3,-22.00000174E-3,
Pt Fmt,Y,,-2.4120002E-3,-16.0000008E-3,,Pt Fmt,Y,,-2.4120002E-3,-18.0000011E-3,
Yzero,80.000000000E-3,,-2.4100002E-3,-14.0000004E-3,,Yzero,0.0,,-2.4100002E-3,-20.0000014E-3,
Probe Atten,1.000000,,-2.4080002E-3,-12.0000001E-3,,Probe Atten,1.000000,,-2.4080002E-3,-14.0000004E-3,
,,,-2.4060002E-3,-10.0000007E-3,,,,,-2.4060002E-3,-14.0000004E-3,
Note,TDS 1001B - 10:52:41   14/05/2025,,-2.4040001E-3,-8.000000380E-3,,Note,TDS 1001B - 10:52:41   14/05/2025,,-2.4040001E-3,-12.0000001E-3,
,,,-2.4020001E-3,-6.00000005E-3,,,,,-2.4020001E-3,-10.0000007E-3,
,,,-2.4000001E-3,-6.00000005E-3,,,,,-2.4000001E-3,-6.00000005E-3,
,,,-2.3980001E-3,-4.00000019E-3,,,,,-2.3980001E-3,-8.000000380E-3,
,,,-2.3960001E-3,-2.0000001E-3,,,,,-2.3960001E-3,-6.00000005E-3,
,,,-2.3940001E-3,0.0,,,,,-2.3940001E-3,0.0,
,,,-2.3920001E-3,2.0000001E-3,,,,,-2.3920001E-3,0.0,
,,,-2.3900003E-3,2.0000001E-3,,,,,-2.3900003E-3,0.0,
,,,-2.3880003E-3,4.00000019E-3,,,,,-2.3880003E-3,4.00000019E-3,
,,,-2.3860002E-3,6.00000005E-3,,,,,-2.3860002E-3,4.00000019E-3,
,,,-2.3840002E-3,8.000000380E-3,,,,,-2.3840002E-3,4.00000019E-3,
,,,-2.3820002E-3,10.0000007E-3,,,,,-2.3820002E-3,8.000000380E-3,
,,,-2.3800002E-3,12.0000001E-3,,,,,-2.3800002E-3,10.0000007E-3,
,,,-2.3780002E-3,12.0000001E-3,,,,,-2.3780002E-3,12.0000001E-3,
,,,-2.3760002E-3,16.0000008E-3,,,,,-2.3760002E-3,10.0000007E-3,
,,,-2.3740001E-3,18.0000011E-3,,,,,-2.3740001E-3,16.0000008E-3,
,,,-2.3720001E-3,18.0000011E-3,,,,,-2.3720001E-3,14.0000004E-3,
,,,-2.3700001E-3,20.0000014E-3,,,,,-2.3700001E-3,18.0000011E-3,
,,,-2.3680001E-3,22.00000174E-3,,,,,-2.3680001E-3,18.0000011E-3,
,,,-2.3660001E-3,24.00000021E-3,,,,,-2.3660001E-3,22.00000174E-3,
,,,-2.3640001E-3,24.00000021E-3,,,,,-2.3640001E-3,24.00000021E-3,
,,,-2.3620001E-3,26.00000054E-3,,,,,-2.3620001E-3,28.00000086E-3,
,,,-2.3600000E-3,30.00000119E-3,,,,,-2.3600000E-3,26.00000054E-3,
,,,-2.3580003E-3,32.00000152E-3,,,,,-2.3580003E-3,26.00000054E-3,
,,,-2.3560002E-3,32.00000152E-3,,,,,-2.3560002E-3,30.00000119E-3,
,,,-2.3540002E-3,34.00000185E-3,,,,,-2.3540002E-3,28.00000086E-3,
,,,-2.3520002E-3,36.00000218E-3,,,,,-2.3520002E-3,34.00000185E-3,
,,,-2.3500002E-3,38.00000250E-3,,,,,-2.3500002E-3,34.00000185E-3,
,,,-2.3480002E-3,38.00000250E-3,,,,,-2.3480002E-3,36.00000218E-3,
,,,-2.3460002E-3,40.00000283E-3,,,,,-2.3460002E-3,38.00000250E-3,
,,,-2.3440002E-3,42.00000316E-3,,,,,-2.3440002E-3,40.00000283E-3,
,,,-2.3420001E-3,44.00000349E-3,,,,,-2.3420001E-3,42.00000316E-3,
,,,-2.3400001E-3,44.00000349E-3,,,,,-2.3400001E-3,44.00000349E-3,
,,,-2.3380001E-3,48.00000042E-3,,,,,-2.3380001E-3,46.00000381E-3,
,,,-2.3360001E-3,48.00000042E-3,,,,,-2.3360001E-3,46.00000381E-3,
,,,-2.3340001E-3,50.00000075E-3,,,,,-2.3340001E-3,48.00000042E-3,
,,,-2.3320001E-3,52.00000107E-3,,,,,-2.3320001E-3,52.00000107E-3,
,,,-2.3300000E-3,54.00000140E-3,,,,,-2.3300000E-3,52.00000107E-3,
,,,-2.3280003E-3,56.000001729E-3,,,,,-2.3280003E-3,56.000001729E-3,
,,,-2.3260002E-3,56.000001729E-3,,,,,-2.3260002E-3,52.00000107E-3,
,,,-2.3240002E-3,58.000002056E-3,,,,,-2.3240002E-3,56.000001729E-3,
,,,-2.3220002E-3,60.000002384E-3,,,,,-2.3220002E-3,58.000002056E-3,
,,,-2.3200002E-3,62.000002712E-3,,,,,-2.3200002E-3,64.000003040E-3,
,,,-2.3180002E-3,64.000003040E-3,,,,,-2.3180002E-3,58.000002056E-3,
,,,-2.3160002E-3,64.000003040E-3,,,,,-2.3160002E-3,65.999999642E-3,
,,,-2.3140002E-3,65.999999642E-3,,,,,-2.3140002E-3,64.000003040E-3,
,,,-2.3120001E-3,68.000003695E-3,,,,,-2.3120001E-3,62.000002712E-3,
,,,-2.3100001E-3,70.000000298E-3,,,,,-2.3100001E-3,65.999999642E-3,
,,,-2.3080001E-3,72.000004351E-3,,,,,-2.3080001E-3,72.000004351E-3,
,,,-2.3060001E-3,74.000000954E-3,,,,,-2.3060001E-3,68.000003695E-3,
,,,-2.3040001E-3,76.000005007E-3,,,,,-2.3040001E-3,70.000000298E-3,
,,,-2.3020001E-3,76.000005007E-3,,,,,-2.3020001E-3,70.000000298E-3,
,,,-2.3000001E-3,76.000005007E-3,,,,,-2.3000001E-3,74.000000954E-3,
,,,-2.2980003E-3,80.000005662E-3,,,,,-2.2980003E-3,76.000005007E-3,
,,,-2.2960003E-3,80.000005662E-3,,,,,-2.2960003E-3,78.000001609E-3,
,,,-2.2940002E-3,82.000002265E-3,,,,,-2.2940002E-3,80.000005662E-3,
,,,-2.2920002E-3,84.000006318E-3,,,,,-2.2920002E-3,82.000002265E-3,
,,,-2.2900002E-3,88.000006974E-3,,,,,-2.2900002E-3,80.000005662E-3,
,,,-2.2880002E-3,88.000006974E-3,,,,,-2.2880002E-3,82.000002265E-3,
,,,-2.2860002E-3,90.000003576E-3,,,,,-2.2860002E-3,84.000006318E-3,
,,,-2.2840002E-3,90.000003576E-3,,,,,-2.2840002E-3,88.000006974E-3,
,,,-2.2820001E-3,92.000007629E-3,,,,,-2.2820001E-3,90.000003576E-3,
,,,-2.2800001E-3,96.000000834E-3,,,,,-2.2800001E-3,90.000003576E-3,
,,,-2.2780001E-3,96.000000834E-3,,,,,-2.2780001E-3,90.000003576E-3,
,,,-2.2760001E-3,96.000000834E-3,,,,,-2.2760001E-3,94.000004232E-3,
,,,-2.2740001E-3,98.000004888E-3,,,,,-2.2740001E-3,96.000000834E-3,
,,,-2.2720001E-3,98.000004888E-3,,,,,-2.2720001E-3,96.000000834E-3,
,,,-2.2700001E-3,102.0000055E-3,,,,,-2.2700001E-3,96.000000834E-3,
,,,-2.2680000E-3,104.0000021E-3,,,,,-2.2680000E-3,98.000004888E-3,
,,,-2.2660003E-3,104.0000021E-3,,,,,-2.2660003E-3,104.0000021E-3,
,,,-2.2640002E-3,104.0000021E-3,,,,,-2.2640002E-3,100.0000015E-3,
,,,-2.2620002E-3,104.0000021E-3,,,,,-2.2620002E-3,102.0000055E-3,
,,,-2.2600002E-3,108.0000028E-3,,,,,-2.2600002E-3,104.0000021E-3,
,,,-2.2580002E-3,112.0000035E-3,,,,,-2.2580002E-3,108.0000028E-3,
,,,-2.2560002E-3,112.0000035E-3,,,,,-2.2560002E-3,110.0000069E-3,
,,,-2.2540002E-3,112.0000035E-3,,,,,-2.2540002E-3,108.0000028E-3,
,,,-2.2520002E-3,114.0000075E-3,,,,,-2.2520002E-3,110.0000069E-3,
,,,-2.2500001E-3,114.0000075E-3,,,,,-2.2500001E-3,112.0000035E-3,
,,,-2.2480001E-3,116.0000041E-3,,,,,-2.2480001E-3,114.0000075E-3,
,,,-2.2460001E-3,118.0000082E-3,,,,,-2.2460001E-3,114.0000075E-3,
,,,-2.2440001E-3,120.0000048E-3,,,,,-2.2440001E-3,114.0000075E-3,
,,,-2.2420001E-3,120.0000048E-3,,,,,-2.2420001E-3,120.0000048E-3,
,,,-2.2400001E-3,122.0000088E-3,,,,,-2.2400001E-3,118.0000082E-3,
,,,-2.2380000E-3,124.0000054E-3,,,,,-2.2380000E-3,118.0000082E-3,
,,,-2.2360003E-3,124.0000054E-3,,,,,-2.2360003E-3,124.0000054E-3,
,,,-2.2340002E-3,126.0000020E-3,,,,,-2.2340002E-3,122.0000088E-3,
,,,-2.2320002E-3,128.0000061E-3,,,,,-2.2320002E-3,122.0000088E-3,
,,,-2.2300002E-3,128.0000061E-3,,,,,-2.2300002E-3,128.0000061E-3,
,,,-2.2280002E-3,130.0000101E-3,,,,,-2.2280002E-3,126.0000020E-3,
,,,-2.2260002E-3,130.0000101E-3,,,,,-2.2260002E-3,128.0000061E-3,
,,,-2.2240002E-3,131.9999993E-3,,,,,-2.2240002E-3,130.0000101E-3,
,,,-2.2220002E-3,134.0000033E-3,,,,,-2.2220002E-3,131.9999993E-3,
,,,-2.2200001E-3,136.0000074E-3,,,,,-2.2200001E-3,131.9999993E-3,
,,,-2.2180001E-3,136.0000074E-3,,,,,-2.2180001E-3,131.9999993E-3,
,,,-2.2160001E-3,138.0000114E-3,,,,,-2.2160001E-3,134.0000033E-3,
,,,-2.2140001E-3,138.0000114E-3,,,,,-2.2140001E-3,136.0000074E-3,
,,,-2.2120001E-3,140.0000006E-3,,,,,-2.2120001E-3,134.0000033E-3,
,,,-2.2100001E-3,140.0000006E-3,,,,,-2.2100001E-3,136.0000074E-3,
,,,-2.2080000E-3,142.0000046E-3,,,,,-2.2080000E-3,136.0000074E-3,
,,,-2.2060003E-3,142.0000046E-3,,,,,-2.2060003E-3,142.0000046E-3,
,,,-2.2040003E-3,146.0000128E-3,,,,,-2.2040003E-3,140.0000006E-3,
,,,-2.2020002E-3,146.0000128E-3,,,,,-2.2020002E-3,140.0000006E-3,
,,,-2.2000002E-3,146.0000128E-3,,,,,-2.2000002E-3,144.0000087E-3,
,,,-2.1980002E-3,146.0000128E-3,,,,,-2.1980002E-3,146.0000128E-3,
,,,-2.1960002E-3,148.0000019E-3,,,,,-2.1960002E-3,146.0000128E-3,
,,,-2.1940002E-3,150.00000596E-3,,,,,-2.1940002E-3,146.0000128E-3,
,,,-2.1920002E-3,150.00000596E-3,,,,,-2.1920002E-3,148.0000019E-3,
,,,-2.1900001E-3,152.00001001E-3,,,,,-2.1900001E-3,144.0000087E-3,
,,,-2.1880001E-3,152.00001001E-3,,,,,-2.1880001E-3,152.00001001E-3,
,,,-2.1860001E-3,154.00001407E-3,,,,,-2.1860001E-3,152.00001001E-3,
,,,-2.1840001E-3,154.00001407E-3,,,,,-2.1840001E-3,150.00000596E-3,
,,,-2.1820001E-3,156.00000322E-3,,,,,-2.1820001E-3,152.00001001E-3,
,,,-2.1800001E-3,156.00000322E-3,,,,,-2.1800001E-3,154.00001407E-3,
,,,-2.1780001E-3,156.00000322E-3,,,,,-2.1780001E-3,154.00001407E-3,
,,,-2.1760003E-3,160.00001132E-3,,,,,-2.1760003E-3,154.00001407E-3,
,,,-2.1740003E-3,160.00001132E-3,,,,,-2.1740003E-3,158.00000727E-3,
,,,-2.1720002E-3,160.00001132E-3,,,,,-2.1720002E-3,156.00000322E-3,
,,,-2.1700002E-3,162.00000048E-3,,,,,-2.1700002E-3,158.00000727E-3,
,,,-2.1680002E-3,162.00000048E-3,,,,,-2.1680002E-3,158.00000727E-3,
,,,-2.1660002E-3,164.00000453E-3,,,,,-2.1660002E-3,158.00000727E-3,
,,,-2.1640002E-3,164.00000453E-3,,,,,-2.1640002E-3,162.00000048E-3,
,,,-2.1620002E-3,164.00000453E-3,,,,,-2.1620002E-3,162.00000048E-3,
,,,-2.1600001E-3,166.00000858E-3,,,,,-2.1600001E-3,164.00000453E-3,
,,,-2.1580001E-3,166.00000858E-3,,,,,-2.1580001E-3,160.00001132E-3,
,,,-2.1560001E-3,166.00000858E-3,,,,,-2.1560001E-3,162.00000048E-3,
,,,-2.1540001E-3,168.00001264E-3,,,,,-2.1540001E-3,166.00000858E-3,
,,,-2.1520001E-3,168.00001264E-3,,,,,-2.1520001E-3,164.00000453E-3,
,,,-2.1500001E-3,170.00000179E-3,,,,,-2.1500001E-3,162.00000048E-3,
,,,-2.1480001E-3,170.00000179E-3,,,,,-2.1480001E-3,166.00000858E-3,
,,,-2.1460000E-3,170.00000179E-3,,,,,-2.1460000E-3,168.00001264E-3,
,,,-2.1440003E-3,170.00000179E-3,,,,,-2.1440003E-3,168.00001264E-3,
,,,-2.1420002E-3,172.00000584E-3,,,,,-2.1420002E-3,170.00000179E-3,
,,,-2.1400002E-3,172.00000584E-3,,,,,-2.1400002E-3,170.00000179E-3,
,,,-2.1380002E-3,174.00000989E-3,,,,,-2.1380002E-3,170.00000179E-3,
,,,-2.1360002E-3,174.00000989E-3,,,,,-2.1360002E-3,172.00000584E-3,
,,,-2.1340002E-3,176.00001395E-3,,,,,-2.1340002E-3,172.00000584E-3,
,,,-2.1320002E-3,176.00001395E-3,,,,,-2.1320002E-3,172.00000584E-3,
,,,-2.1300002E-3,178.00000310E-3,,,,,-2.1300002E-3,172.00000584E-3,
,,,-2.1280001E-3,178.00000310E-3,,,,,-2.1280001E-3,172.00000584E-3,
,,,-2.1260001E-3,178.00000310E-3,,,,,-2.1260001E-3,174.00000989E-3,
,,,-2.1240001E-3,178.00000310E-3,,,,,-2.1240001E-3,176.00001395E-3,
,,,-2.1220001E-3,178.00000310E-3,,,,,-2.1220001E-3,176.00001395E-3,
,,,-2.1200001E-3,180.00000715E-3,,,,,-2.1200001E-3,174.00000989E-3,
,,,-2.1180001E-3,180.00000715E-3,,,,,-2.1180001E-3,176.00001395E-3,
,,,-2.1160000E-3,180.00000715E-3,,,,,-2.1160000E-3,178.00000310E-3,
,,,-2.1140003E-3,180.00000715E-3,,,,,-2.1140003E-3,180.00000715E-3,
,,,-2.1120002E-3,182.00001121E-3,,,,,-2.1120002E-3,176.00001395E-3,
,,,-2.1100002E-3,180.00000715E-3,,,,,-2.1100002E-3,176.00001395E-3,
,,,-2.1080002E-3,184.00001526E-3,,,,,-2.1080002E-3,182.00001121E-3,
,,,-2.1060002E-3,186.00000441E-3,,,,,-2.1060002E-3,180.00000715E-3,
,,,-2.1040002E-3,184.00001526E-3,,,,,-2.1040002E-3,182.00001121E-3,
,,,-2.1020002E-3,184.00001526E-3,,,,,-2.1020002E-3,176.00001395E-3,
,,,-2.1000002E-3,184.00001526E-3,,,,,-2.1000002E-3,184.00001526E-3,
,,,-2.0980001E-3,186.00000441E-3,,,,,-2.0980001E-3,182.00001121E-3,
,,,-2.0960001E-3,186.00000441E-3,,,,,-2.0960001E-3,182.00001121E-3,
,,,-2.0940001E-3,186.00000441E-3,,,,,-2.0940001E-3,180.00000715E-3,
,,,-2.0920001E-3,186.00000441E-3,,,,,-2.0920001E-3,182.00001121E-3,
,,,-2.0900001E-3,186.00000441E-3,,,,,-2.0900001E-3,184.00001526E-3,
,,,-2.0880001E-3,186.00000441E-3,,,,,-2.0880001E-3,186.00000441E-3,
,,,-2.0860001E-3,188.00000846E-3,,,,,-2.0860001E-3,184.00001526E-3,
,,,-2.0840003E-3,188.00000846E-3,,,,,-2.0840003E-3,184.00001526E-3,
,,,-2.0820003E-3,186.00000441E-3,,,,,-2.0820003E-3,184.00001526E-3,
,,,-2.0800002E-3,188.00000846E-3,,,,,-2.0800002E-3,186.00000441E-3,
,,,-2.0780002E-3,188.00000846E-3,,,,,-2.0780002E-3,186.00000441E-3,
,,,-2.0760002E-3,190.00001252E-3,,,,,-2.0760002E-3,186.00000441E-3,
,,,-2.0740002E-3,188.00000846E-3,,,,,-2.0740002E-3,184.00001526E-3,
,,,-2.0720002E-3,190.00001252E-3,,,,,-2.0720002E-3,184.00001526E-3,
,,,-2.0700002E-3,190.00001252E-3,,,,,-2.0700002E-3,188.00000846E-3,
,,,-2.0680001E-3,190.00001252E-3,,,,,-2.0680001E-3,184.00001526E-3,
,,,-2.0660001E-3,188.00000846E-3,,,,,-2.0660001E-3,190.00001252E-3,
,,,-2.0640001E-3,190.00001252E-3,,,,,-2.0640001E-3,184.00001526E-3,
,,,-2.0620001E-3,190.00001252E-3,,,,,-2.0620001E-3,188.00000846E-3,
,,,-2.0600001E-3,190.00001252E-3,,,,,-2.0600001E-3,188.00000846E-3,
,,,-2.0580001E-3,192.00000167E-3,,,,,-2.0580001E-3,186.00000441E-3,
,,,-2.0560001E-3,192.00000167E-3,,,,,-2.0560001E-3,186.00000441E-3,
,,,-2.0540000E-3,190.00001252E-3,,,,,-2.0540000E-3,188.00000846E-3,
,,,-2.0520003E-3,192.00000167E-3,,,,,-2.0520003E-3,188.00000846E-3,
,,,-2.0500002E-3,192.00000167E-3,,,,,-2.0500002E-3,188.00000846E-3,
,,,-2.0480002E-3,192.00000167E-3,,,,,-2.0480002E-3,190.00001252E-3,
,,,-2.0460002E-3,192.00000167E-3,,,,,-2.0460002E-3,188.00000846E-3,
,,,-2.0440002E-3,192.00000167E-3,,,,,-2.0440002E-3,186.00000441E-3,
,,,-2.0420002E-3,194.00000572E-3,,,,,-2.0420002E-3,190.00001252E-3,
,,,-2.0400002E-3,192.00000167E-3,,,,,-2.0400002E-3,190.00001252E-3,
,,,-2.0380002E-3,192.00000167E-3,,,,,-2.0380002E-3,188.00000846E-3,
,,,-2.0360001E-3,190.00001252E-3,,,,,-2.0360001E-3,188.00000846E-3,
,,,-2.0340001E-3,192.00000167E-3,,,,,-2.0340001E-3,188.00000846E-3,
,,,-2.0320001E-3,192.00000167E-3,,,,,-2.0320001E-3,188.00000846E-3,
,,,-2.0300001E-3,190.00001252E-3,,,,,-2.0300001E-3,186.00000441E-3,
,,,-2.0280001E-3,190.00001252E-3,,,,,-2.0280001E-3,186.00000441E-3,
,,,-2.0260001E-3,188.00000846E-3,,,,,-2.0260001E-3,184.00001526E-3,
,,,-2.0240000E-3,190.00001252E-3,,,,,-2.0240000E-3,188.00000846E-3,
,,,-2.0220003E-3,190.00001252E-3,,,,,-2.0220003E-3,188.00000846E-3,
,,,-2.0200002E-3,188.00000846E-3,,,,,-2.0200002E-3,186.00000441E-3,
,,,-2.0180002E-3,190.00001252E-3,,,,,-2.0180002E-3,186.00000441E-3,
,,,-2.0160002E-3,188.00000846E-3,,,,,-2.0160002E-3,186.00000441E-3,
,,,-2.0140002E-3,188.00000846E-3,,,,,-2.0140002E-3,184.00001526E-3,
,,,-2.0120002E-3,188.00000846E-3,,,,,-2.0120002E-3,186.00000441E-3,
,,,-2.0100002E-3,188.00000846E-3,,,,,-2.0100002E-3,184.00001526E-3,
,,,-2.0080002E-3,188.00000846E-3,,,,,-2.0080002E-3,184.00001526E-3,
,,,-2.0060001E-3,186.00000441E-3,,,,,-2.0060001E-3,184.00001526E-3,
,,,-2.0040001E-3,186.00000441E-3,,,,,-2.0040001E-3,184.00001526E-3,
,,,-2.0020001E-3,186.00000441E-3,,,,,-2.0020001E-3,184.00001526E-3,
,,,-2.0000001E-3,186.00000441E-3,,,,,-2.0000001E-3,184.00001526E-3,
,,,-1.9980001E-3,186.00000441E-3,,,,,-1.9980001E-3,182.00001121E-3,
,,,-1.9960001E-3,186.00000441E-3,,,,,-1.9960001E-3,184.00001526E-3,
,,,-1.9940000E-3,186.00000441E-3,,,,,-1.9940000E-3,182.00001121E-3,
,,,-1.9920003E-3,186.00000441E-3,,,,,-1.9920003E-3,182.00001121E-3,
,,,-1.9900003E-3,186.00000441E-3,,,,,-1.9900003E-3,184.00001526E-3,
,,,-1.9880002E-3,184.00001526E-3,,,,,-1.9880002E-3,180.00000715E-3,
,,,-1.9860002E-3,184.00001526E-3,,,,,-1.9860002E-3,184.00001526E-3,
,,,-1.9840002E-3,182.00001121E-3,,,,,-1.9840002E-3,180.00000715E-3,
,,,-1.9820002E-3,182.00001121E-3,,,,,-1.9820002E-3,178.00000310E-3,
,,,-1.9800002E-3,180.00000715E-3,,,,,-1.9800002E-3,180.00000715E-3,
,,,-1.9780002E-3,182.00001121E-3,,,,,-1.9780002E-3,176.00001395E-3,
,,,-1.9760001E-3,182.00001121E-3,,,,,-1.9760001E-3,178.00000310E-3,
,,,-1.9740001E-3,180.00000715E-3,,,,,-1.9740001E-3,178.00000310E-3,
,,,-1.9720001E-3,180.00000715E-3,,,,,-1.9720001E-3,176.00001395E-3,
,,,-1.9700001E-3,180.00000715E-3,,,,,-1.9700001E-3,176.00001395E-3,
,,,-1.9680001E-3,178.00000310E-3,,,,,-1.9680001E-3,176.00001395E-3,
,,,-1.9660001E-3,178.00000310E-3,,,,,-1.9660001E-3,176.00001395E-3,
,,,-1.9640001E-3,176.00001395E-3,,,,,-1.9640001E-3,174.00000989E-3,
,,,-1.9620003E-3,176.00001395E-3,,,,,-1.9620003E-3,176.00001395E-3,
,,,-1.9600003E-3,176.00001395E-3,,,,,-1.9600003E-3,174.00000989E-3,
,,,-1.9580002E-3,174.00000989E-3,,,,,-1.9580002E-3,172.00000584E-3,
,,,-1.9560002E-3,174.00000989E-3,,,,,-1.9560002E-3,170.00000179E-3,
,,,-1.9540002E-3,174.00000989E-3,,,,,-1.9540002E-3,172.00000584E-3,
,,,-1.9520002E-3,174.00000989E-3,,,,,-1.9520002E-3,172.00000584E-3,
,,,-1.9500002E-3,170.00000179E-3,,,,,-1.9500002E-3,170.00000179E-3,
,,,-1.9480002E-3,172.00000584E-3,,,,,-1.9480002E-3,168.00001264E-3,
,,,-1.9460001E-3,170.00000179E-3,,,,,-1.9460001E-3,170.00000179E-3,
,,,-1.9440001E-3,170.00000179E-3,,,,,-1.9440001E-3,168.00001264E-3,
,,,-1.9420001E-3,168.00001264E-3,,,,,-1.9420001E-3,168.00001264E-3,
,,,-1.9400001E-3,170.00000179E-3,,,,,-1.9400001E-3,162.00000048E-3,
,,,-1.9380002E-3,168.00001264E-3,,,,,-1.9380002E-3,164.00000453E-3,
,,,-1.9360002E-3,168.00001264E-3,,,,,-1.9360002E-3,164.00000453E-3,
,,,-1.9340002E-3,166.00000858E-3,,,,,-1.9340002E-3,162.00000048E-3,
,,,-1.9320002E-3,166.00000858E-3,,,,,-1.9320002E-3,164.00000453E-3,
,,,-1.9300001E-3,164.00000453E-3,,,,,-1.9300001E-3,162.00000048E-3,
,,,-1.9280001E-3,164.00000453E-3,,,,,-1.9280001E-3,162.00000048E-3,
,,,-1.9260001E-3,164.00000453E-3,,,,,-1.9260001E-3,162.00000048E-3,
,,,-1.9240002E-3,162.00000048E-3,,,,,-1.9240002E-3,162.00000048E-3,
,,,-1.9220002E-3,162.00000048E-3,,,,,-1.9220002E-3,160.00001132E-3,
,,,-1.9200002E-3,160.00001132E-3,,,,,-1.9200002E-3,156.00000322E-3,
,,,-1.9180002E-3,160.00001132E-3,,,,,-1.9180002E-3,156.00000322E-3,
,,,-1.9160002E-3,160.00001132E-3,,,,,-1.9160002E-3,158.00000727E-3,
,,,-1.9140001E-3,156.00000322E-3,,,,,-1.9140001E-3,156.00000322E-3,
,,,-1.9120001E-3,156.00000322E-3,,,,,-1.9120001E-3,158.00000727E-3,
,,,-1.9100001E-3,156.00000322E-3,,,,,-1.9100001E-3,154.00001407E-3,
,,,-1.9080002E-3,154.00001407E-3,,,,,-1.9080002E-3,154.00001407E-3,
,,,-1.9060002E-3,154.00001407E-3,,,,,-1.9060002E-3,148.0000019E-3,
,,,-1.9040002E-3,152.00001001E-3,,,,,-1.9040002E-3,150.00000596E-3,
,,,-1.9020002E-3,150.00000596E-3,,,,,-1.9020002E-3,152.00001001E-3,
,,,-1.9000001E-3,150.00000596E-3,,,,,-1.9000001E-3,150.00000596E-3,
,,,-1.8980001E-3,148.0000019E-3,,,,,-1.8980001E-3,150.00000596E-3,
,,,-1.8960001E-3,148.0000019E-3,,,,,-1.8960001E-3,146.0000128E-3,
,,,-1.8940001E-3,146.0000128E-3,,,,,-1.8940001E-3,144.0000087E-3,
,,,-1.8920002E-3,146.0000128E-3,,,,,-1.8920002E-3,144.0000087E-3,
,,,-1.8900002E-3,146.0000128E-3,,,,,-1.8900002E-3,144.0000087E-3,
,,,-1.8880002E-3,144.0000087E-3,,,,,-1.8880002E-3,144.0000087E-3,
,,,-1.8860002E-3,142.0000046E-3,,,,,-1.8860002E-3,140.0000006E-3,
,,,-1.8840001E-3,142.0000046E-3,,,,,-1.8840001E-3,140.0000006E-3,
,,,-1.8820001E-3,140.0000006E-3,,,,,-1.8820001E-3,138.0000114E-3,
,,,-1.8800001E-3,140.0000006E-3,,,,,-1.8800001E-3,140.0000006E-3,
,,,-1.8780002E-3,138.0000114E-3,,,,,-1.8780002E-3,136.0000074E-3,
,,,-1.8760002E-3,138.0000114E-3,,,,,-1.8760002E-3,136.0000074E-3,
,,,-1.8740002E-3,136.0000074E-3,,,,,-1.8740002E-3,134.0000033E-3,
,,,-1.8720002E-3,134.0000033E-3,,,,,-1.8720002E-3,136.0000074E-3,
,,,-1.8700002E-3,131.9999993E-3,,,,,-1.8700002E-3,134.0000033E-3,
,,,-1.8680001E-3,131.9999993E-3,,,,,-1.8680001E-3,131.9999993E-3,
,,,-1.8660001E-3,130.0000101E-3,,,,,-1.8660001E-3,130.0000101E-3,
,,,-1.8640001E-3,128.0000061E-3,,,,,-1.8640001E-3,128.0000061E-3,
,,,-1.8620002E-3,128.0000061E-3,,,,,-1.8620002E-3,128.0000061E-3,
,,,-1.8600002E-3,128.0000061E-3,,,,,-1.8600002E-3,124.0000054E-3,
