Week2/PartB/data-191-100k.csv

Record Length,2500,Points,-24.99999851E-3,-76.000005007E-3,,Record Length,2500,Points,-24.99999851E-3,0.0,
Sample Interval,19.9999995E-6,s,-24.97999929E-3,-68.000003695E-3,,Sample Interval,19.9999995E-6,s,-24.97999929E-3,8.000000380E-3,
Trigger Point,1.2500000E3,Samples,-24.95999821E-3,-60.000002384E-3,,Trigger Point,1.2500000E3,Samples,-24.95999821E-3,16.0000008E-3,
,,,-24.93999898E-3,-52.00000107E-3,,,,,-24.93999898E-3,24.00000021E-3,
,,,-24.91999790E-3,-36.00000218E-3,,,,,-24.91999790E-3,32.00000152E-3,
,,,-24.89999868E-3,-32.00000152E-3,,,,,-24.89999868E-3,44.00000349E-3,
Source,CH1,,-24.87999760E-3,-24.00000021E-3,,Source,CH2,,-24.87999760E-3,52.00000107E-3,
Vertical Units,Volts,,-24.85999838E-3,-12.0000001E-3,,Vertical Units,Volts,,-24.85999838E-3,60.000002384E-3,
Vertical Scale,100.0000047E-3,,-24.83999915E-3,-4.00000019E-3,,Vertical Scale,100.0000047E-3,,-24.83999915E-3,68.000003695E-3,
Vertical Offset,0,,-24.81999807E-3,8.000000380E-3,,Vertical Offset,0,,-24.81999807E-3,76.000005007E-3,
Horizontal Units,s,,-24.79999885E-3,16.0000008E-3,,Horizontal Units,s,,-24.79999885E-3,84.000006318E-3,
Horizontal Scale,4.99999987E-3,,-24.77999777E-3,24.00000021E-3,,Horizontal Scale,4.99999987E-3,,-24.77999777E-3,96.000000834E-3,
Pt Fmt,Y,,-24.75999855E-3,36.00000218E-3,,Pt Fmt,Y,,-24.75999855E-3,104.0000021E-3,
Yzero,80.000000000E-3,,-24.73999932E-3,44.00000349E-3,,Yzero,0.0,,-24.73999932E-3,112.0000035E-3,
Probe Atten,1.000000,,-24.71999824E-3,56.000001729E-3,,Probe Atten,1.000000,,-24.71999824E-3,120.0000048E-3,
,,,-24.69999902E-3,60.000002384E-3,,,,,-24.69999902E-3,128.0000061E-3,
Note,TDS 1001B - 10:12:35   14/05/2025,,-24.67999794E-3,72.000004351E-3,,Note,TDS 1001B - 10:12:35   14/05/2025,,-24.67999794E-3,136.0000074E-3,
,,,-24.65999871E-3,80.000005662E-3,,,,,-24.65999871E-3,144.0000087E-3,
,,,-24.63999763E-3,92.000007629E-3,,,,,-24.63999763E-3,152.00001001E-3,
,,,-24.61999841E-3,100.0000015E-3,,,,,-24.61999841E-3,160.00001132E-3,
,,,-24.59999919E-3,104.0000021E-3,,,,,-24.59999919E-3,168.00001264E-3,
,,,-24.57999811E-3,116.0000041E-3,,,,,-24.57999811E-3,176.00001395E-3,
,,,-24.55999888E-3,120.0000048E-3,,,,,-24.55999888E-3,184.00001526E-3,
,,,-24.53999780E-3,128.0000061E-3,,,,,-24.53999780E-3,192.00000167E-3,
,,,-24.51999858E-3,140.0000006E-3,,,,,-24.51999858E-3,200.00000298E-3,
,,,-24.49999936E-3,148.0000019E-3,,,,,-24.49999936E-3,208.00000429E-3,
,,,-24.47999828E-3,156.00000322E-3,,,,,-24.47999828E-3,212.00001240E-3,
,,,-24.45999905E-3,168.00001264E-3,,,,,-24.45999905E-3,220.00001371E-3,
,,,-24.43999797E-3,172.00000584E-3,,,,,-24.43999797E-3,228.00001502E-3,
,,,-24.41999875E-3,184.00001526E-3,,,,,-24.41999875E-3,236.00001633E-3,
,,,-24.39999767E-3,188.00000846E-3,,,,,-24.39999767E-3,240.00000954E-3,
,,,-24.37999845E-3,200.00000298E-3,,,,,-24.37999845E-3,248.00001085E-3,
,,,-24.35999922E-3,208.00000429E-3,,,,,-24.35999922E-3,252.00000405E-3,
,,,-24.33999814E-3,216.00000560E-3,,,,,-24.33999814E-3,256.00001216E-3,
,,,-24.31999892E-3,224.00000691E-3,,,,,-24.31999892E-3,263.99999857E-3,
,,,-24.29999784E-3,228.00001502E-3,,,,,-24.29999784E-3,272.00001478E-3,
,,,-24.27999862E-3,232.00000823E-3,,,,,-24.27999862E-3,276.00002289E-3,
,,,-24.25999939E-3,244.00001764E-3,,,,,-24.25999939E-3,280.00000119E-3,
,,,-24.23999831E-3,252.00000405E-3,,,,,-24.23999831E-3,288.00001740E-3,
,,,-24.21999909E-3,256.00001216E-3,,,,,-24.21999909E-3,292.00002551E-3,
,,,-24.19999801E-3,263.99999857E-3,,,,,-24.19999801E-3,296.00000381E-3,
,,,-24.17999879E-3,272.00001478E-3,,,,,-24.17999879E-3,300.00001192E-3,
,,,-24.15999770E-3,276.00002289E-3,,,,,-24.15999770E-3,308.00002813E-3,
,,,-24.13999848E-3,284.00000930E-3,,,,,-24.13999848E-3,312.00000644E-3,
,,,-24.11999926E-3,288.00001740E-3,,,,,-24.11999926E-3,316.00001454E-3,
,,,-24.09999818E-3,292.00002551E-3,,,,,-24.09999818E-3,320.00002265E-3,
,,,-24.07999896E-3,300.00001192E-3,,,,,-24.07999896E-3,320.00002265E-3,
,,,-24.05999787E-3,308.00002813E-3,,,,,-24.05999787E-3,328.00000906E-3,
,,,-24.03999865E-3,316.00001454E-3,,,,,-24.03999865E-3,332.00001717E-3,
,,,-24.01999943E-3,316.00001454E-3,,,,,-24.01999943E-3,336.00002527E-3,
,,,-23.99999835E-3,324.00000095E-3,,,,,-23.99999835E-3,340.00000358E-3,
,,,-23.97999913E-3,324.00000095E-3,,,,,-23.97999913E-3,348.00001979E-3,
,,,-23.95999804E-3,332.00001717E-3,,,,,-23.95999804E-3,344.00001168E-3,
,,,-23.93999882E-3,336.00002527E-3,,,,,-23.93999882E-3,344.00001168E-3,
,,,-23.91999774E-3,340.00000358E-3,,,,,-23.91999774E-3,348.00001979E-3,
,,,-23.89999852E-3,344.00001168E-3,,,,,-23.89999852E-3,352.00002789E-3,
,,,-23.87999929E-3,348.00001979E-3,,,,,-23.87999929E-3,356.00000620E-3,
,,,-23.85999821E-3,352.00002789E-3,,,,,-23.85999821E-3,352.00002789E-3,
,,,-23.83999899E-3,352.00002789E-3,,,,,-23.83999899E-3,356.00000620E-3,
,,,-23.81999791E-3,356.00000620E-3,,,,,-23.81999791E-3,356.00000620E-3,
,,,-23.79999869E-3,364.00002241E-3,,,,,-23.79999869E-3,356.00000620E-3,
,,,-23.77999946E-3,364.00002241E-3,,,,,-23.77999946E-3,360.00001431E-3,
,,,-23.75999838E-3,368.00003052E-3,,,,,-23.75999838E-3,360.00001431E-3,
,,,-23.73999916E-3,372.00000882E-3,,,,,-23.73999916E-3,360.00001431E-3,
,,,-23.71999808E-3,372.00000882E-3,,,,,-23.71999808E-3,364.00002241E-3,
,,,-23.69999886E-3,372.00000882E-3,,,,,-23.69999886E-3,364.00002241E-3,
,,,-23.67999777E-3,376.00001693E-3,,,,,-23.67999777E-3,360.00001431E-3,
,,,-23.65999855E-3,380.00002503E-3,,,,,-23.65999855E-3,360.00001431E-3,
,,,-23.63999933E-3,380.00002503E-3,,,,,-23.63999933E-3,360.00001431E-3,
,,,-23.61999825E-3,384.00000334E-3,,,,,-23.61999825E-3,360.00001431E-3,
,,,-23.59999903E-3,384.00000334E-3,,,,,-23.59999903E-3,360.00001431E-3,
,,,-23.57999794E-3,384.00000334E-3,,,,,-23.57999794E-3,360.00001431E-3,
,,,-23.55999872E-3,384.00000334E-3,,,,,-23.55999872E-3,356.00000620E-3,
,,,-23.53999764E-3,384.00000334E-3,,,,,-23.53999764E-3,356.00000620E-3,
,,,-23.51999842E-3,388.00001144E-3,,,,,-23.51999842E-3,356.00000620E-3,
,,,-23.49999920E-3,384.00000334E-3,,,,,-23.49999920E-3,356.00000620E-3,
,,,-23.47999811E-3,388.00001144E-3,,,,,-23.47999811E-3,352.00002789E-3,
,,,-23.45999889E-3,388.00001144E-3,,,,,-23.45999889E-3,352.00002789E-3,
,,,-23.43999781E-3,384.00000334E-3,,,,,-23.43999781E-3,348.00001979E-3,
,,,-23.41999859E-3,384.00000334E-3,,,,,-23.41999859E-3,340.00000358E-3,
,,,-23.39999937E-3,380.00002503E-3,,,,,-23.39999937E-3,340.00000358E-3,
,,,-23.37999828E-3,380.00002503E-3,,,,,-23.37999828E-3,336.00002527E-3,
,,,-23.35999906E-3,380.00002503E-3,,,,,-23.35999906E-3,332.00001717E-3,
,,,-23.33999798E-3,380.00002503E-3,,,,,-23.33999798E-3,332.00001717E-3,
,,,-23.31999876E-3,376.00001693E-3,,,,,-23.31999876E-3,324.00000095E-3,
,,,-23.29999767E-3,372.00000882E-3,,,,,-23.29999767E-3,324.00000095E-3,
,,,-23.27999845E-3,368.00003052E-3,,,,,-23.27999845E-3,320.00002265E-3,
,,,-23.25999923E-3,368.00003052E-3,,,,,-23.25999923E-3,312.00000644E-3,
,,,-23.23999815E-3,368.00003052E-3,,,,,-23.23999815E-3,312.00000644E-3,
,,,-23.21999893E-3,368.00003052E-3,,,,,-23.21999893E-3,308.00002813E-3,
,,,-23.19999784E-3,360.00001431E-3,,,,,-23.19999784E-3,300.00001192E-3,
,,,-23.17999862E-3,356.00000620E-3,,,,,-23.17999862E-3,296.00000381E-3,
,,,-23.15999940E-3,352.00002789E-3,,,,,-23.15999940E-3,292.00002551E-3,
,,,-23.13999832E-3,348.00001979E-3,,,,,-23.13999832E-3,284.00000930E-3,
,,,-23.11999910E-3,344.00001168E-3,,,,,-23.11999910E-3,280.00000119E-3,
,,,-23.09999801E-3,340.00000358E-3,,,,,-23.09999801E-3,276.00002289E-3,
,,,-23.07999879E-3,336.00002527E-3,,,,,-23.07999879E-3,268.00000668E-3,
,,,-23.05999771E-3,336.00002527E-3,,,,,-23.05999771E-3,263.99999857E-3,
,,,-23.03999849E-3,328.00000906E-3,,,,,-23.03999849E-3,256.00001216E-3,
,,,-23.01999927E-3,324.00000095E-3,,,,,-23.01999927E-3,252.00000405E-3,
,,,-22.99999818E-3,320.00002265E-3,,,,,-22.99999818E-3,244.00001764E-3,
,,,-22.97999896E-3,312.00000644E-3,,,,,-22.97999896E-3,244.00001764E-3,
,,,-22.95999788E-3,308.00002813E-3,,,,,-22.95999788E-3,236.00001633E-3,
,,,-22.93999866E-3,304.00002003E-3,,,,,-22.93999866E-3,228.00001502E-3,
,,,-22.91999944E-3,296.00000381E-3,,,,,-22.91999944E-3,216.00000560E-3,
,,,-22.89999835E-3,292.00002551E-3,,,,,-22.89999835E-3,212.00001240E-3,
,,,-22.87999913E-3,280.00000119E-3,,,,,-22.87999913E-3,204.00001109E-3,
,,,-22.85999805E-3,280.00000119E-3,,,,,-22.85999805E-3,200.00000298E-3,
,,,-22.83999883E-3,272.00001478E-3,,,,,-22.83999883E-3,192.00000167E-3,
,,,-22.81999774E-3,263.99999857E-3,,,,,-22.81999774E-3,184.00001526E-3,
,,,-22.79999852E-3,256.00001216E-3,,,,,-22.79999852E-3,176.00001395E-3,
,,,-22.77999930E-3,252.00000405E-3,,,,,-22.77999930E-3,168.00001264E-3,
,,,-22.75999822E-3,248.00001085E-3,,,,,-22.75999822E-3,160.00001132E-3,
,,,-22.73999900E-3,240.00000954E-3,,,,,-22.73999900E-3,152.00001001E-3,
,,,-22.71999791E-3,232.00000823E-3,,,,,-22.71999791E-3,144.0000087E-3,
,,,-22.69999869E-3,224.00000691E-3,,,,,-22.69999869E-3,136.0000074E-3,
,,,-22.67999947E-3,216.00000560E-3,,,,,-22.67999947E-3,128.0000061E-3,
,,,-22.65999839E-3,208.00000429E-3,,,,,-22.65999839E-3,120.0000048E-3,
,,,-22.63999917E-3,200.00000298E-3,,,,,-22.63999917E-3,108.0000028E-3,
,,,-22.61999808E-3,192.00000167E-3,,,,,-22.61999808E-3,104.0000021E-3,
,,,-22.59999886E-3,184.00001526E-3,,,,,-22.59999886E-3,92.000007629E-3,
,,,-22.57999778E-3,176.00001395E-3,,,,,-22.57999778E-3,84.000006318E-3,
,,,-22.55999856E-3,164.00000453E-3,,,,,-22.55999856E-3,80.000005662E-3,
,,,-22.53999934E-3,156.00000322E-3,,,,,-22.53999934E-3,68.000003695E-3,
,,,-22.51999825E-3,148.0000019E-3,,,,,-22.51999825E-3,60.000002384E-3,
,,,-22.49999903E-3,140.0000006E-3,,,,,-22.49999903E-3,48.00000042E-3,
,,,-22.47999795E-3,131.9999993E-3,,,,,-22.47999795E-3,40.00000283E-3,
,,,-22.45999873E-3,124.0000054E-3,,,,,-22.45999873E-3,32.00000152E-3,
,,,-22.43999764E-3,116.0000041E-3,,,,,-22.43999764E-3,24.00000021E-3,
,,,-22.41999842E-3,108.0000028E-3,,,,,-22.41999842E-3,16.0000008E-3,
,,,-22.39999920E-3,100.0000015E-3,,,,,-22.39999920E-3,8.000000380E-3,
,,,-22.37999812E-3,92.000007629E-3,,,,,-22.37999812E-3,-4.00000019E-3,
,,,-22.35999890E-3,80.000005662E-3,,,,,-22.35999890E-3,-8.000000380E-3,
,,,-22.33999781E-3,76.000005007E-3,,,,,-22.33999781E-3,-20.0000014E-3,
,,,-22.31999859E-3,64.000003040E-3,,,,,-22.31999859E-3,-28.00000086E-3,
,,,-22.29999937E-3,56.000001729E-3,,,,,-22.29999937E-3,-40.00000283E-3,
,,,-22.27999829E-3,48.00000042E-3,,,,,-22.27999829E-3,-48.00000042E-3,
,,,-22.25999907E-3,40.00000283E-3,,,,,-22.25999907E-3,-56.000001729E-3,
,,,-22.23999798E-3,28.00000086E-3,,,,,-22.23999798E-3,-64.000003040E-3,
,,,-22.21999876E-3,20.0000014E-3,,,,,-22.21999876E-3,-72.000004351E-3,
,,,-22.19999768E-3,8.000000380E-3,,,,,-22.19999768E-3,-84.000006318E-3,
,,,-22.17999846E-3,0.0,,,,,-22.17999846E-3,-88.000006974E-3,
,,,-22.15999924E-3,-8.000000380E-3,,,,,-22.15999924E-3,-96.000000834E-3,
,,,-22.13999815E-3,-16.0000008E-3,,,,,-22.13999815E-3,-104.0000021E-3,
,,,-22.11999893E-3,-28.00000086E-3,,,,,-22.11999893E-3,-116.0000041E-3,
,,,-22.09999785E-3,-40.00000283E-3,,,,,-22.09999785E-3,-124.0000054E-3,
,,,-22.07999863E-3,-48.00000042E-3,,,,,-22.07999863E-3,-131.9999993E-3,
,,,-22.05999941E-3,-52.00000107E-3,,,,,-22.05999941E-3,-140.0000006E-3,
,,,-22.03999832E-3,-64.000003040E-3,,,,,-22.03999832E-3,-148.0000019E-3,
,,,-22.01999910E-3,-72.000004351E-3,,,,,-22.01999910E-3,-156.00000322E-3,
,,,-21.99999802E-3,-84.000006318E-3,,,,,-21.99999802E-3,-160.00001132E-3,
,,,-21.97999880E-3,-92.000007629E-3,,,,,-21.97999880E-3,-168.00001264E-3,
,,,-21.95999771E-3,-104.0000021E-3,,,,,-21.95999771E-3,-180.00000715E-3,
,,,-21.93999849E-3,-108.0000028E-3,,,,,-21.93999849E-3,-184.00001526E-3,
,,,-21.91999927E-3,-116.0000041E-3,,,,,-21.91999927E-3,-192.00000167E-3,
,,,-21.89999819E-3,-128.0000061E-3,,,,,-21.89999819E-3,-204.00001109E-3,
,,,-21.87999897E-3,-131.9999993E-3,,,,,-21.87999897E-3,-212.00001240E-3,
,,,-21.85999788E-3,-140.0000006E-3,,,,,-21.85999788E-3,-216.00000560E-3,
,,,-21.83999866E-3,-152.00001001E-3,,,,,-21.83999866E-3,-224.00000691E-3,
,,,-21.81999944E-3,-160.00001132E-3,,,,,-21.81999944E-3,-232.00000823E-3,
,,,-21.79999836E-3,-168.00001264E-3,,,,,-21.79999836E-3,-240.00000954E-3,
,,,-21.77999914E-3,-176.00001395E-3,,,,,-21.77999914E-3,-244.00001764E-3,
,,,-21.75999805E-3,-180.00000715E-3,,,,,-21.75999805E-3,-252.00000405E-3,
,,,-21.73999883E-3,-188.00000846E-3,,,,,-21.73999883E-3,-256.00001216E-3,
,,,-21.71999775E-3,-196.00000978E-3,,,,,-21.71999775E-3,-260.00002027E-3,
,,,-21.69999853E-3,-208.00000429E-3,,,,,-21.69999853E-3,-268.00000668E-3,
,,,-21.67999931E-3,-212.00001240E-3,,,,,-21.67999931E-3,-276.00002289E-3,
,,,-21.65999822E-3,-224.00000691E-3,,,,,-21.65999822E-3,-280.00000119E-3,
,,,-21.63999900E-3,-228.00001502E-3,,,,,-21.63999900E-3,-284.00000930E-3,
,,,-21.61999792E-3,-236.00001633E-3,,,,,-21.61999792E-3,-292.00002551E-3,
,,,-21.59999870E-3,-244.00001764E-3,,,,,-21.59999870E-3,-296.00000381E-3,
,,,-21.57999948E-3,-252.00000405E-3,,,,,-21.57999948E-3,-300.00001192E-3,
,,,-21.55999839E-3,-256.00001216E-3,,,,,-21.55999839E-3,-308.00002813E-3,
,,,-21.53999917E-3,-263.99999857E-3,,,,,-21.53999917E-3,-312.00000644E-3,
,,,-21.51999809E-3,-268.00000668E-3,,,,,-21.51999809E-3,-316.00001454E-3,
,,,-21.49999887E-3,-272.00001478E-3,,,,,-21.49999887E-3,-320.00002265E-3,
,,,-21.47999778E-3,-284.00000930E-3,,,,,-21.47999778E-3,-324.00000095E-3,
,,,-21.45999856E-3,-288.00001740E-3,,,,,-21.45999856E-3,-328.00000906E-3,
,,,-21.43999934E-3,-292.00002551E-3,,,,,-21.43999934E-3,-332.00001717E-3,
,,,-21.41999826E-3,-300.00001192E-3,,,,,-21.41999826E-3,-336.00002527E-3,
,,,-21.39999904E-3,-304.00002003E-3,,,,,-21.39999904E-3,-340.00000358E-3,
,,,-21.37999795E-3,-312.00000644E-3,,,,,-21.37999795E-3,-340.00000358E-3,
,,,-21.35999873E-3,-312.00000644E-3,,,,,-21.35999873E-3,-344.00001168E-3,
,,,-21.33999951E-3,-316.00001454E-3,,,,,-21.33999951E-3,-344.00001168E-3,
,,,-21.31999843E-3,-320.00002265E-3,,,,,-21.31999843E-3,-348.00001979E-3,
,,,-21.29999921E-3,-324.00000095E-3,,,,,-21.29999921E-3,-348.00001979E-3,
,,,-21.27999812E-3,-328.00000906E-3,,,,,-21.27999812E-3,-352.00002789E-3,
,,,-21.25999890E-3,-332.00001717E-3,,,,,-21.25999890E-3,-356.00000620E-3,
,,,-21.23999782E-3,-336.00002527E-3,,,,,-21.23999782E-3,-356.00000620E-3,
,,,-21.21999860E-3,-340.00000358E-3,,,,,-21.21999860E-3,-356.00000620E-3,
,,,-21.19999938E-3,-344.00001168E-3,,,,,-21.19999938E-3,-360.00001431E-3,
,,,-21.17999829E-3,-344.00001168E-3,,,,,-21.17999829E-3,-360.00001431E-3,
,,,-21.15999907E-3,-348.00001979E-3,,,,,-21.15999907E-3,-360.00001431E-3,
,,,-21.13999799E-3,-352.00002789E-3,,,,,-21.13999799E-3,-360.00001431E-3,
,,,-21.11999877E-3,-356.00000620E-3,,,,,-21.11999877E-3,-364.00002241E-3,
,,,-21.09999768E-3,-356.00000620E-3,,,,,-21.09999768E-3,-360.00001431E-3,
,,,-21.07999846E-3,-356.00000620E-3,,,,,-21.07999846E-3,-360.00001431E-3,
,,,-21.05999924E-3,-360.00001431E-3,,,,,-21.05999924E-3,-364.00002241E-3,
,,,-21.03999816E-3,-360.00001431E-3,,,,,-21.03999816E-3,-360.00001431E-3,
,,,-21.01999894E-3,-364.00002241E-3,,,,,-21.01999894E-3,-360.00001431E-3,
,,,-20.99999785E-3,-364.00002241E-3,,,,,-20.99999785E-3,-364.00002241E-3,
,,,-20.97999863E-3,-364.00002241E-3,,,,,-20.97999863E-3,-360.00001431E-3,
,,,-20.95999941E-3,-368.00003052E-3,,,,,-20.95999941E-3,-360.00001431E-3,
,,,-20.93999833E-3,-368.00003052E-3,,,,,-20.93999833E-3,-360.00001431E-3,
,,,-20.91999911E-3,-368.00003052E-3,,,,,-20.91999911E-3,-360.00001431E-3,
,,,-20.89999802E-3,-372.00000882E-3,,,,,-20.89999802E-3,-356.00000620E-3,
,,,-20.87999880E-3,-368.00003052E-3,,,,,-20.87999880E-3,-356.00000620E-3,
,,,-20.85999772E-3,-368.00003052E-3,,,,,-20.85999772E-3,-352.00002789E-3,
,,,-20.83999850E-3,-368.00003052E-3,,,,,-20.83999850E-3,-348.00001979E-3,
,,,-20.81999928E-3,-368.00003052E-3,,,,,-20.81999928E-3,-344.00001168E-3,
,,,-20.79999819E-3,-364.00002241E-3,,,,,-20.79999819E-3,-340.00000358E-3,
,,,-20.77999897E-3,-364.00002241E-3,,,,,-20.77999897E-3,-340.00000358E-3,
,,,-20.75999789E-3,-360.00001431E-3,,,,,-20.75999789E-3,-336.00002527E-3,
,,,-20.73999867E-3,-360.00001431E-3,,,,,-20.73999867E-3,-336.00002527E-3,
,,,-20.71999945E-3,-356.00000620E-3,,,,,-20.71999945E-3,-332.00001717E-3,
,,,-20.69999836E-3,-360.00001431E-3,,,,,-20.69999836E-3,-328.00000906E-3,
,,,-20.67999914E-3,-352.00002789E-3,,,,,-20.67999914E-3,-320.00002265E-3,
,,,-20.65999806E-3,-352.00002789E-3,,,,,-20.65999806E-3,-320.00002265E-3,
,,,-20.63999884E-3,-348.00001979E-3,,,,,-20.63999884E-3,-312.00000644E-3,
,,,-20.61999775E-3,-348.00001979E-3,,,,,-20.61999775E-3,-308.00002813E-3,
,,,-20.59999853E-3,-344.00001168E-3,,,,,-20.59999853E-3,-304.00002003E-3,
,,,-20.57999931E-3,-340.00000358E-3,,,,,-20.57999931E-3,-300.00001192E-3,
,,,-20.55999823E-3,-340.00000358E-3,,,,,-20.55999823E-3,-296.00000381E-3,
,,,-20.53999901E-3,-336.00002527E-3,,,,,-20.53999901E-3,-288.00001740E-3,
,,,-20.51999792E-3,-332.00001717E-3,,,,,-20.51999792E-3,-288.00001740E-3,
,,,-20.49999870E-3,-328.00000906E-3,,,,,-20.49999870E-3,-280.00000119E-3,
,,,-20.47999948E-3,-320.00002265E-3,,,,,-20.47999948E-3,-276.00002289E-3,
,,,-20.45999840E-3,-316.00001454E-3,,,,,-20.45999840E-3,-268.00000668E-3,
,,,-20.43999918E-3,-316.00001454E-3,,,,,-20.43999918E-3,-263.99999857E-3,
,,,-20.41999809E-3,-308.00002813E-3,,,,,-20.41999809E-3,-256.00001216E-3,
,,,-20.39999887E-3,-304.00002003E-3,,,,,-20.39999887E-3,-252.00000405E-3,
,,,-20.37999779E-3,-300.00001192E-3,,,,,-20.37999779E-3,-248.00001085E-3,
,,,-20.35999857E-3,-292.00002551E-3,,,,,-20.35999857E-3,-236.00001633E-3,
,,,-20.33999935E-3,-288.00001740E-3,,,,,-20.33999935E-3,-232.00000823E-3,
,,,-20.31999826E-3,-284.00000930E-3,,,,,-20.31999826E-3,-224.00000691E-3,
,,,-20.29999904E-3,-276.00002289E-3,,,,,-20.29999904E-3,-216.00000560E-3,
,,,-20.27999796E-3,-272.00001478E-3,,,,,-20.27999796E-3,-208.00000429E-3,
,,,-20.25999874E-3,-263.99999857E-3,,,,,-20.25999874E-3,-204.00001109E-3,
,,,-20.23999952E-3,-256.00001216E-3,,,,,-20.23999952E-3,-192.00000167E-3,
,,,-20.21999843E-3,-252.00000405E-3,,,,,-20.21999843E-3,-188.00000846E-3,
,,,-20.19999921E-3,-248.00001085E-3,,,,,-20.19999921E-3,-180.00000715E-3,
,,,-20.17999813E-3,-236.00001633E-3,,,,,-20.17999813E-3,-172.00000584E-3,
,,,-20.15999891E-3,-232.00000823E-3,,,,,-20.15999891E-3,-164.00000453E-3,
,,,-20.13999783E-3,-224.00000691E-3,,,,,-20.13999783E-3,-156.00000322E-3,
,,,-20.11999860E-3,-220.00001371E-3,,,,,-20.11999860E-3,-148.0000019E-3,
,,,-20.09999938E-3,-208.00000429E-3,,,,,-20.09999938E-3,-140.0000006E-3,
,,,-20.0799983E-3,-200.00000298E-3,,,,,-20.0799983E-3,-131.9999993E-3,
,,,-20.0599991E-3,-192.00000167E-3,,,,,-20.0599991E-3,-124.0000054E-3,
,,,-20.0399980E-3,-184.00001526E-3,,,,,-20.0399980E-3,-116.0000041E-3,
,,,-20.0199988E-3,-176.00001395E-3,,,,,-20.0199988E-3,-108.0000028E-3,
,,,-19.9999996E-3,-168.00001264E-3,,,,,-19.9999996E-3,-100.0000015E-3,
,,,-19.9799985E-3,-164.00000453E-3,,,,,-19.9799985E-3,-88.000006974E-3,
,,,-19.9599992E-3,-152.00001001E-3,,,,,-19.9599992E-3,-84.000006318E-3,
,,,-19.9399982E-3,-140.0000006E-3,,,,,-19.9399982E-3,-72.000004351E-3,
,,,-19.9199989E-3,-136.0000074E-3,,,,,-19.9199989E-3,-64.000003040E-3,
,,,-19.8999979E-3,-128.0000061E-3,,,,,-19.8999979E-3,-56.000001729E-3,
,,,-19.8799986E-3,-120.0000048E-3,,,,,-19.8799986E-3,-48.00000042E-3,
,,,-19.8599994E-3,-108.0000028E-3,,,,,-19.8599994E-3,-40.00000283E-3,
,,,-19.8399983E-3,-104.0000021E-3,,,,,-19.8399983E-3,-28.00000086E-3,
,,,-19.8199991E-3,-96.000000834E-3,,,,,-19.8199991E-3,-20.0000014E-3,
,,,-19.7999980E-3,-84.000006318E-3,,,,,-19.7999980E-3,-12.0000001E-3,
,,,-19.7799988E-3,-76.000005007E-3,,,,,-19.7799988E-3,-4.00000019E-3,
,,,-19.7599977E-3,-68.000003695E-3,,,,,-19.7599977E-3,8.000000380E-3,
,,,-19.7399985E-3,-56.000001729E-3,,,,,-19.7399985E-3,16.0000008E-3,
,,,-19.7199993E-3,-48.00000042E-3,,,,,-19.7199993E-3,24.00000021E-3,
,,,-19.6999982E-3,-40.00000283E-3,,,,,-19.6999982E-3,36.00000218E-3,
,,,-19.6799990E-3,-32.00000152E-3,,,,,-19.6799990E-3,44.00000349E-3,
,,,-19.6599979E-3,-20.0000014E-3,,,,,-19.6599979E-3,48.00000042E-3,
,,,-19.6399987E-3,-8.000000380E-3,,,,,-19.6399987E-3,60.000002384E-3,
